{
    "@class": "com.kony.gen.viz.model.component.KVizButton",
    "DNDConfig": null,
    "__parentReadjusting__": false,
    "_height_": {
        "type": "string",
        "value": "100%"
    },
    "_margin_": [
        6,
        6,
        6,
        6
    ],
    "_padding_": [
        0,
        0,
        0,
        0
    ],
    "_right_": {
        "type": "string",
        "value": "2%"
    },
    "_skin_": "sfdddcea6cff4d788f42120343a323ef",
    "_text_": "o",
    "_top_": {
        "type": "string",
        "value": "2%"
    },
    "_width_": {
        "type": "string",
        "value": "10%"
    },
    "canUpdateUI": true,
    "containerweight": 100,
    "contentalignment": 6,
    "disabledSkins": {
        "focusSkin": "sfdddcea6cff4d788f42120343a323ef"
    },
    "displaytext": true,
    "id": "btnDropDown",
    "ide_onClick": "AS_Button_j374f6babe6c4b60b6d49cc95cc13f8d",
    "info": null,
    "isvisible": true,
    "kuid": "b9642d3344c84d20b18448e1eccbbcbd",
    "name": "kony.ui.Button",
    "parent": "flxCardReason",
    "pf": "frmCancelCardKA",
    "wType": "Button",
    "zindex": 1
}