{
    "@class": "com.kony.gen.viz.model.component.KVizLabel", 
    "DNDConfig": null, 
    "__parentReadjusting__": false, 
    "_height_": {
        "type": "ref", 
        "value": "preferred"
    }, 
    "_left_": {
        "type": "string", 
        "value": "20%"
    }, 
    "_margin_": [
        1, 
        1, 
        1, 
        1
    ], 
    "_padding_": [
        0, 
        0, 
        0, 
        0
    ], 
    "_skin_": "s017d1a0aee6472ba43e0f6d39927313", 
    "_text_": "device ID&&", 
    "_top_": {
        "type": "string", 
        "value": "10dp"
    }, 
    "_width_": {
        "type": "string", 
        "value": "80%"
    }, 
    "_wrapping_": 2, 
    "canUpdateUI": true, 
    "centerx": {
        "type": "string", 
        "value": "50%"
    }, 
    "containerweight": 100, 
    "contentalignment": 5, 
    "enabled": false, 
    "id": "lblDeviceIdKA", 
    "info": null, 
    "ipad": {
        "psp": {
            "wrapping": 2
        }
    }, 
    "iphone": {
        "psp": {
            "wrapping": 2
        }
    }, 
    "isvisible": false, 
    "kuid": "b51b5bd3e03a4f788cb00e411ac0aad4", 
    "name": "kony.ui.Label", 
    "parent": "FlexContainer00a3c07fadcbf4b", 
    "pf": "frmDeviceDeRegistrationKA", 
    "texti18n": "i18n.common.deviceId", 
    "tooltip": "", 
    "wType": "Label", 
    "zindex": 1
}