{
    "@class": "com.kony.gen.viz.model.component.KVizRichText",
    "DNDConfig": null,
    "__markedForDelete__": true,
    "__parentReadjusting__": false,
    "_height_": {
        "type": "string",
        "value": "100%"
    },
    "_left_": {
        "type": "string",
        "value": "6%"
    },
    "_margin_": [
        0,
        0,
        0,
        0
    ],
    "_padding_": [
        0,
        0,
        0,
        0
    ],
    "_right_": {
        "type": "string",
        "value": "6%"
    },
    "_skin_": "s4c3721d32a64fd7a4fd232f4ca0baea",
    "_text_": "Hi, I've sent $1500 to a XYZ bank ATM for you to collect.<br><br>\nYour cash code for collection is: 0988. Use this code to collect cash within 30 minutes.\n",
    "_top_": {
        "type": "string",
        "value": "20dp"
    },
    "_width_": {
        "type": "string",
        "value": "88%"
    },
    "_wrapping_": 2,
    "canUpdateUI": true,
    "containerweight": 100,
    "contentalignment": 1,
    "id": "rchTxtMessage",
    "info": null,
    "isvisible": true,
    "kuid": "ee6f7dfbe648443791df3ef8b70d3ca0",
    "name": "kony.ui.RichText",
    "parent": "flxMessage",
    "pf": "frmCardlessSendMessage",
    "wType": "RichText",
    "widgetalignment": 5,
    "zindex": 1
}