{
    "@class": "com.kony.gen.viz.model.component.KVizButton",
    "DNDConfig": null,
    "__parentReadjusting__": false,
    "_height_": {
        "type": "string",
        "value": "72dp"
    },
    "_left_": {
        "type": "string",
        "value": "36%"
    },
    "_margin_": [
        6,
        6,
        6,
        6
    ],
    "_padding_": [
        0,
        0,
        0,
        0
    ],
    "_skin_": "s3ab10e73bc24d3687ec37d64d30f97c",
    "_text_": "2",
    "_top_": {
        "type": "string",
        "value": "2%"
    },
    "_width_": {
        "type": "string",
        "value": "72dp"
    },
    "canUpdateUI": true,
    "centerx": {
        "type": "string",
        "value": "50%"
    },
    "containerweight": 100,
    "contentalignment": 5,
    "disabledSkins": {},
    "displaytext": true,
    "focusskin": "s91eeaf3bdbd49be8c430a952a997520",
    "id": "btnTwo",
    "ide_onClick": "AS_Button_f55fc4f01ca140e6ab143aad8f9bce54",
    "info": null,
    "iphone": {
        "psp": {
            "showProgressIndicator": false
        }
    },
    "isvisible": true,
    "kuid": "d7c254f1ad0846e2bf7b4e8e3b690620",
    "name": "kony.ui.Button",
    "parent": "flxDialPad",
    "pf": "frmPinEntryStep1",
    "wType": "Button",
    "zindex": 1
}