{
    "@class": "com.kony.gen.viz.model.container.KVizSegment2", 
    "DNDConfig": null, 
    "__parentReadjusting__": false, 
    "_data_": [
        {
            "lblServiceList": {
                "@class": "com.viz.ide.model.segment.SimpleTextSegmentData", 
                "text": ""
            }
        }
    ], 
    "_height_": {
        "type": "string", 
        "value": "85%"
    }, 
    "_indicator_": "none", 
    "_margin_": [
        0, 
        0, 
        0, 
        0
    ], 
    "_orientation_": 2, 
    "_padding_": [
        0, 
        0, 
        0, 
        0
    ], 
    "_right_": {
        "type": "string", 
        "value": "0dp"
    }, 
    "_top_": {
        "type": "string", 
        "value": "50dp"
    }, 
    "_width_": {
        "type": "string", 
        "value": "95%"
    }, 
    "autogrowmode": 0, 
    "canUpdateUI": true, 
    "containerweight": 100, 
    "counter": "00", 
    "focusedindex": null, 
    "focuseditem": null, 
    "generatedtemplate": "7bb7b895f53c4fa285cce703c8bc878d", 
    "groupcells": false, 
    "hasSections": false, 
    "id": "segServiceList", 
    "info": null, 
    "ipad": {
        "psp": {
            "indicator": "rowselect"
        }
    }, 
    "iphone": {
        "psp": {
            "indicator": "none"
        }
    }, 
    "isvisible": true, 
    "kuid": "0774c5e080864db0a0e8c2f7236029f3", 
    "masterdata": {}, 
    "name": "kony.ui.SegmentedUI2", 
    "needpageindicator": true, 
    "paddingLocked": true, 
    "paddinginpixel": false, 
    "pageoffdotimage": "pageoffdot.png", 
    "pageondotimage": "pageondot.png", 
    "paginationconfig": {
        "position": "bottom"
    }, 
    "parent": "servicesContainer", 
    "pf": "frmLocatorATMDetailsKA", 
    "retainselection": false, 
    "rowTemplateId": "7bb7b895f53c4fa285cce703c8bc878d", 
    "rowcounter": 0, 
    "rowfocusskin": "s5fa38be22fb4f22b7c642b08276ab82", 
    "rowskin": "sd2ca277651a46c0ba82f3226859f5a6", 
    "rowtemplate": "CopyFBox0103104335ef34f", 
    "screenlevelwidget": false, 
    "seccounter": 0, 
    "sectionHeaderTemplateId": null, 
    "sectionheaderskin": "s67621b8a82d49f285da06b4f5a0c993", 
    "selectedRows": null, 
    "selectedState": false, 
    "selectedindex": null, 
    "selectedindices": null, 
    "selecteditems": null, 
    "selectedsectionindex": 0, 
    "selectionbehavior": "default", 
    "separatorcolor": "ffffff00", 
    "separatorrequired": true, 
    "separatorthickness": 1, 
    "showscrollbars": false, 
    "viewtype": "tableview", 
    "wType": "Segment", 
    "widgetalignment": 5, 
    "widgetdatamap": {
        "lblServiceList": "lblServiceList"
    }, 
    "zindex": 1
}