{
    "DNDConfig": null,
    "__parentReadjusting__": false,
    "_height_": {
        "type": "string",
        "value": "60%"
    },
    "_margin_": [
        0,
        0,
        0,
        0
    ],
    "_orientation_": 6,
    "_padding_": [
        0,
        0,
        0,
        0
    ],
    "_percent_": true,
    "_skin_": "s72b13af1f654cbe9de1b6abf2f222d1",
    "_top_": {
        "type": "string",
        "value": "20%"
    },
    "_width_": {
        "type": "string",
        "value": "80%"
    },
    "allboxes": [],
    "autogrowmode": 0,
    "canUpdateUI": true,
    "centerx": {
        "type": "string",
        "value": "50%"
    },
    "children": [
        "flxTidRetryHeader",
        "flxCloseTTryagain",
        "flxTAgainImg",
        "lblTryAgain",
        "lblTagianText"
    ],
    "clipbounds": true,
    "containerweight": 100,
    "enablescrolling": true,
    "id": "flxTouchIdtryAgain",
    "info": null,
    "isvisible": false,
    "kuid": "025a6779bd0249de835b5aa1c67d5d91",
    "layouttype": 2,
    "name": "kony.ui.FlexContainer",
    "parent": "flxtouchIdAndrd",
    "pf": "frmLoginKA",
    "snapgridsize": 10,
    "snaptogrid": true,
    "wType": "FlexContainer",
    "widgetalignment": 1,
    "zindex": 1
}