{
    "@class": "com.kony.gen.viz.model.container.KVizSegment2",
    "DNDConfig": null,
    "__parentReadjusting__": false,
    "_data_": [
        {
            "lblJPTransfer": {
                "@class": "com.viz.ide.model.segment.SimpleTextSegmentData",
                "text": "Government Account"
            },
            "lblJomopayType": {
                "@class": "com.viz.ide.model.segment.SimpleTextSegmentData",
                "text": "Label"
            }
        },
        {
            "lblJPTransfer": {
                "@class": "com.viz.ide.model.segment.SimpleTextSegmentData",
                "text": "Government Account"
            },
            "lblJomopayType": {
                "@class": "com.viz.ide.model.segment.SimpleTextSegmentData",
                "text": "Label"
            }
        },
        {
            "lblJPTransfer": {
                "@class": "com.viz.ide.model.segment.SimpleTextSegmentData",
                "text": "Government Account"
            },
            "lblJomopayType": {
                "@class": "com.viz.ide.model.segment.SimpleTextSegmentData",
                "text": "Label"
            }
        },
        {
            "lblJPTransfer": {
                "@class": "com.viz.ide.model.segment.SimpleTextSegmentData",
                "text": "Government Account"
            },
            "lblJomopayType": {
                "@class": "com.viz.ide.model.segment.SimpleTextSegmentData",
                "text": "Label"
            }
        }
    ],
    "_height_": {
        "type": "string",
        "value": "85%"
    },
    "_indicator_": "none",
    "_left_": {
        "type": "string",
        "value": "0%"
    },
    "_margin_": [
        0,
        0,
        0,
        0
    ],
    "_orientation_": 2,
    "_padding_": [
        0,
        0,
        0,
        0
    ],
    "_top_": {
        "type": "string",
        "value": "0%"
    },
    "_width_": {
        "type": "string",
        "value": "95%"
    },
    "autogrowmode": 0,
    "canUpdateUI": true,
    "centerx": {
        "type": "string",
        "value": "50%"
    },
    "centery": {
        "type": "string",
        "value": "50%"
    },
    "containerweight": 100,
    "counter": "03",
    "focusedindex": null,
    "focuseditem": null,
    "groupcells": false,
    "hasSections": false,
    "id": "segPopup",
    "ide_onRowClick": "AS_Segment_db112cf714c549f286cc83e0352af7af",
    "info": null,
    "ipad": {
        "psp": {
            "indicator": "rowselect"
        }
    },
    "iphone": {
        "psp": {
            "indicator": "rowselect"
        }
    },
    "isvisible": true,
    "kuid": "eb2eb174805f4f109ec1bc852ab7d0a7",
    "masterdata": {},
    "name": "kony.ui.SegmentedUI2",
    "needpageindicator": true,
    "pageoffdotimage": "pageoffdot.png",
    "pageondotimage": "pageondot.png",
    "paginationconfig": {
        "position": "bottom"
    },
    "parent": "flxInnerPopup",
    "pf": "frmJoMoPay",
    "retainselection": false,
    "rowTemplateId": "h3dd9514255f480bb69fb6950e2a608f",
    "rowcounter": 3,
    "rowfocusskin": "s5fa38be22fb4f22b7c642b08276ab82",
    "rowskin": "sd2ca277651a46c0ba82f3226859f5a6",
    "rowtemplate": "flxJPPopup",
    "screenlevelwidget": false,
    "seccounter": 0,
    "sectionheaderskin": "s67621b8a82d49f285da06b4f5a0c993",
    "selectedRows": null,
    "selectedState": false,
    "selectedindex": null,
    "selectedindices": null,
    "selecteditems": null,
    "selectedsectionindex": 0,
    "selectionbehavior": "default",
    "separatorrequired": true,
    "showscrollbars": false,
    "viewtype": "tableview",
    "wType": "Segment",
    "widgetalignment": 5,
    "widgetdatamap": {
        "flxJPPopup": "flxJPPopup",
        "lblJPTransfer": "lblJPTransfer",
        "lblJomopayType": "lblJomopayType"
    },
    "zindex": 20
}