{
    "@class": "com.kony.gen.viz.model.component.KVizTextBox2",
    "DNDConfig": null,
    "__markedForDelete__": true,
    "__parentReadjusting__": false,
    "_height_": {
        "type": "string",
        "value": "100%"
    },
    "_left_": {
        "type": "string",
        "value": "1%"
    },
    "_margin_": [
        0,
        0,
        0,
        0
    ],
    "_padding_": [
        0,
        0,
        0,
        0
    ],
    "_placeholder_": "",
    "_skin_": "s029998596d3421892d0917ea7492e1d",
    "_text_": "",
    "_top_": {
        "type": "string",
        "value": "0%"
    },
    "_width_": {
        "type": "string",
        "value": "90%"
    },
    "android": {
        "ide_onBeginEditing": "AS_TextField_jea7df8c20a04520a9d9fd405b2d38a8",
        "ide_onEndEditing": "AS_TextField_bbd722cbd4674b168807efe7d4de13a9"
    },
    "autocapitalize": "none",
    "autocomplete": false,
    "autocorrect": false,
    "autofilter": false,
    "canUpdateUI": true,
    "containerheight": "",
    "containerheightmode": 1,
    "containerweight": 100,
    "contentalignment": 7,
    "focusskin": "sa25e426dcb94c13ab46f59a2b31a09a",
    "id": "txtPhoneNo",
    "ide_onDone": "AS_TextField_d7ae597713984b5eb36c253f1b8d4104",
    "ide_onTextChange": "AS_TextField_j359cd6e26024eb8aca6f22a6aa09272",
    "ide_onTouchEnd": "AS_TextField_aed902da642c4309b1f59a07dabb139a",
    "ide_onTouchStart": "AS_TextField_b57e5176b14a4e9591606105d07090af",
    "info": null,
    "iphone": {
        "ide_onBeginEditing": "AS_TextField_h298586a8f1a4d9a9ccdf90616a9329c",
        "ide_onEndEditing": "AS_TextField_a1134be04aea41d2bfc20ab6e2183ebe",
        "psp": {
            "keyboardActionLabel": 4,
            "showClearButton": false,
            "showCloseButton": false,
            "showProgressIndicator": false
        }
    },
    "isvisible": true,
    "keyboardactionlabel": 4,
    "keyboardstyle": "A",
    "keyboardtype": "A",
    "kuid": "e798a7423fb847d288e425562c038d20",
    "maxtextlength": 15,
    "mode": "N",
    "name": "kony.ui.TextBox2",
    "paddinginpixel": false,
    "parent": "flxAlias",
    "pf": "frmJoMoPay",
    "securetextentry": false,
    "showclearbutton": false,
    "showoprogressindicator": false,
    "textinputmode": "N",
    "viewtype": "default",
    "wType": "TextField",
    "zindex": 1
}