{
    "@class": "com.kony.gen.viz.model.component.KVizButton",
    "DNDConfig": null,
    "__parentReadjusting__": false,
    "_height_": {
        "type": "string",
        "value": "50dp"
    },
    "_left_": {
        "type": "string",
        "value": "2%"
    },
    "_margin_": [
        6,
        6,
        6,
        6
    ],
    "_padding_": [
        0,
        0,
        0,
        0
    ],
    "_skin_": "s1b558d5a76c4e74aa712819f5be63d1",
    "_text_": "j",
    "_width_": {
        "type": "string",
        "value": "20%"
    },
    "canUpdateUI": true,
    "centery": {
        "type": "string",
        "value": "50%"
    },
    "containerweight": 100,
    "contentalignment": 4,
    "disabledSkins": {
        "focusSkin": "sb803869ef8f4c42a3233b6ac9dce91b"
    },
    "displaytext": true,
    "id": "androidBack",
    "ide_onClick": "AS_Button_fecbbcd7ddfb47379ac2d28eb593b3e4",
    "info": null,
    "iphone": {
        "psp": {
            "showProgressIndicator": false
        }
    },
    "isvisible": true,
    "kuid": "cd06cc9134d94f40af2f2b54c2ef2460",
    "name": "kony.ui.Button",
    "onclick": "AS_Button_50e925a9c0b341f79cb9b6105268376a",
    "parent": "androidTitleBar",
    "pf": "frmTermsAndConditionsKA",
    "showprogressindicator": false,
    "texti18n": "i18n.common.back",
    "wType": "Button",
    "zindex": 1
}