{
    "splashScreen": {
        "desktop": {
            "desktopweb": {},
            "kiosk": {}
        },
        "mobile": {
            "android": {
                "splashImage": "bojsplash.png",
                "splashVideo": "boj_splashand.mp4"
            },
            "iphone": {
                "splashConfig": {
                    "_skin_": "s3f768fd25ab44b297054cc4d6ed59a4",
                    "children": [
                        {
                            "isvisible": true,
                            "kuid": "6fe1377d9f9d426e8862c98deffb2dc0",
                            "id": "splashImage",
                            "_left_": {
                                "type": "string",
                                "value": "0dp"
                            },
                            "_top_": {
                                "type": "string",
                                "value": "0dp"
                            },
                            "_width_": {
                                "type": "string",
                                "value": "100%"
                            },
                            "_height_": {
                                "type": "string",
                                "value": "100%"
                            },
                            "wType": "Image",
                            "_src_": "bojsplash.png",
                            "contentmode": 0,
                            "UIElementType": "Image"
                        }
                    ]
                },
                "splashVideo": "boj_splash.mp4"
            },
            "spa": {},
            "spaan": {},
            "spaip": {},
            "spawinphone8": {},
            "splashImage": null,
            "winphone10": {},
            "winphone8": {}
        },
        "tablet": {
            "android": {},
            "ipad": {
                "landscape": {},
                "splashConfig": {
                    "_skin_": "s3f768fd25ab44b297054cc4d6ed59a4",
                    "children": []
                }
            },
            "spa": {},
            "spaandroidtablet": {},
            "spaipad": {},
            "spawindowstablet": {},
            "windows10": {},
            "windows8": {}
        }
    }
}