{
    "DNDConfig": null,
    "__markedForDelete__": true,
    "__parentReadjusting__": false,
    "_height_": {
        "type": "string",
        "value": "60dp"
    },
    "_left_": {
        "type": "string",
        "value": "0dp"
    },
    "_margin_": [
        0,
        0,
        0,
        0
    ],
    "_orientation_": 6,
    "_padding_": [
        0,
        0,
        0,
        0
    ],
    "_percent_": true,
    "_skin_": "s5449e85b7e0472ba7d4939096f3873d",
    "_top_": {
        "type": "string",
        "value": "0dp"
    },
    "_width_": {
        "type": "string",
        "value": "100%"
    },
    "allboxes": [],
    "autogrowmode": 0,
    "canUpdateUI": true,
    "children": [
        "Copydivider0g40efbf51f2e43",
        "Label0iaea4bf2e19d49",
        "Image0bc353ca63a3741",
        "Copydivider0j4d309edce274d"
    ],
    "clipbounds": true,
    "containerweight": 100,
    "enablescrolling": true,
    "id": "disputeTransactionFlex",
    "ide_onClick": "AS_FlexContainer_d89955c9bd8b4438afbaf7c5a6a2cdf1",
    "info": null,
    "isvisible": true,
    "kuid": "b2cf876f868646a4818bfdc004635598",
    "layouttype": 2,
    "name": "kony.ui.FlexContainer",
    "parent": "flxNotes",
    "pf": "frmRecentTransactionDetailsKA",
    "snapgridsize": 10,
    "snaptogrid": true,
    "wType": "FlexContainer",
    "widgetalignment": 1,
    "zindex": 1
}