{
    "@class": "com.kony.gen.viz.model.component.KVizLabel", 
    "DNDConfig": null, 
    "__parentReadjusting__": false, 
    "_height_": {
        "type": "ref", 
        "value": "preferred"
    }, 
    "_left_": {
        "type": "string", 
        "value": "5%"
    }, 
    "_margin_": [
        1, 
        1, 
        1, 
        1
    ], 
    "_padding_": [
        0, 
        0, 
        0, 
        0
    ], 
    "_skin_": "s1b0f89cfd734cb39fe321eea964e34c", 
    "_text_": "To:", 
    "_top_": {
        "type": "string", 
        "value": "20dp"
    }, 
    "_width_": {
        "type": "ref", 
        "value": "preferred"
    }, 
    "_wrapping_": 2, 
    "canUpdateUI": true, 
    "containerweight": 100, 
    "contentalignment": 4, 
    "enabled": false, 
    "id": "lblToKA", 
    "info": null, 
    "ipad": {
        "psp": {
            "wrapping": 2
        }
    }, 
    "iphone": {
        "psp": {
            "wrapping": 2
        }
    }, 
    "isvisible": true, 
    "kuid": "db7712d745b643e5809e6091032d130c", 
    "name": "kony.ui.Label", 
    "parent": "additionalDetails1", 
    "pf": "frmRecentDepositKA", 
    "texti18n": "i18n.common.To", 
    "tooltip": "", 
    "wType": "Label"
}