{
    "@class": "com.kony.gen.viz.model.component.KVizLabel", 
    "DNDConfig": null, 
    "__parentReadjusting__": false, 
    "_height_": {
        "type": "ref", 
        "value": "preferred"
    }, 
    "_left_": {
        "type": "string", 
        "value": "55dp"
    }, 
    "_margin_": [
        1, 
        1, 
        1, 
        1
    ], 
    "_padding_": [
        0, 
        0, 
        0, 
        0
    ], 
    "_skin_": "s7ecf8837330473696a383d6dc393d4d", 
    "_text_": "Check Re-Order", 
    "_width_": {
        "type": "string", 
        "value": "70%"
    }, 
    "_wrapping_": 2, 
    "canUpdateUI": true, 
    "centery": {
        "type": "string", 
        "value": "50%"
    }, 
    "containerweight": 100, 
    "contentalignment": 4, 
    "enabled": false, 
    "id": "androidTitleLabel", 
    "info": null, 
    "ipad": {
        "psp": {
            "wrapping": 2
        }
    }, 
    "iphone": {
        "psp": {
            "wrapping": 2
        }
    }, 
    "isvisible": true, 
    "kuid": "8cb6ece015c94aabbf985340ba4bded3", 
    "name": "kony.ui.Label", 
    "parent": "androidTitleBar", 
    "pf": "frmMoreCheckReorderKA", 
    "texti18n": "i18n.more.CheckReOrder", 
    "tooltip": "", 
    "wType": "Label"
}