{
    "DNDConfig": null,
    "_height_": {
        "type": "string",
        "value": "140dp"
    },
    "_margin_": [
        0,
        0,
        0,
        0
    ],
    "_orientation_": 6,
    "_padding_": [
        0,
        0,
        0,
        0
    ],
    "_percent_": true,
    "_skin_": "s68051715894449abfa87d6c5dfb9744",
    "_width_": {
        "type": "string",
        "value": "250dp"
    },
    "allboxes": [],
    "autogrowmode": 0,
    "canUpdateUI": true,
    "children": [
        "flxTopDetails"
    ],
    "clipbounds": true,
    "containerId": true,
    "containerweight": 100,
    "disabledSkins": {
        "focusSkin": "s0a5765d00e7438ab2541bb39d029708"
    },
    "enablescrolling": true,
    "id": "flxMapATMBranch",
    "info": null,
    "isvisible": true,
    "kuid": "5a6e0a4f0ac7494abd1b48919a681fac",
    "layouttype": 2,
    "name": "kony.ui.FlexContainer",
    "parent": "mapATMBranch",
    "pf": "mapATMBranch",
    "snapgridsize": 10,
    "snaptogrid": true,
    "wType": "FlexContainer",
    "widgetalignment": 5
}