{
    "@class": "com.kony.gen.viz.model.component.KVizLabel",
    "DNDConfig": null,
    "__parentReadjusting__": false,
    "_height_": {
        "type": "string",
        "value": "33.33%"
    },
    "_left_": {
        "type": "string",
        "value": "28dp"
    },
    "_margin_": [
        1,
        1,
        1,
        1
    ],
    "_padding_": [
        0,
        0,
        0,
        0
    ],
    "_right_": {
        "type": "string",
        "value": "0dp"
    },
    "_skin_": "s88b201e169f4b158e9eb8160f93a5c8",
    "_text_": "CLOSED",
    "_top_": {
        "type": "string",
        "value": "57dp"
    },
    "_wrapping_": 2,
    "android": {
        "textStyle": {
            "letterSpacing": 0,
            "strikeThrough": false
        }
    },
    "canUpdateUI": true,
    "containerId": true,
    "containerweight": 100,
    "contentalignment": 4,
    "id": "lblStatus",
    "info": null,
    "ipad": {
        "psp": {
            "wrapping": 2
        }
    },
    "iphone": {
        "psp": {
            "wrapping": 2
        }
    },
    "isvisible": true,
    "kuid": "4bbd4626d8c844ff835cd1212ba83c93",
    "name": "kony.ui.Label",
    "parent": "flxDetails",
    "pf": "mapATMBranch",
    "tooltip": "",
    "wType": "Label"
}