{
    "@class": "com.kony.gen.viz.model.component.KVizButton",
    "DNDConfig": null,
    "__parentReadjusting__": false,
    "_height_": {
        "type": "string",
        "value": "90%"
    },
    "_margin_": [
        6,
        6,
        6,
        6
    ],
    "_padding_": [
        0,
        0,
        0,
        0
    ],
    "_skin_": "s51d68053cae4eba826625de179be4ae",
    "_text_": "",
    "_top_": {
        "type": "string",
        "value": "5%"
    },
    "_width_": {
        "type": "string",
        "value": "80%"
    },
    "canUpdateUI": true,
    "centerx": {
        "type": "string",
        "value": "50%"
    },
    "centery": {
        "type": "string",
        "value": "50%"
    },
    "containerweight": 100,
    "contentalignment": 5,
    "disabledSkins": {},
    "displaytext": true,
    "focusskin": "s51d68053cae4eba826625de179be4ae",
    "id": "btnConfirm",
    "ide_onClick": "AS_Button_6b9fcdd57f9145a9b4e38255741be7fb",
    "info": null,
    "isvisible": true,
    "kuid": "a4af94a47c7641c3bdc05d54f576fde9",
    "name": "kony.ui.Button",
    "parent": "FlexContainer002f7e6e2ce6b49",
    "pf": "frmConfirmTransferKA",
    "texti18n": "i18n.P2P.confirm",
    "wType": "Button"
}