{
    "@class": "com.kony.gen.viz.model.component.KVizButton",
    "DNDConfig": null,
    "__parentReadjusting__": false,
    "_height_": {
        "type": "string",
        "value": "35dp"
    },
    "_margin_": [
        6,
        6,
        6,
        6
    ],
    "_padding_": [
        0,
        0,
        0,
        0
    ],
    "_skin_": "s94d80e187a44bd9bb9ce6db5e729010",
    "_text_": "Edit",
    "_top_": {
        "type": "string",
        "value": "5dp"
    },
    "_width_": {
        "type": "string",
        "value": "260dp"
    },
    "canUpdateUI": true,
    "centerx": {
        "type": "string",
        "value": "50%"
    },
    "containerweight": 100,
    "contentalignment": 5,
    "displaytext": true,
    "focusskin": "s6e8459b84e349d98629a088bbfe1304",
    "id": "CopybtnEditTranscation0g2d647ca0dd94c",
    "ide_onClick": "AS_Button_ecab9899355944a9855254a0183c3082",
    "info": null,
    "isvisible": false,
    "kuid": "cf261e65efe04a7aa2554ca23c57394e",
    "name": "kony.ui.Button",
    "parent": "CopyFlexContainer0fc7f7685c2ae49",
    "pf": "frmConfirmTransferKA",
    "wType": "Button",
    "zindex": 1
}