{
    "@class": "com.kony.gen.viz.model.component.KVizButton",
    "DNDConfig": null,
    "__parentReadjusting__": false,
    "_height_": {
        "type": "string",
        "value": "50%"
    },
    "_left_": {
        "type": "string",
        "value": "0%"
    },
    "_margin_": [
        6,
        6,
        6,
        6
    ],
    "_padding_": [
        2,
        0,
        0,
        0
    ],
    "_skin_": "s184a9f68e834d6aa017819b71ff5ad4",
    "_text_": "",
    "_top_": {
        "type": "string",
        "value": "0.00%"
    },
    "_width_": {
        "type": "string",
        "value": "20%"
    },
    "canUpdateUI": true,
    "centery": {
        "type": "string",
        "value": "45%"
    },
    "containerweight": 100,
    "contentalignment": 4,
    "disabledSkins": {},
    "displaytext": true,
    "focusskin": "s184a9f68e834d6aa017819b71ff5ad4",
    "id": "btnBack",
    "ide_onClick": "AS_Button_c4427b68dee74ca6acda42f8bc798d89",
    "info": null,
    "isvisible": true,
    "kuid": "cac7f0e59f2e4ff8808efd15d5afaa56",
    "name": "kony.ui.Button",
    "paddinginpixel": false,
    "parent": "flxSettingsHeader",
    "pf": "frmSettingsKA",
    "texti18n": "i18n.common.back",
    "wType": "Button",
    "zindex": 2
}