{
    "@class": "com.kony.gen.viz.model.component.KVizLabel",
    "DNDConfig": null,
    "__parentReadjusting__": false,
    "_height_": {
        "type": "ref",
        "value": "preferred"
    },
    "_margin_": [
        1,
        1,
        1,
        1
    ],
    "_padding_": [
        0,
        0,
        0,
        0
    ],
    "_skin_": "s94c6b278d1243898f734f4f2316f2c8",
    "_text_": "Deposits",
    "_top_": {
        "type": "string",
        "value": "34dp"
    },
    "_width_": {
        "type": "ref",
        "value": "preferred"
    },
    "_wrapping_": 2,
    "canUpdateUI": true,
    "centerx": {
        "type": "string",
        "value": "50%"
    },
    "containerId": true,
    "containerweight": 100,
    "contentalignment": 5,
    "enabled": false,
    "id": "CopyLabel0a52cc38683b843",
    "info": null,
    "ipad": {
        "psp": {
            "wrapping": 2
        }
    },
    "iphone": {
        "psp": {
            "wrapping": 2
        }
    },
    "isvisible": true,
    "kuid": "098e8ce7f53e4137aff5fec436f6b5ea",
    "name": "kony.ui.Label",
    "parent": "CopyFlexContainer0dceea0807f8140",
    "pf": "tabBarDeposits",
    "texti18n": "i18n.common.deposits",
    "tooltip": "",
    "wType": "Label",
    "zindex": 1
}