{
    "DNDConfig": null,
    "_height_": {
        "type": "string",
        "value": "15%"
    },
    "_margin_": [
        0,
        0,
        0,
        0
    ],
    "_orientation_": 6,
    "_padding_": [
        0,
        0,
        0,
        0
    ],
    "_percent_": true,
    "_skin_": "scb5e0a306aa4f1ebc927ed221428e36",
    "allboxes": [],
    "autogrowmode": 0,
    "canUpdateUI": true,
    "children": [
        "flxContents",
        "imgIcon"
    ],
    "clipbounds": true,
    "containerId": true,
    "containerweight": 100,
    "enablescrolling": true,
    "id": "flxAccountDetailsScreenTemplate",
    "info": null,
    "isTemplate": true,
    "isvisible": true,
    "kuid": "a223a13cb06d4d72a3da170eeac2df64",
    "layouttype": 2,
    "name": "kony.ui.FlexContainer",
    "parent": "tmpAccountDetailsScreen",
    "pf": "tmpAccountDetailsScreen",
    "snapgridsize": 10,
    "snaptogrid": true,
    "wType": "FlexContainer",
    "widgetalignment": 1
}