{
    "@class": "com.kony.gen.viz.model.component.KVizButton",
    "DNDConfig": null,
    "__parentReadjusting__": false,
    "_height_": {
        "type": "string",
        "value": "50%"
    },
    "_left_": {
        "type": "string",
        "value": "0dp"
    },
    "_margin_": [
        6,
        6,
        6,
        6
    ],
    "_padding_": [
        0,
        0,
        0,
        0
    ],
    "_skin_": "sbdbc65107b746c7870a660f64d4b256",
    "_text_": "w",
    "_width_": {
        "type": "string",
        "value": "15%"
    },
    "canUpdateUI": true,
    "centery": {
        "type": "string",
        "value": "50%"
    },
    "containerweight": 100,
    "contentalignment": 5,
    "displaytext": true,
    "focusskin": "s903c1f5df8d483cb2182e4eef9615e2",
    "id": "btnDelete",
    "ide_onClick": "AS_Button_i77a9d5add9c46438b031fbd1d7046f9",
    "info": null,
    "isvisible": true,
    "kuid": "dfa45dd829fd4ef2b5d8dba99dc69357",
    "name": "kony.ui.Button",
    "parent": "flxBiller",
    "pf": "frmPayeeDetailsKA",
    "wType": "Button",
    "zindex": 1
}