{
    "DNDConfig": null,
    "__markedForDelete__": true,
    "__parentReadjusting__": false,
    "_height_": {
        "type": "string",
        "value": "100dp"
    },
    "_left_": {
        "type": "string",
        "value": "0"
    },
    "_margin_": [
        0,
        0,
        0,
        0
    ],
    "_padding_": [
        0,
        0,
        0,
        0
    ],
    "_skin_": "s3eaae82ed2b4f849e66577b8bc7b07b",
    "_width_": {
        "type": "string",
        "value": "33.33%"
    },
    "allboxes": [],
    "autogrowmode": 0,
    "canUpdateUI": true,
    "centery": {
        "type": "string",
        "value": "50%"
    },
    "children": [
        "CopyStatementsFlx0c375d1f5e2b040",
        "CopybuttonDivider0ecc8f178916c48",
        "CopyStatementsButton0e8c3ee76c00d42"
    ],
    "clipbounds": true,
    "containerweight": 100,
    "enabled": false,
    "enablescrolling": true,
    "id": "CopyStatementsWrapper0fe2c9a16a9c84b",
    "info": null,
    "isvisible": false,
    "kuid": "h4b93640024647febcac676d9ef21e20",
    "layouttype": 2,
    "masterType": 1,
    "name": "kony.ui.FlexContainer",
    "orientation": 6,
    "parent": "CopyactionWrapper0d3c3d4aa2a8548",
    "percent": true,
    "pf": "frmAccountDetailKA",
    "snapgridsize": 10,
    "snaptogrid": true,
    "wType": "FlexContainer",
    "widgetalignment": 1,
    "zindex": 1
}