{
    "@class": "com.kony.gen.viz.model.component.KVizButton",
    "DNDConfig": null,
    "__markedForDelete__": true,
    "__parentReadjusting__": false,
    "_height_": {
        "type": "string",
        "value": "100%"
    },
    "_left_": {
        "type": "string",
        "value": "0dp"
    },
    "_margin_": [
        6,
        6,
        6,
        6
    ],
    "_padding_": [
        0,
        0,
        0,
        0
    ],
    "_skin_": "sf4c71c69f1c4daea4ad29ab9a872acb",
    "_text_": "",
    "_top_": {
        "type": "string",
        "value": "0dp"
    },
    "_width_": {
        "type": "string",
        "value": "100%"
    },
    "canUpdateUI": true,
    "containerweight": 100,
    "contentalignment": 5,
    "displaytext": true,
    "focusskin": "see2b0de11b94750ae95a6a69d368461",
    "id": "CopyAccountDetailsButton0f3c910d09abe41",
    "ide_onClick": "AS_Button_e0ab5fd36b654f61a457251a624f0e19",
    "info": null,
    "iphone": {
        "psp": {
            "showProgressIndicator": false
        }
    },
    "isvisible": false,
    "kuid": "c551c32e01b14960a13cb8cd35ac56d3",
    "name": "kony.ui.Button",
    "parent": "CopyAccountDetailsWrapper0c341cf3e0a544b",
    "pf": "frmAccountDetailKA",
    "showprogressindicator": false,
    "wType": "Button",
    "zindex": 1
}