{
    "@class": "com.kony.gen.viz.model.component.KVizImage2",
    "DNDConfig": null,
    "__markedForDelete__": true,
    "__parentReadjusting__": false,
    "_base64_": null,
    "_height_": {
        "type": "string",
        "value": "44dp"
    },
    "_left_": {
        "type": "string",
        "value": "0dp"
    },
    "_margin_": [
        0,
        0,
        0,
        0
    ],
    "_padding_": [
        0,
        0,
        0,
        0
    ],
    "_skin_": "sa625024fef740fea5133ed43bbfac5f",
    "_src_": null,
    "_top_": {
        "type": "string",
        "value": "0dp"
    },
    "_width_": {
        "type": "string",
        "value": "100%"
    },
    "canUpdateUI": true,
    "containerweight": 100,
    "context": {
        "channel": "mobile",
        "formID": "frmAccountsLandingKA",
        "ispercent": true,
        "platform": "android",
        "templateType": "forms",
        "topLevelBox": null
    },
    "id": "imgInFeedAd",
    "ide_onDownloadComplete": "AS_Image_a961263116d94e258e623369f0750d54",
    "imagescalemode": 0,
    "imagewhenfailed": "failedimagered.png",
    "imagewhiledownloading": "infeed_ph.png",
    "info": null,
    "invokedProperty": "src",
    "isvisible": true,
    "kuid": "a6898ae2a2284e669453739be3ed740c",
    "name": "kony.ui.Image2",
    "parent": "flxInFeedAds",
    "pf": "frmAccountsLandingKA",
    "srcType": 1,
    "wType": "Image",
    "widgetalignment": 5,
    "zindex": 1
}