{
    "DNDConfig": null,
    "__parentReadjusting__": false,
    "_height_": {
        "type": "ref",
        "value": "preferred"
    },
    "_left_": {
        "type": "string",
        "value": "0dp"
    },
    "_margin_": [
        0,
        0,
        0,
        0
    ],
    "_orientation_": 6,
    "_padding_": [
        0,
        0,
        0,
        0
    ],
    "_percent_": true,
    "_skin_": "s77117634aa14e58908cea4332c51ada",
    "_top_": {
        "type": "string",
        "value": "105dp"
    },
    "_width_": {
        "type": "string",
        "value": "100%"
    },
    "allboxes": [],
    "autogrowmode": 1,
    "canUpdateUI": true,
    "children": [
        "lblquestion2",
        "lstboxquestn2",
        "CopylblLineKA077ab14ab13414e",
        "tbxAnswer2",
        "CopylblLineKA075b26173b69849"
    ],
    "clipbounds": true,
    "containerweight": 100,
    "enablescrolling": true,
    "id": "flxquestion2",
    "info": null,
    "isvisible": true,
    "kuid": "88cf69f89073449489f26d7980387783",
    "layouttype": 2,
    "name": "kony.ui.FlexContainer",
    "parent": "flxscrollquestions",
    "pf": "frmEnrolluserLandingKA",
    "snapgridsize": 10,
    "snaptogrid": true,
    "wType": "FlexContainer",
    "widgetalignment": 1,
    "zindex": 1
}