{
    "@class": "com.kony.gen.viz.model.component.KVizButton",
    "DNDConfig": null,
    "__markedForDelete__": true,
    "__parentReadjusting__": false,
    "_height_": {
        "type": "string",
        "value": "30%"
    },
    "_left_": {
        "type": "string",
        "value": "0%"
    },
    "_margin_": [
        6,
        6,
        6,
        6
    ],
    "_padding_": [
        0,
        0,
        0,
        0
    ],
    "_skin_": "s810d74ad9374e6f82faa000dbf3ec6b",
    "_text_": "",
    "_top_": {
        "type": "string",
        "value": "0%"
    },
    "_width_": {
        "type": "string",
        "value": "100%"
    },
    "canUpdateUI": true,
    "centerx": {
        "type": "string",
        "value": "50%"
    },
    "containerweight": 100,
    "contentalignment": 5,
    "displaytext": true,
    "focusskin": "s10258a18527426a9b79b1cb0b818c07",
    "id": "forgotpassword",
    "ide_onClick": "AS_Button_h93aa74feb2146829486185a3cdce107",
    "info": null,
    "iphone": {
        "psp": {
            "showProgressIndicator": false
        }
    },
    "isvisible": false,
    "kuid": "f189006d2a974e56b240b532dd9a441c",
    "name": "kony.ui.Button",
    "onclick": "AS_Button_1678b00677844bbe8b7de53086dba31d",
    "parent": "flxForgotusername",
    "pf": "frmEnrolluserLandingKA",
    "showprogressindicator": false,
    "texti18n": "i18n.common.dontusername",
    "wType": "Button",
    "zindex": 5
}