{
    "@class": "com.kony.gen.viz.model.component.KVizTextBox2",
    "DNDConfig": null,
    "__parentReadjusting__": false,
    "_height_": {
        "type": "string",
        "value": "40dp"
    },
    "_left_": {
        "type": "string",
        "value": "12dp"
    },
    "_margin_": [
        0,
        0,
        0,
        0
    ],
    "_padding_": [
        3,
        0,
        0,
        0
    ],
    "_placeholder_": "Enter Your Answer",
    "_skin_": "s30ed80bf4df4dbc82bf36f6122229e2",
    "_text_": "",
    "_top_": {
        "type": "string",
        "value": "66dp"
    },
    "_width_": {
        "type": "string",
        "value": "260dp"
    },
    "autocapitalize": "none",
    "autocomplete": false,
    "autocorrect": false,
    "autofilter": false,
    "canUpdateUI": true,
    "containerheight": "",
    "containerheightmode": 1,
    "containerweight": 100,
    "contentalignment": 4,
    "focusskin": "s16addfe9da944a3add187c9cd34aa56",
    "id": "tbxAnswer2",
    "info": null,
    "iphone": {
        "psp": {
            "keyboardActionLabel": 4
        }
    },
    "isvisible": true,
    "keyboardtype": "A",
    "kuid": "842187ce02cf40388f62b65ea5cbe353",
    "mode": "A",
    "name": "kony.ui.TextBox2",
    "parent": "flxquestion2",
    "pf": "frmEnrolluserLandingKA",
    "placeholderi18n": "i18n.common.answerFieldPlaceholder",
    "securetextentry": false,
    "textinputmode": "A",
    "viewtype": "default",
    "wType": "TextField",
    "zindex": 1
}