{
    "@class": "com.kony.gen.viz.model.component.KVizLabel",
    "DNDConfig": null,
    "__markedForDelete__": true,
    "__parentReadjusting__": false,
    "_height_": {
        "type": "ref",
        "value": "preferred"
    },
    "_margin_": [
        1,
        1,
        1,
        1
    ],
    "_padding_": [
        0,
        0,
        0,
        0
    ],
    "_skin_": "s5ee6c3fb9dc41d5bf5b367b6dbf8452",
    "_text_": "",
    "_width_": {
        "type": "ref",
        "value": "preferred"
    },
    "_wrapping_": 2,
    "android": {
        "textStyle": {
            "letterSpacing": 0,
            "strikeThrough": false
        }
    },
    "canUpdateUI": true,
    "centerx": {
        "type": "string",
        "value": "50%"
    },
    "centery": {
        "type": "string",
        "value": "10%"
    },
    "containerweight": 100,
    "contentalignment": 4,
    "id": "lblSortby",
    "info": null,
    "ipad": {
        "psp": {
            "wrapping": 2
        }
    },
    "iphone": {
        "psp": {
            "wrapping": 2
        }
    },
    "isvisible": true,
    "kuid": "ia84b8e6f219445ea1a9d5e50ad6ee71",
    "name": "kony.ui.Label",
    "parent": "flxAccountDetailsSort",
    "pf": "frmCardStatementKA",
    "texti18n": "i18n.common.sortby",
    "tooltip": "",
    "wType": "Label",
    "zindex": 1
}