{
    "@class": "com.kony.gen.viz.model.component.KVizLabel", 
    "DNDConfig": null, 
    "__parentReadjusting__": false, 
    "_height_": {
        "type": "string", 
        "value": "32dp"
    }, 
    "_left_": {
        "type": "number", 
        "value": "0"
    }, 
    "_margin_": [
        1, 
        1, 
        1, 
        1
    ], 
    "_padding_": [
        0, 
        0, 
        0, 
        0
    ], 
    "_render_": true, 
    "_skin_": "s18c2758d5194233ba217407e3e5537d", 
    "_text_": "Remember Me", 
    "_top_": {
        "type": "string", 
        "value": "0dp"
    }, 
    "_width_": {
        "type": "ref", 
        "value": "preferred"
    }, 
    "_wrapping_": 2, 
    "android": {
        "render": false
    }, 
    "canUpdateUI": true, 
    "centery": {
        "type": "string", 
        "value": "50%"
    }, 
    "containerweight": 100, 
    "contentalignment": 6, 
    "enabled": false, 
    "id": "Label03268408b6f574a", 
    "info": null, 
    "ipad": {
        "psp": {
            "wrapping": 2
        }
    }, 
    "iphone": {
        "psp": {
            "wrapping": 2
        }, 
        "render": true
    }, 
    "isvisible": true, 
    "kuid": "45deced80d294186b551374de3a4ca91", 
    "name": "kony.ui.Label", 
    "parent": "rememberContainer", 
    "pf": "frmDeviceRegisterationIncorrectPinActicvationKA", 
    "spaan": {
        "render": false
    }, 
    "spabb": {
        "render": false
    }, 
    "spaip": {
        "render": true
    }, 
    "spawinphone8": {
        "render": false
    }, 
    "texti18n": "i18n.login.rememberMe", 
    "tooltip": "", 
    "wType": "Label", 
    "winphone8": {
        "render": false
    }, 
    "zindex": 1
}