{
    "@class": "com.kony.gen.viz.model.container.KVizWatchForm",
    "DNDConfig": null,
    "_footers_": [],
    "_headers_": [],
    "_margin_": [
        0,
        0,
        0,
        0
    ],
    "_orientation_": 1,
    "_padding_": [
        1,
        0,
        1,
        0
    ],
    "_percent_": true,
    "_skin_": "sa14ac0d28f24c359780f64a267d64f4",
    "_spacing_": 4,
    "_title_": "BOJ",
    "addWidgetsdone": false,
    "allboxes": [],
    "android": {
        "psp": {
            "windowSoftInputMode": 2
        }
    },
    "canUpdateUI": true,
    "children": [
        "grpTop"
    ],
    "containerweight": 100,
    "controllerInfo": {
        "default": {
            "channel": "watch"
        }
    },
    "currentLocale": "default",
    "desktopweb": {
        "needAppMenu": false
    },
    "device": "appleWatch42",
    "displayorientation": 1,
    "enabledforidletimeout": false,
    "footer": "frmWatMenu_footer",
    "header": "frmWatMenu_header",
    "hideswhenloading": true,
    "id": "frmWatMenuDemo",
    "ide_onAwake": "AS_Form_b535898e03ee41eca65be42d45a9eb82",
    "ide_onInit": "AS_Form_h3d27e330e04402e8def2935259d3b6b",
    "info": null,
    "initdone": false,
    "inputaccessoryviewtype": 4,
    "ipad": {
        "psp": {
            "inputAccessoryViewType": 4
        }
    },
    "iphone": {
        "psp": {
            "inputAccessoryViewType": 4
        }
    },
    "isvisible": true,
    "kuid": "hfd1c6c3916b48c79e08169cc96dc59e",
    "layouttype": 4,
    "name": "kony.ui.Form2",
    "needappmenu": true,
    "paddinginpixel": true,
    "platform": "watchos",
    "prevDevice": "appleWatch42",
    "prevPlatform": "watchos",
    "retainscrollposition": false,
    "shellCSS": "appleWatch42",
    "titleBarSkin": "s01a3c761ed44dcab0d6537d1b55b621",
    "titlebar": true,
    "type": 3,
    "wType": "Form"
}