{
    "@class": "com.kony.gen.viz.model.component.KVizButton",
    "DNDConfig": null,
    "__markedForDelete__": true,
    "__parentReadjusting__": false,
    "_height_": {
        "type": "ref",
        "value": "preferred"
    },
    "_left_": {
        "type": "string",
        "value": "5%"
    },
    "_margin_": [
        6,
        6,
        6,
        6
    ],
    "_padding_": [
        0,
        0,
        0,
        0
    ],
    "_skin_": "s1858dc0a19e403a93a532b59571c961",
    "_text_": "t",
    "_width_": {
        "type": "ref",
        "value": "preferred"
    },
    "canUpdateUI": true,
    "centery": {
        "type": "string",
        "value": "50%"
    },
    "containerweight": 100,
    "contentalignment": 5,
    "displaytext": true,
    "focusskin": "s1858dc0a19e403a93a532b59571c961",
    "id": "btnBillsPayAccounts",
    "ide_onClick": "AS_Button_bda7f1237fc744beae5127652088db16",
    "info": null,
    "isvisible": true,
    "kuid": "h8f2f78b9a9442138715e984420d34fc",
    "name": "kony.ui.Button",
    "parent": "flxRadioAccCardsSelection",
    "pf": "frmBills",
    "wType": "Button",
    "zindex": 2
}