{
    "@class": "com.kony.gen.viz.model.component.KVizButton",
    "DNDConfig": null,
    "__parentReadjusting__": false,
    "_height_": {
        "type": "string",
        "value": "50dp"
    },
    "_left_": {
        "type": "string",
        "value": "0dp"
    },
    "_margin_": [
        6,
        6,
        6,
        6
    ],
    "_padding_": [
        0,
        0,
        0,
        0
    ],
    "_skin_": "s1a96e0a6f17402ca691f55c7b41e893",
    "_text_": "Cancel",
    "_top_": {
        "type": "string",
        "value": "0dp"
    },
    "_width_": {
        "type": "string",
        "value": "70dp"
    },
    "canUpdateUI": true,
    "containerweight": 100,
    "contentalignment": 5,
    "displaytext": true,
    "focusskin": "s55cab51ac7b40b5a2db38b7b9c5822a",
    "id": "CopybuttonLeft0a6a3590306e947",
    "info": null,
    "iphone": {
        "psp": {
            "showProgressIndicator": false
        }
    },
    "isvisible": true,
    "kuid": "58a2422fd6814683a681f442f669caec",
    "minwidth": {
        "type": "string",
        "value": "50dp"
    },
    "name": "kony.ui.Button",
    "onclick": "AS_Button_27cee51e735d415195d22616280d1624",
    "paddinginpixel": false,
    "parent": "titleBarAddNewPayee",
    "pf": "frmAddNewPayeeKA",
    "showprogressindicator": false,
    "texti18n": "i18n.common.cancel",
    "wType": "Button",
    "zindex": 1
}