{
    "@class": "com.kony.gen.viz.model.component.KVizTextBox2",
    "DNDConfig": null,
    "__parentReadjusting__": false,
    "_height_": {
        "type": "string",
        "value": "0dp"
    },
    "_left_": {
        "type": "string",
        "value": "74dp"
    },
    "_margin_": [
        0,
        0,
        0,
        0
    ],
    "_padding_": [
        0,
        0,
        0,
        0
    ],
    "_placeholder_": "",
    "_render_": true,
    "_skin_": "s42dbb4e962f46e7bb51b74cb28867d1",
    "_text_": "",
    "_top_": {
        "type": "string",
        "value": "0dp"
    },
    "_width_": {
        "type": "string",
        "value": "0dp"
    },
    "android": {
        "render": true
    },
    "autocapitalize": "none",
    "autocomplete": false,
    "autocorrect": false,
    "autofilter": false,
    "canUpdateUI": true,
    "containerheight": "",
    "containerheightmode": 1,
    "containerweight": 100,
    "contentalignment": 4,
    "enabled": false,
    "id": "androidTextBoxFocusFix",
    "info": null,
    "iphone": {
        "render": false
    },
    "isvisible": true,
    "keyboardtype": "A",
    "kuid": "b38cbf9c1143461187845339a36c657e",
    "mode": "A",
    "name": "kony.ui.TextBox2",
    "parent": "titleBarNewTransfer",
    "pf": "frmNewTransferKA",
    "securetextentry": false,
    "spaan": {
        "render": true
    },
    "spabb": {
        "render": false
    },
    "spaip": {
        "render": false
    },
    "spawinphone8": {
        "render": false
    },
    "textinputmode": "A",
    "viewtype": "default",
    "wType": "TextField",
    "winphone8": {
        "render": false
    },
    "zindex": 1
}