{
    "@class": "com.kony.gen.viz.model.component.KVizButton",
    "DNDConfig": null,
    "__markedForDelete__": true,
    "__parentReadjusting__": false,
    "_height_": {
        "type": "string",
        "value": "20%"
    },
    "_left_": {
        "type": "string",
        "value": "5%"
    },
    "_margin_": [
        6,
        6,
        6,
        6
    ],
    "_padding_": [
        0,
        0,
        0,
        0
    ],
    "_skin_": "s7383615e4f04fc8a44f10f5e544ac57",
    "_text_": "o",
    "_top_": {
        "type": "string",
        "value": "70%"
    },
    "_width_": {
        "type": "string",
        "value": "90%"
    },
    "canUpdateUI": true,
    "containerweight": 100,
    "contentalignment": 6,
    "displaytext": true,
    "focusskin": "sfdddcea6cff4d788f42120343a323ef",
    "id": "btnDropDownPOT",
    "ide_onClick": "AS_Button_f2638e5badc2403191f11170341b0151",
    "info": null,
    "isvisible": true,
    "kuid": "fa43a421a0ca42a08461588e3943625c",
    "name": "kony.ui.Button",
    "parent": "flxPurpose",
    "pf": "frmNewTransferKA",
    "texti18n": "i18n.common.backReverse",
    "wType": "Button",
    "zindex": 3
}