{
    "@class": "com.kony.gen.viz.model.component.KVizButton",
    "DNDConfig": null,
    "__parentReadjusting__": false,
    "_height_": {
        "type": "string",
        "value": "100%"
    },
    "_left_": {
        "type": "string",
        "value": "0dp"
    },
    "_margin_": [
        6,
        6,
        6,
        6
    ],
    "_padding_": [
        0,
        0,
        0,
        0
    ],
    "_skin_": "sbdbc65107b746c7870a660f64d4b256",
    "_text_": "j",
    "_top_": {
        "type": "string",
        "value": "0dp"
    },
    "_width_": {
        "type": "string",
        "value": "53dp"
    },
    "canUpdateUI": true,
    "containerweight": 100,
    "contentalignment": 5,
    "displaytext": true,
    "focusskin": "saf73a56fcd043dbab376d93df827338",
    "id": "Button0f1eb0c6bd0974f",
    "ide_onClick": "AS_Button_b1414c9cb5bd44d1b5d8602a9f1306fd",
    "info": null,
    "isvisible": false,
    "kuid": "fffd2bb7ec0e44a1afc0246b469ad1f7",
    "masterType": 1,
    "name": "kony.ui.Button",
    "parent": "FlexContainer0bf4a82f408fe42",
    "pf": "frmNewTransferKA",
    "wType": "Button",
    "zindex": 1
}