{
    "@class": "com.kony.gen.viz.model.component.KVizLabel",
    "DNDConfig": null,
    "__parentReadjusting__": false,
    "_height_": {
        "type": "ref",
        "value": "preferred"
    },
    "_left_": {
        "type": "string",
        "value": "13dp"
    },
    "_margin_": [
        1,
        1,
        1,
        1
    ],
    "_padding_": [
        0,
        0,
        0,
        0
    ],
    "_skin_": "sa18e1f08f09407781d9bba0f00f7111",
    "_text_": "One Time",
    "_width_": {
        "type": "ref",
        "value": "preferred"
    },
    "_wrapping_": 2,
    "canUpdateUI": true,
    "centery": {
        "type": "string",
        "value": "65%"
    },
    "containerweight": 100,
    "contentalignment": 6,
    "enabled": false,
    "id": "recurrencePickLabel",
    "info": null,
    "ipad": {
        "psp": {
            "wrapping": 2
        }
    },
    "iphone": {
        "psp": {
            "wrapping": 2
        }
    },
    "isvisible": true,
    "kuid": "e81a1641579f439d82948cde21903807",
    "name": "kony.ui.Label",
    "parent": "recurrencePickContainer",
    "pf": "frmNewTransferKA",
    "texti18n": "i18n.transfer.oneTime",
    "tooltip": "",
    "wType": "Label",
    "zindex": 1
}