{
    "@class": "com.kony.gen.viz.model.component.KVizLabel",
    "DNDConfig": null,
    "__parentReadjusting__": false,
    "_height_": {
        "type": "ref",
        "value": "preferred"
    },
    "_margin_": [
        1,
        1,
        1,
        1
    ],
    "_padding_": [
        0,
        0,
        0,
        0
    ],
    "_skin_": "s8b20338ed1543158d53b990a27ebcf8",
    "_text_": "Hold your phone 8 to 20 inches from your face. Place your face in circle and Blink your eyes.",
    "_top_": {
        "type": "string",
        "value": "40%"
    },
    "_width_": {
        "type": "string",
        "value": "94%"
    },
    "_wrapping_": 2,
    "android": {
        "textStyle": {
            "letterSpacing": 0,
            "strikeThrough": false
        }
    },
    "canUpdateUI": true,
    "centerx": {
        "type": "string",
        "value": "50.00%"
    },
    "containerweight": 100,
    "contentalignment": 5,
    "id": "lblTipsDesc",
    "info": null,
    "ipad": {
        "psp": {
            "wrapping": 2
        }
    },
    "iphone": {
        "psp": {
            "wrapping": 2
        }
    },
    "isvisible": true,
    "kuid": "g5f4ba5f6d3841ce88be303d548cbe35",
    "name": "kony.ui.Label",
    "parent": "flxSetFaceID",
    "pf": "frmFacialAuthEnable",
    "texti18n": "i18n.Holdyourphone8to20inchesfromyourface.PlaceyourfaceincircleandBlinkyoureyes.",
    "tooltip": "",
    "wType": "Label",
    "zindex": 1
}