{
    "DNDConfig": null,
    "__parentReadjusting__": false,
    "_height_": {
        "type": "string",
        "value": "8%"
    },
    "_left_": {
        "type": "string",
        "value": "0%"
    },
    "_margin_": [
        0,
        0,
        0,
        0
    ],
    "_orientation_": 6,
    "_padding_": [
        0,
        0,
        0,
        0
    ],
    "_percent_": true,
    "_skin_": "s4532e4d9f124e7aad681041caa44434",
    "_top_": {
        "type": "string",
        "value": "0.10%"
    },
    "_width_": {
        "type": "string",
        "value": "100%"
    },
    "allboxes": [],
    "autogrowmode": 0,
    "canUpdateUI": true,
    "children": [
        "lblCurrentMonth",
        "lblThisMonth"
    ],
    "clipbounds": true,
    "containerweight": 100,
    "enablescrolling": true,
    "id": "CopyFlexContainer0b17fc240a90540",
    "ide_onClick": "AS_FlexContainer_d3b6dca0e8b847618115df872d8ef8cb",
    "info": null,
    "isvisible": false,
    "kuid": "f542b6acb22a4dc1ad9267a37669f61a",
    "layouttype": 2,
    "name": "kony.ui.FlexContainer",
    "parent": "flxDatePicker",
    "pf": "frmFilterTransaction",
    "snapgridsize": 10,
    "snaptogrid": true,
    "wType": "FlexContainer",
    "widgetalignment": 1,
    "zindex": 1
}