{
  "background_color": "072c4800",
  "bg_type": "one",
  "border_color": "000000ff",
  "border_style": "plain",
  "border_type": 0,
  "border_width": 0,
  "isDefaultSkin": false,
  "kuid": "s448b1ca1b38407ea0384ac77aa3869b",
  "wType": "FlexContainer"
}