{
  "background_color": "ffffff33",
  "bg_type": "one",
  "border_color": "000000ff",
  "border_radius": 20,
  "border_style": "custom",
  "border_type": 0,
  "border_width": 0,
  "font_color": "000000ff",
  "font_name": "Arial",
  "font_size": 100,
  "font_style": "normal",
  "font_weight": "normal",
  "isDefaultSkin": false,
  "kuid": "s603258fa8ec4f7186da7659f8fb6315",
  "wType": "Group"
}