{
  "background_color": "ffffff19",
  "bg_type": "one",
  "border_color": "000000ff",
  "border_style": "plain",
  "border_type": 0,
  "border_width": 0,
  "isDefaultSkin": false,
  "kuid": "s32d25172d404d44bb0583edda857abf",
  "wType": "FlexContainer"
}