{
  "android": {
    "background_color": "ffffffff",
    "bg_type": "one",
    "border_color": "ffffffff",
    "border_style": "cr",
    "border_type": 0,
    "border_width": 2,
    "font_color": "072c48cc",
    "font_name": "Cairo-Regular",
    "font_size": 120,
    "isForked": true,
    "text_shadow": {
      "br": 0,
      "color": "000000ff",
      "nm": 0,
      "x": 0,
      "y": 0
    }
  },
  "background_color": "ffffff00",
  "bg_type": "one",
  "border_color": "c3d248ff",
  "border_radius": 100,
  "border_style": "custom",
  "border_type": 0,
  "border_width": 2,
  "desktopweb": {
    "background_color": "ffffffff",
    "bg_type": "one",
    "font_color": "072c48cc",
    "font_size": 120,
    "isForked": true
  },
  "font_color": "c3d248ff",
  "font_name": "Cairo-Regular",
  "font_size": 105,
  "font_style": "normal",
  "font_weight": "normal",
  "ipad": {
    "background_color": "ffffffff",
    "bg_type": "one",
    "border_color": "ffffffff",
    "border_style": "cr",
    "border_type": 0,
    "border_width": 2,
    "font_color": "072c48cc",
    "font_size": 120,
    "isForked": true
  },
  "iphone": {
    "background_color": "ffffffff",
    "bg_type": "one",
    "border_color": "ffffffff",
    "border_style": "cr",
    "border_type": 0,
    "border_width": 2,
    "font_color": "072c48cc",
    "font_name": "Cairo-Regular",
    "font_size": 120,
    "isForked": true
  },
  "isDefaultSkin": false,
  "kiosk": {
    "background_color": "ffffffff",
    "bg_type": "one",
    "border_color": "ffffffff",
    "border_style": "plain",
    "border_type": 0,
    "border_width": 2,
    "font_color": "072c48cc",
    "font_size": 120,
    "isForked": true
  },
  "kuid": "sa18f1f884a2404496485b52f69528be",
  "spaan": {
    "background_color": "ffffffff",
    "bg_type": "one",
    "font_color": "072c48cc",
    "font_size": 120,
    "isForked": true
  },
  "spaandroidtablet": {
    "background_color": "ffffffff",
    "bg_type": "one",
    "font_color": "072c48cc",
    "font_size": 120,
    "isForked": true
  },
  "spabb": {
    "background_color": "ffffffff",
    "bg_type": "one",
    "font_color": "072c48cc",
    "font_size": 120,
    "isForked": true
  },
  "spaip": {
    "background_color": "ffffffff",
    "bg_type": "one",
    "font_color": "072c48cc",
    "font_size": 120,
    "isForked": true
  },
  "spaipad": {
    "background_color": "ffffffff",
    "bg_type": "one",
    "font_color": "072c48cc",
    "font_size": 120,
    "isForked": true
  },
  "spawindowstablet": {
    "background_color": "ffffffff",
    "bg_type": "one",
    "font_color": "072c48cc",
    "font_size": 120,
    "isForked": true
  },
  "spawinphone8": {
    "background_color": "ffffffff",
    "bg_type": "one",
    "font_color": "072c48cc",
    "font_size": 120,
    "isForked": true
  },
  "tabrcandroid": {
    "background_color": "ffffffff",
    "bg_type": "one",
    "border_color": "ffffffff",
    "border_style": "cr",
    "border_type": 0,
    "border_width": 2,
    "font_color": "072c48cc",
    "font_size": 120,
    "isForked": true,
    "text_shadow": {
      "br": 0,
      "color": "000000ff",
      "nm": 0,
      "x": 0,
      "y": 0
    }
  },
  "wType": "Button",
  "watchos": {
    "background_color": "ffffffff",
    "bg_type": "one",
    "font_color": "072c48cc",
    "font_size": 120,
    "isForked": true
  },
  "windows8": {
    "background_color": "ffffffff",
    "bg_type": "one",
    "border_color": "ffffffff",
    "border_style": "plain",
    "border_type": 0,
    "border_width": 2,
    "font_color": "072c48cc",
    "font_size": 120,
    "isForked": true
  },
  "winphone8": {
    "background_color": "ffffffff",
    "bg_type": "one",
    "border_color": "ffffffff",
    "border_style": "plain",
    "border_type": 0,
    "border_width": 2,
    "font_color": "072c48cc",
    "font_size": 120,
    "isForked": true
  }
}