{
  "background_color": "00000000",
  "bg_type": "one",
  "border_color": "4545454c",
  "border_style": "plain",
  "border_type": 0,
  "border_width": 1,
  "isDefaultSkin": false,
  "kuid": "s85c4fad6a3e42df809964a5b06c562f",
  "wType": "FlexContainer"
}