{
  "background_image": "headerbig.png",
  "bg_type": "image",
  "border_color": "000000ff",
  "border_style": "plain",
  "border_type": 0,
  "border_width": 0,
  "isDefaultSkin": false,
  "kuid": "s95af2c8d6ad41c09175a2750b89dd8e",
  "wType": "FlexContainer"
}