{
  "android": {
    "font_color": "ffffffe5",
    "font_name": "BoJFont",
    "font_size": 190,
    "isForked": true
  },
  "background_color": "00000000",
  "bg_type": "one",
  "border_color": "424242ff",
  "border_style": "plain",
  "border_type": 0,
  "border_width": 0,
  "desktopweb": {
    "font_color": "ffffffe5",
    "font_name": "Cairo-Regular",
    "font_size": 190,
    "isForked": true
  },
  "fontSizeInPx": false,
  "font_color": "c1d52f66",
  "font_name": "Cairo-Regular",
  "font_size": 150,
  "font_style": "normal",
  "font_weight": "normal",
  "ipad": {
    "font_color": "ffffffe5",
    "font_name": "Cairo-RegularNeue-Bold",
    "font_size": 190,
    "isForked": true
  },
  "iphone": {
    "font_color": "ffffffe5",
    "font_name": "BoJFont",
    "font_size": 190,
    "isForked": true
  },
  "isDefaultSkin": false,
  "kiosk": {
    "font_color": "ffffffe5",
    "font_name": "GenericMonospace",
    "font_size": 190,
    "isForked": true
  },
  "kuid": "sdba5c8dd48249c29d42cde83ef62856",
  "spaan": {
    "font_color": "ffffffe5",
    "font_name": "Cairo-Regular",
    "font_size": 190,
    "isForked": true
  },
  "spaandroidtablet": {
    "font_color": "ffffffe5",
    "font_name": "Cairo-Regular",
    "font_size": 190,
    "isForked": true
  },
  "spabb": {
    "font_color": "ffffffe5",
    "font_name": "Cairo-Regular",
    "font_size": 190,
    "isForked": true
  },
  "spaip": {
    "font_color": "ffffffe5",
    "font_name": "Cairo-Regular",
    "font_size": 190,
    "isForked": true
  },
  "spaipad": {
    "font_color": "ffffffe5",
    "font_name": "Cairo-Regular",
    "font_size": 190,
    "isForked": true
  },
  "spawindowstablet": {
    "font_color": "ffffffe5",
    "font_name": "Cairo-Regular",
    "font_size": 190,
    "isForked": true
  },
  "spawinphone8": {
    "font_color": "ffffffe5",
    "font_name": "Cairo-Regular",
    "font_size": 190,
    "isForked": true
  },
  "tabrcandroid": {
    "font_color": "ffffffe5",
    "font_name": "Cairo-Regular",
    "font_size": 190,
    "isForked": true
  },
  "wType": "Label",
  "watchos": {
    "font_color": "ffffffe5",
    "font_name": "Cairo-Regular",
    "font_size": 190,
    "isForked": true
  },
  "windows8": {
    "font_color": "ffffffe5",
    "font_name": "GenericMonospace",
    "font_size": 190,
    "isForked": true
  },
  "winphone8": {
    "font_color": "ffffffe5",
    "font_name": "GenericMonospace",
    "font_size": 190,
    "isForked": true
  }
}