{
  "background_color": "b1d0eaff",
  "bg_type": "one",
  "border_color": "b1d0eaff",
  "border_radius": 0,
  "border_style": "custom",
  "border_type": 0,
  "border_width": 1,
  "font_color": "424242ff",
  "font_name": "Cairo-Regular",
  "font_size": 214,
  "font_style": "normal",
  "font_weight": "normal",
  "isDefaultSkin": false,
  "kuid": "s0bcd6e0b05741bea2bbf660849c7b72",
  "wType": "Label"
}