{
  "background_color": "f7f7f7ff",
  "bg_type": "one",
  "border_color": "3545a2ff",
  "border_style": "plain",
  "border_type": 0,
  "border_width": 1,
  "isDefaultSkin": false,
  "kuid": "se911b3feb5d440eaa0649aee7ff4d4f",
  "wType": "FlexContainer"
}