{
  "background_color": "ffffffff",
  "bg_type": "one",
  "border_color": "00000019",
  "border_radius": 40,
  "border_style": "custom",
  "border_type": 0,
  "border_width": 1,
  "isDefaultSkin": false,
  "kuid": "s4b4fdd1408e44cea338a961665d7978",
  "wType": "FlexContainer"
}