{
  "background_color": "1a2980ff",
  "bg_type": "one",
  "border_color": "000000ff",
  "border_style": "plain",
  "border_type": 0,
  "border_width": 0,
  "isDefaultSkin": false,
  "kuid": "s5d0643d34854e3fafe08d3b5f4ba73b",
  "wType": "FlexContainer"
}