{
  "background_image": "credit.png",
  "bg_type": "image",
  "border_color": "15447800",
  "border_style": "plain",
  "border_type": 0,
  "border_width": 0,
  "isDefaultSkin": false,
  "kuid": "s3a72ea9c0734410af781d763aa44916",
  "wType": "FlexContainer"
}