{
  "background_color": "0000004c",
  "bg_type": "one",
  "border_color": "000000a0",
  "border_style": "plain",
  "border_type": 0,
  "border_width": 0,
  "isDefaultSkin": false,
  "kuid": "s54419536aeb4a389af6f860eb6dff91",
  "wType": "FlexContainer"
}