{
  "background_color": "09375900",
  "bg_type": "one",
  "border_color": "21435dff",
  "border_radius": 10,
  "border_style": "custom",
  "border_type": 0,
  "border_width": 1,
  "isDefaultSkin": false,
  "kuid": "saa0bbad0ff34e15b395af408f2c9e3e",
  "wType": "FlexContainer"
}