{
  "background_color": "efefefff",
  "bg_type": "one",
  "border_color": "000000ff",
  "border_style": "plain",
  "border_type": 0,
  "border_width": 0,
  "isDefaultSkin": false,
  "kuid": "s198d4c2a07f4c189cbe2a8e29d97eea",
  "wType": "FlexContainer"
}