{
  "background_color": "ffffffff",
  "bg_type": "one",
  "border_color": "00000000",
  "border_radius": 10,
  "border_style": "custom",
  "border_type": 0,
  "border_width": 1,
  "isDefaultSkin": false,
  "kuid": "sb414b2682144b509319256b4760af01",
  "wType": "FlexContainer"
}