{
  "background_color": "3a3a4dff",
  "bg_type": "one",
  "border_color": "ffffff00",
  "border_radius": 100,
  "border_style": "custom",
  "border_type": 0,
  "border_width": 1,
  "isDefaultSkin": false,
  "kuid": "s30cfe575cc24e6e9b5843fc28fe7d07",
  "wType": "FlexContainer"
}