{
  "background_color": "f4f4f4ff",
  "bg_type": "one",
  "border_color": "f7f7f7ff",
  "border_radius": 80,
  "border_style": "custom",
  "border_type": 0,
  "border_width": 1,
  "isDefaultSkin": false,
  "kuid": "s553b987e6f54d1f888e34682d647d32",
  "wType": "FlexContainer"
}