{
  "background_color": "00000000",
  "bg_type": "one",
  "border_color": "d5d5d5ff",
  "border_style": "rc",
  "border_type": 0,
  "border_width": 1,
  "isDefaultSkin": false,
  "kuid": "sf913b6acdb2474c92719c98a2b33b2d",
  "wType": "FlexContainer"
}