{
  "android": {
    "font_name": "Lato-Light"
  },
  "background_color": "ffffff66",
  "bg_type": "one",
  "border_color": "ffffff02",
  "border_radius": 3,
  "border_style": "custom",
  "border_type": 0,
  "border_width": 1,
  "desktopweb": {
    "font_name": "Cairo-Regular"
  },
  "font_color": "424242ff",
  "font_name": "",
  "font_size": 100,
  "font_style": "normal",
  "font_weight": "normal",
  "ipad": {
    "font_name": "Lato-Light"
  },
  "iphone": {
    "font_name": "Lato-Light"
  },
  "isDefaultSkin": false,
  "kiosk": {
    "font_name": "GenericMonospace"
  },
  "kuid": "s1544b68ffe34469b7692c1c7589060b",
  "spaan": {
    "font_name": "Cairo-Regular"
  },
  "spaandroidtablet": {
    "font_name": "Cairo-Regular"
  },
  "spabb": {
    "font_name": "Cairo-Regular"
  },
  "spaip": {
    "font_name": "Cairo-Regular"
  },
  "spaipad": {
    "font_name": "Cairo-Regular"
  },
  "spawindowstablet": {
    "font_name": "Cairo-Regular"
  },
  "spawinphone8": {
    "font_name": "Cairo-Regular"
  },
  "tabrcandroid": {
    "font_name": "Lato-Light"
  },
  "wType": "TextField",
  "windows8": {
    "font_name": "GenericMonospace"
  },
  "winphone8": {
    "font_name": "GenericMonospace"
  }
}