{
  "background_color": "ffffff4c",
  "bg_type": "one",
  "border_color": "000000ff",
  "border_style": "plain",
  "border_type": 0,
  "border_width": 0,
  "isDefaultSkin": false,
  "kuid": "s94a6795f2994b4e990c98a3540cc762",
  "wType": "FlexContainer"
}