{
  "background_image": "bg03.png",
  "bg_type": "image",
  "border_color": "000000ff",
  "border_style": "plain",
  "border_type": 0,
  "border_width": 0,
  "isDefaultSkin": false,
  "kuid": "s259a87509274cbe96d465057a5bc085",
  "wType": "FlexContainer"
}