{
    "@class": "com.kony.gen.viz.model.component.KVizLabel",
    "DNDConfig": null,
    "__parentReadjusting__": false,
    "_height_": {
        "type": "ref",
        "value": "preferred"
    },
    "_left_": {
        "type": "string",
        "value": "5%"
    },
    "_margin_": [
        1,
        1,
        1,
        1
    ],
    "_padding_": [
        0,
        0,
        0,
        0
    ],
    "_skin_": "s22af183cc3a4fb9af42f3312f5394c1",
    "_text_": "Secondary Phone No.",
    "_top_": {
        "type": "string",
        "value": "35%"
    },
    "_width_": {
        "type": "ref",
        "value": "preferred"
    },
    "_wrapping_": 2,
    "android": {
        "textStyle": {
            "letterSpacing": 0,
            "strikeThrough": false
        }
    },
    "canUpdateUI": true,
    "containerweight": 100,
    "contentalignment": 4,
    "id": "lblSecondaryPhoneNo",
    "info": null,
    "ipad": {
        "psp": {
            "wrapping": 2
        }
    },
    "iphone": {
        "psp": {
            "wrapping": 2
        }
    },
    "isvisible": true,
    "kuid": "b5e8cb112bca48279f8ecf983e14eac5",
    "name": "kony.ui.Label",
    "parent": "flxSecondaryPhoneNo",
    "pf": "frmUserSettingsMyProfileKA",
    "tooltip": "",
    "wType": "Label",
    "zindex": 2
}