{
    "@class": "com.kony.gen.viz.model.component.KVizImage2",
    "DNDConfig": null,
    "__markedForDelete__": true,
    "__parentReadjusting__": false,
    "_base64_": null,
    "_height_": {
        "type": "string",
        "value": "100%"
    },
    "_left_": {
        "type": "number",
        "value": "0"
    },
    "_margin_": [
        0,
        0,
        0,
        0
    ],
    "_padding_": [
        0,
        0,
        0,
        0
    ],
    "_skin_": "sa625024fef740fea5133ed43bbfac5f",
    "_src_": "option1.png",
    "_top_": {
        "type": "number",
        "value": "0"
    },
    "_width_": {
        "type": "string",
        "value": "100%"
    },
    "canUpdateUI": true,
    "containerweight": 100,
    "context": {
        "channel": "mobile",
        "formID": "frmPostLoginAdvertisementKA",
        "platform": "iphone",
        "templateType": "forms",
        "topLevelBox": null
    },
    "id": "imgAd5KA",
    "ide_onDownloadComplete": "AS_Image_a98f26c440bb4e4c9b67533218bb6fd4",
    "imagescalemode": 0,
    "imagewhiledownloading": "loader2.gif",
    "info": null,
    "invokedProperty": "imageWhileDownloading",
    "isvisible": true,
    "kuid": "e89f0c9944d7450b885caf7a52940607",
    "name": "kony.ui.Image2",
    "parent": "flxAd5KA",
    "pf": "frmPostLoginAdvertisementKA",
    "srcType": 1,
    "wType": "Image",
    "widgetalignment": 5,
    "zindex": 1
}