{
    "@class": "com.kony.gen.viz.model.component.KVizButton",
    "DNDConfig": null,
    "__markedForDelete__": true,
    "__parentReadjusting__": false,
    "_height_": {
        "type": "string",
        "value": "10%"
    },
    "_left_": {
        "type": "string",
        "value": "1%"
    },
    "_margin_": [
        6,
        6,
        6,
        6
    ],
    "_padding_": [
        0,
        0,
        0,
        0
    ],
    "_skin_": "sf7766faf6e34d0789442a84c1e76e1a",
    "_text_": "",
    "_top_": {
        "type": "string",
        "value": "1%"
    },
    "_width_": {
        "type": "string",
        "value": "60%"
    },
    "canUpdateUI": true,
    "centerx": {
        "type": "string",
        "value": "50%"
    },
    "containerweight": 100,
    "contentalignment": 5,
    "displaytext": true,
    "focusskin": "sad5d6d4890b44858a39e4bf8a290332",
    "id": "btnBillsScreen",
    "ide_onClick": "AS_Button_c105e4a46e8a4125817967f83e644928",
    "info": null,
    "isvisible": true,
    "kuid": "ed42ac853ebe4b42b900969b7991ef49",
    "name": "kony.ui.Button",
    "parent": "flxMainContainer",
    "pf": "frmBulkPaymentConfirmKA",
    "texti18n": "i18n.cards.paynow",
    "wType": "Button",
    "zindex": 1
}