{
    "@class": "com.kony.gen.viz.model.component.KVizButton",
    "DNDConfig": null,
    "__parentReadjusting__": false,
    "_height_": {
        "type": "string",
        "value": "60dp"
    },
    "_margin_": [
        6,
        6,
        6,
        6
    ],
    "_padding_": [
        0,
        0,
        0,
        0
    ],
    "_skin_": "s94d80e187a44bd9bb9ce6db5e729010",
    "_text_": "Repeat Transaction",
    "_top_": {
        "type": "string",
        "value": "0dp"
    },
    "_width_": {
        "type": "string",
        "value": "100%"
    },
    "canUpdateUI": true,
    "centerx": {
        "type": "string",
        "value": "50.00%"
    },
    "containerweight": 100,
    "contentalignment": 5,
    "disabledSkins": {},
    "displaytext": true,
    "focusskin": "s6e8459b84e349d98629a088bbfe1304",
    "id": "repeatTransactionButton",
    "info": null,
    "iphone": {
        "psp": {
            "showProgressIndicator": false
        }
    },
    "isvisible": true,
    "kuid": "708c0de4e8314bbead3b1f9d5e16ebf9",
    "name": "kony.ui.Button",
    "onclick": "AS_Button_2217b75679bf4942832be207ea4a57f6",
    "parent": "repeatTransactionContainer",
    "pf": "frmTransactionDetailsPFMKA",
    "showprogressindicator": false,
    "texti18n": "i18n.transfer.repeatTransaction",
    "wType": "Button",
    "zindex": 1
}