{
    "@class": "com.kony.gen.viz.model.component.KVizTextBox2",
    "DNDConfig": null,
    "__markedForDelete__": true,
    "__parentReadjusting__": false,
    "_bottom_": {
        "type": "string",
        "value": "23%"
    },
    "_height_": {
        "type": "string",
        "value": "50%"
    },
    "_margin_": [
        0,
        0,
        0,
        0
    ],
    "_padding_": [
        3,
        0,
        0,
        0
    ],
    "_placeholder_": "",
    "_skin_": "s029998596d3421892d0917ea7492e1d",
    "_text_": "",
    "_width_": {
        "type": "string",
        "value": "100%"
    },
    "android": {
        "psp": {
            "keyboardActionLabel": 1
        }
    },
    "autocapitalize": "none",
    "autocomplete": false,
    "autocorrect": false,
    "autofilter": false,
    "canUpdateUI": true,
    "centerx": {
        "type": "string",
        "value": "50%"
    },
    "containerheight": "",
    "containerheightmode": 1,
    "containerweight": 100,
    "contentalignment": 4,
    "focusskin": "s029998596d3421892d0917ea7492e1d",
    "id": "txtPOSLimit",
    "ide_onTextChange": "AS_TextField_e12d687073e74031a9afc37b7710bba6",
    "ide_onTouchEnd": "AS_TextField_c0d7475dffd44177b9ea0cad91e4a7f9",
    "info": null,
    "iphone": {},
    "isvisible": true,
    "keyboardactionlabel": 1,
    "keyboardstyle": "A",
    "keyboardtype": "A",
    "kuid": "e14c283ad94e4e73a88e66f019b473c3",
    "mode": "N",
    "name": "kony.ui.TextBox2",
    "parent": "flxPOSLimitEntry",
    "pf": "frmATMPOSLimit",
    "securetextentry": false,
    "textinputmode": "N",
    "viewtype": "default",
    "wType": "TextField",
    "zindex": 10
}