{
    "@class": "com.kony.gen.viz.model.component.KVizRichText",
    "DNDConfig": null,
    "__parentReadjusting__": false,
    "_height_": {
        "type": "ref",
        "value": "preferred"
    },
    "_left_": {
        "type": "string",
        "value": "0dp"
    },
    "_margin_": [
        0,
        0,
        0,
        0
    ],
    "_padding_": [
        5,
        2,
        2,
        0
    ],
    "_skin_": "s441cf7f1ea642b89dab44a82d831225",
    "_text_": "<br><b>111What is bill payment?</b></br>\n\n<br>Etiam nec pulvinar dui, eget eleifend felis. Proin bibendum molestie dolor. Aenean dictum pharetra mauris, ultrices pretium nunc imperdiet in.</br>\n\n<b><br>What is remote deposit capture?</br></b>\n\n<br>Nulla dictum tincidunt turpis eu consequat. Sed adipiscing eros a nisi dictum mollis. Vestibulum ante ipsum primis in faucibus orci luctus et ultrices posuere cubilia Curae; Vivamus urna lorem, porta sed congue ut, sollicitudin quis erat.</br>\n\n<b><br>What is pay a person?</br></b>\n\n<br>Vivamus massa odio, dignissim ac ante at, euismod dignissim risus. Cras ut blandit lorem. Maecenas nisl quam, cursus nec aliquet facilisis, mattis id augue. Fusce semper odio et gravida interdum. Suspendisse quis lacus nulla. Nullam et nibh ligula. Nunc vitae nulla et arcu mollis iaculis. Vestibulum venenatis risus ut ligula lacinia malesuada.</br>",
    "_top_": {
        "type": "string",
        "value": "0dp"
    },
    "_width_": {
        "type": "string",
        "value": "100%"
    },
    "_wrapping_": 2,
    "canUpdateUI": true,
    "containerweight": 100,
    "contentalignment": 1,
    "id": "rTxtPrivacyPolicyKA",
    "info": null,
    "isvisible": true,
    "kuid": "e43f14f64bb1418a975ed517e3e9c3b1",
    "name": "kony.ui.RichText",
    "paddinginpixel": false,
    "parent": "mainContent",
    "pf": "frmInformationKA",
    "wType": "RichText",
    "widgetalignment": 5
}