{
    "DNDConfig": null,
    "__parentReadjusting__": false,
    "_height_": {
        "type": "string",
        "value": "25dp"
    },
    "_margin_": [
        0,
        0,
        0,
        0
    ],
    "_orientation_": 6,
    "_padding_": [
        0,
        0,
        0,
        0
    ],
    "_percent_": true,
    "_right_": {
        "type": "string",
        "value": "5%"
    },
    "_skin_": "s8cee9ddcb344024afcc0f0e0d2a9e37",
    "_top_": {
        "type": "string",
        "value": "0dp"
    },
    "_width_": {
        "type": "string",
        "value": "44dp"
    },
    "allboxes": [],
    "autogrowmode": 0,
    "canUpdateUI": true,
    "centery": {
        "type": "string",
        "value": "50%"
    },
    "children": [
        "CopyflxRoundDBlue0bbc73e3c0fb041",
        "Copyflxlakeer0h4a3ac20cf6948"
    ],
    "clipbounds": true,
    "containerweight": 100,
    "enablescrolling": true,
    "id": "flxShowHideSwitchOn",
    "ide_onClick": "AS_FlexContainer_ae39b8bed2ad4dd6a2580303cc28af22",
    "info": null,
    "isvisible": false,
    "kuid": "a603ac347dff4487a2ae44835439a2fe",
    "layouttype": 2,
    "name": "kony.ui.FlexContainer",
    "parent": "flxShowHide",
    "pf": "frmCardsAddNickname",
    "snapgridsize": 10,
    "snaptogrid": true,
    "wType": "FlexContainer",
    "widgetalignment": 1,
    "zindex": 1
}