{
    "@class": "com.kony.gen.viz.model.component.KVizButton",
    "DNDConfig": null,
    "__parentReadjusting__": false,
    "_height_": {
        "type": "string",
        "value": "100%"
    },
    "_margin_": [
        6,
        6,
        6,
        6
    ],
    "_padding_": [
        0,
        0,
        0,
        0
    ],
    "_right_": {
        "type": "string",
        "value": "18%"
    },
    "_skin_": "scba750aa7f9473cadaf087f2356ea10",
    "_text_": "0",
    "_top_": {
        "type": "string",
        "value": "0dp"
    },
    "_width_": {
        "type": "string",
        "value": "9%"
    },
    "canUpdateUI": true,
    "containerId": true,
    "containerweight": 100,
    "contentalignment": 5,
    "displaytext": true,
    "focusskin": "scba750aa7f9473cadaf087f2356ea10",
    "id": "btnEditBeneficiary",
    "ide_onClick": "AS_Button_c88e1f1560c14989b710135776ef94e1",
    "info": null,
    "isvisible": true,
    "kuid": "df4fc01e4be14e35a751e80bb615414e",
    "name": "kony.ui.Button",
    "parent": "flxAnimateBenf",
    "pf": "segShowAcc",
    "wType": "Button",
    "zindex": 2000
}