{
    "@class": "com.kony.gen.viz.model.component.KVizButton",
    "DNDConfig": null,
    "__parentReadjusting__": false,
    "_height_": {
        "type": "string",
        "value": "100%"
    },
    "_margin_": [
        6,
        6,
        6,
        6
    ],
    "_padding_": [
        6,
        0,
        6,
        0
    ],
    "_skin_": "s51d68053cae4eba826625de179be4ae",
    "_text_": "Map",
    "_width_": {
        "type": "string",
        "value": "50%"
    },
    "canUpdateUI": true,
    "centery": {
        "type": "string",
        "value": "50%"
    },
    "containerweight": 100,
    "contentalignment": 5,
    "displaytext": true,
    "focusskin": "s5de7479b8fc41c7b7ac16645e143ed0",
    "id": "btnMapKA",
    "ide_onClick": "AS_Button_b2c5fe7cfef043f6907c68c8674fd467",
    "info": null,
    "iphone": {
        "psp": {
            "showProgressIndicator": false
        }
    },
    "isvisible": true,
    "kuid": "66df8bec0e814c4f8c1a06b80308e326",
    "name": "kony.ui.Button",
    "paddinginpixel": false,
    "parent": "MapListControllerWrapper",
    "pf": "frmDirectionsKA",
    "showprogressindicator": false,
    "texti18n": "i18n.Map.Map",
    "wType": "Button",
    "zindex": 1
}