{
    "@class": "com.kony.gen.viz.model.component.KVizButton",
    "DNDConfig": null,
    "__parentReadjusting__": false,
    "_height_": {
        "type": "string",
        "value": "100%"
    },
    "_left_": {
        "type": "string",
        "value": "0dp"
    },
    "_margin_": [
        6,
        6,
        6,
        6
    ],
    "_padding_": [
        0,
        0,
        0,
        0
    ],
    "_skin_": "sfbb1717a28946b8b7e456ac01ea3290",
    "_text_": "",
    "_top_": {
        "type": "string",
        "value": "0dp"
    },
    "_width_": {
        "type": "string",
        "value": "100%"
    },
    "canUpdateUI": true,
    "containerweight": 100,
    "contentalignment": 5,
    "displaytext": true,
    "focusskin": "sfbb1717a28946b8b7e456ac01ea3290",
    "id": "closeCalloutButton",
    "ide_onClick": "AS_Button_46f1ccc7c20f4fa6a70b40fa974e7abc",
    "info": null,
    "isvisible": false,
    "kuid": "db99f4efaa944ca6b515d7fd93e5d43e",
    "name": "kony.ui.Button",
    "onclick": "AS_Button_27cf391d148f4e2183f6bf0e5c26f7ad",
    "parent": "locatorMapView",
    "pf": "frmDirectionsKA",
    "wType": "Button",
    "zindex": 1
}