{
    "DNDConfig": null,
    "__markedForDelete__": true,
    "__parentReadjusting__": false,
    "_height_": {
        "type": "string",
        "value": "10%"
    },
    "_left_": {
        "type": "string",
        "value": "0%"
    },
    "_margin_": [
        0,
        0,
        0,
        0
    ],
    "_padding_": [
        0,
        0,
        0,
        0
    ],
    "_skin_": "s15e4ac2d02f475fbc70f4dcf387a73a",
    "_top_": {
        "type": "string",
        "value": "2%"
    },
    "_width_": {
        "type": "string",
        "value": "100%"
    },
    "accessibilityconfig": {},
    "allboxes": [],
    "autogrowmode": 0,
    "canUpdateUI": true,
    "children": [
        "CopylblRegisterMobileBanking0d62e1dadcbca4d",
        "flxLine"
    ],
    "clipbounds": true,
    "containerweight": 100,
    "disabledSkins": {},
    "enabled": false,
    "enablescrolling": true,
    "focusskin": "s15e4ac2d02f475fbc70f4dcf387a73a",
    "id": "CopyflxRegisterMobileBanking0j972c4f144ed4e",
    "ide_onClick": "AS_FlexContainer_aeadd47f83c74db3b15316eb54df20cf",
    "info": null,
    "isvisible": true,
    "kuid": "bfa3f1cd21fa44d5955674b79fc0b391",
    "layouttype": 4,
    "name": "kony.ui.FlexContainer",
    "orientation": 6,
    "parent": "loginCard",
    "percent": true,
    "pf": "frmLanguageChange",
    "snapgridsize": 10,
    "snaptogrid": true,
    "wType": "FlexContainer",
    "widgetalignment": 1,
    "zindex": 50
}