{
    "@class": "com.kony.gen.viz.model.component.KVizButton", 
    "DNDConfig": null, 
    "__parentReadjusting__": false, 
    "_height_": {
        "type": "string", 
        "value": "42dp"
    }, 
    "_margin_": [
        6, 
        6, 
        6, 
        6
    ], 
    "_padding_": [
        0, 
        0, 
        0, 
        0
    ], 
    "_skin_": "s51d68053cae4eba826625de179be4ae", 
    "_text_": "OK", 
    "_top_": {
        "type": "string", 
        "value": "60dp"
    }, 
    "_width_": {
        "type": "string", 
        "value": "80%"
    }, 
    "canUpdateUI": true, 
    "centerx": {
        "type": "string", 
        "value": "50.00%"
    }, 
    "containerweight": 100, 
    "contentalignment": 5, 
    "displaytext": true, 
    "focusskin": "sbe13586f59d4a768bfe23c1b619f8c6", 
    "id": "btnOKKA", 
    "ide_onClick": "AS_Button_3cd2ceae92dd46449625e4827ebd893c", 
    "info": null, 
    "iphone": {
        "psp": {
            "showProgressIndicator": false
        }
    }, 
    "isvisible": true, 
    "kuid": "22ef2317d5b1490d85db71c8ccf78fea", 
    "name": "kony.ui.Button", 
    "onclick": "AS_Button_b9bdaa9f9f044b07a3cc0b9a37121d52", 
    "parent": "FlexContainer00a3c07fadcbf4b", 
    "pf": "frmConfirmationPersonalDetailsKA", 
    "showprogressindicator": false, 
    "texti18n": "i18n.settings.ok", 
    "wType": "Button", 
    "zindex": 1
}