{
    "@class": "com.kony.gen.viz.model.component.KVizLabel", 
    "DNDConfig": null, 
    "__parentReadjusting__": false, 
    "_height_": {
        "type": "ref", 
        "value": "preferred"
    }, 
    "_left_": {
        "type": "string", 
        "value": "0dp"
    }, 
    "_margin_": [
        1, 
        1, 
        1, 
        1
    ], 
    "_padding_": [
        0, 
        0, 
        0, 
        0
    ], 
    "_skin_": "s5b504510a154e7fab1632164747adcf", 
    "_text_": "Edit My Profile", 
    "_top_": {
        "type": "string", 
        "value": "0dp"
    }, 
    "_width_": {
        "type": "string", 
        "value": "100%"
    }, 
    "_wrapping_": 2, 
    "canUpdateUI": true, 
    "containerweight": 100, 
    "contentalignment": 5, 
    "enabled": false, 
    "id": "Label07b268452752c4c", 
    "info": null, 
    "ipad": {
        "psp": {
            "wrapping": 2
        }
    }, 
    "iphone": {
        "psp": {
            "wrapping": 2
        }
    }, 
    "isvisible": true, 
    "kuid": "9920291837314b49bea6adfe140192ef", 
    "name": "kony.ui.Label", 
    "parent": "FlexContainer00a3c07fadcbf4b", 
    "pf": "frmConfirmationPersonalDetailsKA", 
    "texti18n": "i18n.settings.editMyProfile", 
    "tooltip": "", 
    "wType": "Label"
}