{
    "@class": "com.kony.gen.viz.model.component.KVizLabel",
    "DNDConfig": null,
    "__parentReadjusting__": false,
    "_height_": {
        "type": "ref",
        "value": "preferred"
    },
    "_left_": {
        "type": "string",
        "value": "100%"
    },
    "_margin_": [
        1,
        1,
        1,
        1
    ],
    "_padding_": [
        0,
        0,
        0,
        0
    ],
    "_skin_": "sdd576e0347f42bb88e3aeb703489d94",
    "_text_": "Salary Account",
    "_top_": {
        "type": "string",
        "value": "35dp"
    },
    "_width_": {
        "type": "ref",
        "value": "preferred"
    },
    "_wrapping_": 2,
    "android": {
        "textStyle": {
            "letterSpacing": 0,
            "strikeThrough": false
        }
    },
    "canUpdateUI": true,
    "containerId": true,
    "containerweight": 100,
    "contentalignment": 7,
    "id": "lblDefaultAccTransfer",
    "info": null,
    "ipad": {
        "psp": {
            "wrapping": 2
        }
    },
    "iphone": {
        "psp": {
            "wrapping": 2
        }
    },
    "isvisible": false,
    "kuid": "id3fbdd9f5e348d4ac000516d42bdd9a",
    "name": "kony.ui.Label",
    "parent": "flxSegChooseAccounts",
    "pf": "tmpChooseAccountsSettings",
    "tooltip": "",
    "wType": "Label",
    "zindex": 1
}