{
    "@class": "com.kony.gen.viz.model.component.KVizButton",
    "DNDConfig": null,
    "__parentReadjusting__": false,
    "_height_": {
        "type": "string",
        "value": "35dp"
    },
    "_margin_": [
        6,
        6,
        6,
        6
    ],
    "_padding_": [
        0,
        0,
        0,
        0
    ],
    "_skin_": "s94d80e187a44bd9bb9ce6db5e729010",
    "_text_": "Cancel",
    "_top_": {
        "type": "string",
        "value": "4dp"
    },
    "_width_": {
        "type": "string",
        "value": "60%"
    },
    "canUpdateUI": true,
    "centerx": {
        "type": "string",
        "value": "50%"
    },
    "containerweight": 100,
    "contentalignment": 5,
    "displaytext": true,
    "focusskin": "s6e8459b84e349d98629a088bbfe1304",
    "id": "noThanks",
    "ide_onClick": "AS_Button_5230f5be38dc49379ba3a0e10bba474d",
    "info": null,
    "iphone": {
        "psp": {
            "showProgressIndicator": false
        }
    },
    "isvisible": true,
    "kuid": "ccae36c7e1bb4e7eb1a4f895abafc7db",
    "name": "kony.ui.Button",
    "onclick": "AS_Button_922c47fe95a640a0b96a9d201d7cf787",
    "parent": "mainContent",
    "pf": "frmEnterPersonalDetailsKA",
    "showprogressindicator": false,
    "texti18n": "i18n.common.cancel",
    "wType": "Button",
    "zindex": 1
}