{
    "@class": "com.kony.gen.viz.model.container.KVizScrollFlexForm",
    "DNDConfig": null,
    "_margin_": [
        0,
        0,
        0,
        0
    ],
    "_orientation_": 1,
    "_padding_": [
        0,
        0,
        0,
        0
    ],
    "_percent_": true,
    "_skin_": "saccb95b58984589af381140b9870839",
    "_title_": null,
    "addWidgetsdone": false,
    "allboxes": [],
    "android": {
        "inTransitionConfig": {
            "formAnimation": 3
        },
        "needAppMenu": false
    },
    "bounces": false,
    "canUpdateUI": true,
    "children": [
        "flxTopWrapperKA",
        "flxBottomContainerKA"
    ],
    "containerweight": 100,
    "currentLocale": "en_US",
    "desktopweb": {
        "needAppMenu": false
    },
    "device": "iPhone6",
    "displayorientation": 1,
    "enabledforidletimeout": true,
    "footeroverlap": false,
    "headeroverlap": true,
    "id": "frmPayeeTransactionsKA",
    "info": null,
    "initdone": false,
    "inputaccessoryviewtype": 4,
    "intransitionconfig": {
        "formAnimation": 3
    },
    "ipad": {
        "psp": {
            "inputAccessoryViewType": 4
        }
    },
    "iphone": {
        "inTransitionConfig": {
            "transitionDirection": "none",
            "transitionEffect": "none"
        },
        "needAppMenu": false,
        "psp": {
            "inputAccessoryViewType": 4,
            "titleBarConfig": {
                "buttonClosureLeftSideView": "",
                "buttonClosureRightSideView": "",
                "buttonText": "Edit",
                "leftButtonText": "Back",
                "leftTitle": "Back",
                "prevFormTitle": false,
                "renderTitleText": true,
                "rightTitle": "Edit",
                "titleBarLeftSideView": "button",
                "titleBarRightSideView": "button",
                "titleClosureLeftSideView": "",
                "titleClosureRightSideView": "",
                "visible": false
            }
        },
        "titleBar": false
    },
    "isvisible": true,
    "kuid": "78b4c1f03e764c0e8ab4e36a3dcb4742",
    "layouttype": 2,
    "name": "kony.ui.Form2",
    "needappmenu": true,
    "paddinginpixel": false,
    "platform": "iphone",
    "prevDevice": "GalaxyS5",
    "prevPlatform": "android",
    "retainscrollposition": false,
    "shellCSS": "iOS_iPhone6",
    "snapgridsize": 10,
    "snaptogrid": true,
    "spa": {
        "inTransitionConfig": {
            "formTransition": "none"
        }
    },
    "spaan": {
        "needAppMenu": false
    },
    "spabb": {
        "needAppMenu": false
    },
    "spaip": {
        "needAppMenu": false
    },
    "spawinphone8": {
        "needAppMenu": false
    },
    "titlebar": true,
    "type": 3,
    "wType": "Form",
    "winphone8": {
        "inTransitionConfig": {
            "inTransition": "none",
            "transitionMode": "none",
            "transitionSpeed": 0
        },
        "needAppMenu": false
    }
}