{
    "AS__e5b9608026c647c695203d8e194760bb": {
        "id": "AS__e5b9608026c647c695203d8e194760bb",
        "type": "ACTION_SEQUENCE",
        "actions": [{
            "id": "NAVIGATE_TO_FORM__buttonClosureRightSideView_a98a35bc737c47329a912cfd1859e689",
            "type": "NAVIGATE_TO_FORM",
            "formId": "frmTransferPayLandingKA",
            "formKUID": "dab7a50c55b94a12b3d961ae5bd49247",
            "mappings": {},
            "mappingsOrder": [],
            "parentId": "",
            "callbackType": null,
            "enableMappingEditor": true
        }]
    }
}