{
    "AS_Button_457ffd0456df4443b324f630db05c26a": {
        "id": "AS_Button_457ffd0456df4443b324f630db05c26a",
        "type": "ACTION_SEQUENCE",
        "actions": [{
            "id": "NAVIGATE_TO_FORM__onClick_1ad6d416423d4d1a959babe3ea283057",
            "type": "NAVIGATE_TO_FORM",
            "formId": "frmSearchKA",
            "formKUID": "ac09c32a534449b3b0961f8e48e26015",
            "mappings": {},
            "mappingsOrder": [],
            "parentId": "",
            "callbackType": null,
            "enableMappingEditor": true
        }]
    }
}