{
    "AS_Button_fafdbff061914421bddc05d38b725f0a": {
        "id": "AS_Button_fafdbff061914421bddc05d38b725f0a",
        "type": "ACTION_SEQUENCE",
        "actions": [{
            "id": "NAVIGATE_TO_FORM___b2e69c237f54405895fdd1084c68bafb",
            "type": "NAVIGATE_TO_FORM",
            "formId": "frmNewTransferKA",
            "formKUID": "2ac343500306428da0ceef91a3b44d18",
            "mappings": {},
            "mappingsOrder": [],
            "parentId": "",
            "callbackType": null,
            "enableMappingEditor": true
        }]
    }
}