{
    "AS_Button_fa58a9fe6f3c492e9767de5ed3cf92e8": {
        "id": "AS_Button_fa58a9fe6f3c492e9767de5ed3cf92e8",
        "type": "ACTION_SEQUENCE",
        "actions": [{
            "id": "NAVIGATE_TO_FORM__onClick_fbd4316d1806429faaaa3717e9b84491",
            "type": "NAVIGATE_TO_FORM",
            "formId": "frmNewBillKA",
            "formKUID": "94b57de480514c9f98e1f6979b71a37b",
            "mappings": {},
            "mappingsOrder": [],
            "parentId": "",
            "callbackType": null,
            "enableMappingEditor": true
        }]
    }
}