{
    "AS_Button_974c56da6cf74b97b7f971716ba9b26b": {
        "id": "AS_Button_974c56da6cf74b97b7f971716ba9b26b",
        "type": "ACTION_SEQUENCE",
        "actions": [{
            "id": "SHOW_ALERT_onClick_6396bb7d00d248f4b415c4f13d2dcabf",
            "type": "SHOW_ALERT",
            "alertType": "constants.ALERT_TYPE_CONFIRMATION",
            "alertTitle": "Confirm Sign Out",
            "yesLabel": "Sign Out",
            "noLabel": "Cancel",
            "alertMessage": "Are you sure you want to sign out?",
            "messageType": "constant",
            "callbackType": null,
            "alertTitlei18n": null,
            "yesLabeli18n": null,
            "noLabeli18n": null
        }, {
            "id": "NAVIGATE_TO_FORM__onClick_382772e31b4a4bf4b6b200df0704f02c",
            "type": "NAVIGATE_TO_FORM",
            "formId": "frmLoginKA",
            "formKUID": "7b1aa8fceb6b4070833e9eab879b0e5e",
            "mappings": {},
            "mappingsOrder": [],
            "parentId": "SHOW_ALERT_onClick_6396bb7d00d248f4b415c4f13d2dcabf",
            "callbackType": "True",
            "enableMappingEditor": true
        }]
    }
}