{
    "AS_Button_1c62bc5d90ab4413bb94dab8436f45e6": {
        "id": "AS_Button_1c62bc5d90ab4413bb94dab8436f45e6",
        "type": "ACTION_SEQUENCE",
        "actions": [{
            "id": "ADD_SNIPPET_onClick_465394eb9c82467bb2e4a07db46c4369",
            "type": "ADD_SNIPPET",
            "codeSnippet": "newTransferFromPick(3);",
            "callbackType": null
        }]
    }
}