{
    "AS_Button_ebf8a86a2ee246a2b11f17e73f78c984": {
        "id": "AS_Button_ebf8a86a2ee246a2b11f17e73f78c984",
        "type": "ACTION_SEQUENCE",
        "actions": [{
            "id": "NAVIGATE_TO_FORM__onClick_e26d6c48715947f8ad1f938ef753dfb4",
            "type": "NAVIGATE_TO_FORM",
            "formId": "frmAccountsLandingKA",
            "formKUID": "d62a2a0906c64d2281addc95893a6544",
            "mappings": {},
            "mappingsOrder": [],
            "parentId": "",
            "callbackType": null,
            "enableMappingEditor": true
        }]
    }
}