{
    "AS_Button_e1ca8e78445b4b4aa53efb4793fd7658": {
        "id": "AS_Button_e1ca8e78445b4b4aa53efb4793fd7658",
        "type": "ACTION_SEQUENCE",
        "params": [{
            "datatype": "collection",
            "name": "eventobject"
        }],
        "actions": [{
            "id": "NAVIGATE_TO_FORM__onClick_f0af7277f7a8483589f384e183172a07",
            "type": "NAVIGATE_TO_FORM",
            "formId": "frmTransferPayLandingKA",
            "formKUID": "dab7a50c55b94a12b3d961ae5bd49247",
            "mappings": {},
            "mappingsOrder": [],
            "parentId": "",
            "callbackType": null,
            "enableMappingEditor": true
        }]
    }
}