{
    "AS_Segment_baed5c44281d405092b279dd720878de": {
        "id": "AS_Segment_baed5c44281d405092b279dd720878de",
        "type": "ACTION_SEQUENCE",
        "actions": [{
            "id": "SHOW_ALERT_onRowClick_ca1a45c4e040437984788ee398871064",
            "type": "SHOW_ALERT",
            "alertType": "constants.ALERT_TYPE_CONFIRMATION",
            "alertTitle": "Call",
            "yesLabel": "Call",
            "noLabel": "Cancel",
            "alertMessage": " 284-123-1234",
            "messageType": "constant",
            "callbackType": null,
            "alertTitlei18n": null,
            "yesLabeli18n": null,
            "noLabeli18n": null
        }]
    }
}