{
    "AS_Segment_cc56effc9e3b43f6815689c6b7c03f12": {
        "id": "AS_Segment_cc56effc9e3b43f6815689c6b7c03f12",
        "type": "ACTION_SEQUENCE",
        "params": [{
            "datatype": "collection",
            "name": "eventobject"
        }, {
            "datatype": "number",
            "name": "sectionNumber"
        }, {
            "datatype": "number",
            "name": "rowNumber"
        }],
        "actions": [{
            "id": "NAVIGATE_TO_FORM___3ea9c069640a451f8e37f5a1cf791588",
            "type": "NAVIGATE_TO_FORM",
            "formId": "frmUserSettingsAccountPreviewKA",
            "formKUID": "7891569f547446feb05fd0bfc49efb41",
            "mappings": {},
            "mappingsOrder": [],
            "parentId": "",
            "callbackType": null,
            "enableMappingEditor": true
        }]
    }
}