{
    "AS_Segment_e6c6cded3e2a4288af9bbcdb4086a35a": {
        "id": "AS_Segment_e6c6cded3e2a4288af9bbcdb4086a35a",
        "type": "ACTION_SEQUENCE",
        "params": [{
            "datatype": "collection",
            "name": "eventobject"
        }, {
            "datatype": "number",
            "name": "sectionNumber"
        }, {
            "datatype": "number",
            "name": "rowNumber"
        }],
        "actions": [{
            "id": "ADD_SNIPPET__92d404d8587f40b893592b2efcd57127",
            "type": "ADD_SNIPPET",
            "codeSnippet": "payeeSelection();",
            "parentId": null,
            "callbackType": null
        }]
    }
}