{
    "AS_TitleBar_ff873aa222654e13bdf3304be99ac191": {
        "id": "AS_TitleBar_ff873aa222654e13bdf3304be99ac191",
        "type": "ACTION_SEQUENCE",
        "actions": [{
            "id": "NAVIGATE_TO_FORM___f9c0a7e03e19434d8640fe12eefbb781",
            "type": "NAVIGATE_TO_FORM",
            "formId": "frmTransferPayLandingKA",
            "formKUID": "dab7a50c55b94a12b3d961ae5bd49247",
            "mappings": {},
            "mappingsOrder": [],
            "parentId": "",
            "callbackType": null,
            "enableMappingEditor": true
        }]
    }
}