{
    "@class": "com.kony.gen.viz.model.component.KVizButton",
    "DNDConfig": null,
    "__markedForDelete__": true,
    "__parentReadjusting__": false,
    "_height_": {
        "type": "string",
        "value": "70dp"
    },
    "_margin_": [
        6,
        6,
        6,
        6
    ],
    "_padding_": [
        0,
        0,
        0,
        0
    ],
    "_skin_": "sda08b4339e74784bd65e70cdeb8db25",
    "_text_": "D",
    "_top_": {
        "type": "string",
        "value": "0"
    },
    "_width_": {
        "type": "string",
        "value": "70dp"
    },
    "canUpdateUI": true,
    "centerx": {
        "type": "string",
        "value": "50%"
    },
    "containerweight": 100,
    "contentalignment": 5,
    "displaytext": true,
    "focusskin": "sf52fe83ecda4ee78472407559ede3f7",
    "id": "btnCLIQ",
    "ide_onClick": "AS_Button_f6c54d4816904ffa8f127f28bd502b7a",
    "info": null,
    "isvisible": true,
    "kuid": "jd1e3e9458584434b10fdf9dfcf3bf42",
    "name": "kony.ui.Button",
    "parent": "frmCLIQ",
    "pf": "frmPaymentDashboard",
    "wType": "Button",
    "zindex": 1
}