{
    "@class": "com.kony.gen.viz.model.component.KVizLabel", 
    "DNDConfig": null, 
    "__parentReadjusting__": false, 
    "_height_": {
        "type": "ref", 
        "value": "preferred"
    }, 
    "_left_": {
        "type": "string", 
        "value": "0%"
    }, 
    "_margin_": [
        1, 
        1, 
        1, 
        1
    ], 
    "_padding_": [
        0, 
        0, 
        0, 
        0
    ], 
    "_skin_": "s081a9429ae54fd889bc06aa3a05a4a2", 
    "_text_": "5000", 
    "_top_": {
        "type": "string", 
        "value": "10dp"
    }, 
    "_width_": {
        "type": "ref", 
        "value": "preferred"
    }, 
    "_wrapping_": 2, 
    "canUpdateUI": true, 
    "containerweight": 100, 
    "contentalignment": 4, 
    "enabled": false, 
    "id": "transactionAmount", 
    "info": null, 
    "ipad": {
        "psp": {
            "wrapping": 2
        }
    }, 
    "iphone": {
        "psp": {
            "wrapping": 2
        }
    }, 
    "isvisible": false, 
    "kuid": "4713b9f4008d41bebfd41b3040a9c586", 
    "name": "kony.ui.Label", 
    "parent": "flxamountKA", 
    "pf": "frmConfirmDepositKA", 
    "tooltip": "", 
    "wType": "Label"
}