{
    "@class": "com.kony.gen.viz.model.component.KVizTextBox2",
    "DNDConfig": null,
    "__parentReadjusting__": false,
    "_height_": {
        "type": "number",
        "value": "38"
    },
    "_left_": {
        "type": "string",
        "value": "0%"
    },
    "_margin_": [
        0,
        0,
        0,
        0
    ],
    "_padding_": [
        0,
        0,
        0,
        0
    ],
    "_placeholder_": "Enter username here",
    "_right_": {
        "type": "number",
        "value": "0"
    },
    "_skin_": "sfeb20d5233a455582c84c14f5ec1de2",
    "_text_": "",
    "_top_": {
        "type": "string",
        "value": "0dp"
    },
    "_width_": {
        "type": "string",
        "value": "80%"
    },
    "android": {},
    "autocapitalize": "none",
    "autocomplete": false,
    "autocorrect": false,
    "autofilter": false,
    "canUpdateUI": true,
    "containerheight": "",
    "containerheightmode": 1,
    "containerweight": 100,
    "contentalignment": 4,
    "enabled": false,
    "focusskin": "s16addfe9da944a3add187c9cd34aa56",
    "id": "txtboxUsernameKA",
    "ide_onTextChange": "AS_TextField_c56a41ffc2f3403d940e031de6716f71",
    "info": null,
    "iphone": {
        "psp": {
            "keyboardActionLabel": 4,
            "showClearButton": false
        }
    },
    "isvisible": true,
    "keyboardstyle": "A",
    "keyboardtype": "A",
    "kuid": "e64e2f49539240fd998872f3bf7f5466",
    "mode": "A",
    "name": "kony.ui.TextBox2",
    "parent": "flxUserID",
    "pf": "frmCreateCredentials",
    "placeholderi18n": "i18n.NUO.Enterusernamehere",
    "placeholderskin": "sfa36c5ffd8f4b39894ae352f59c3406",
    "securetextentry": false,
    "showclearbutton": false,
    "textinputmode": "A",
    "viewtype": "default",
    "wType": "TextField"
}