{
    "@class": "com.kony.gen.viz.model.component.KVizTextBox2",
    "DNDConfig": null,
    "__markedForDelete__": true,
    "__parentReadjusting__": false,
    "_bottom_": {
        "type": "string",
        "value": "4%"
    },
    "_height_": {
        "type": "string",
        "value": "60%"
    },
    "_margin_": [
        0,
        0,
        0,
        0
    ],
    "_padding_": [
        3,
        0,
        0,
        0
    ],
    "_placeholder_": "",
    "_skin_": "s029998596d3421892d0917ea7492e1d",
    "_text_": "",
    "_width_": {
        "type": "string",
        "value": "100%"
    },
    "android": {
        "psp": {
            "keyboardActionLabel": 1
        }
    },
    "autocapitalize": "none",
    "autocomplete": false,
    "autocorrect": false,
    "autofilter": false,
    "canUpdateUI": true,
    "centerx": {
        "type": "string",
        "value": "50%"
    },
    "containerheight": "",
    "containerheightmode": 1,
    "containerweight": 100,
    "contentalignment": 4,
    "focusskin": "s029998596d3421892d0917ea7492e1d",
    "id": "txtEcomLimit",
    "ide_onTextChange": "AS_TextField_j2f063e57eb14c58925fd4f626502832",
    "ide_onTouchEnd": "AS_TextField_a176250a93a04056ab52cf917386327e",
    "info": null,
    "iphone": {},
    "isvisible": true,
    "keyboardactionlabel": 1,
    "keyboardstyle": "A",
    "keyboardtype": "A",
    "kuid": "ccc207b7b9494fcdac946fc4d452a4c2",
    "mode": "N",
    "name": "kony.ui.TextBox2",
    "parent": "flxecomLimit",
    "pf": "frmEnableInternetTransactionKA",
    "securetextentry": false,
    "textinputmode": "N",
    "viewtype": "default",
    "wType": "TextField",
    "zindex": 10
}