{
    "DNDConfig": null,
    "__parentReadjusting__": false,
    "_height_": {
        "type": "string",
        "value": "10%"
    },
    "_left_": {
        "type": "string",
        "value": "0dp"
    },
    "_margin_": [
        0,
        0,
        0,
        0
    ],
    "_orientation_": 6,
    "_padding_": [
        0,
        0,
        0,
        0
    ],
    "_percent_": true,
    "_skin_": "s7faeba8e79f4278a6b36c28ea36b97d",
    "_top_": {
        "type": "string",
        "value": "22%"
    },
    "_width_": {
        "type": "string",
        "value": "100%"
    },
    "allboxes": [],
    "autogrowmode": 0,
    "canUpdateUI": true,
    "children": [
        "CopylblConvertedValue0j4485f10241249",
        "CopylblConvertedValue0e0645b306ff94d",
        "CopylblConvertedValue0de6ded6c2cfb4f",
        "CopylblConvertedValue0da07f7b1132f4e",
        "Label0d3c83e907d114a"
    ],
    "clipbounds": true,
    "containerweight": 100,
    "enablescrolling": true,
    "id": "flxSubTitle",
    "info": null,
    "isvisible": true,
    "kuid": "a59c002865384d899ace7d1709dfdaec",
    "layouttype": 2,
    "name": "kony.ui.FlexContainer",
    "parent": "flxScrlExchangeRates",
    "pf": "frmFxRate",
    "snapgridsize": 10,
    "snaptogrid": true,
    "wType": "FlexContainer",
    "widgetalignment": 1,
    "zindex": 1
}