{
    "AS_Button_8b93f99b7f77466596ecde6c2359f189": {
        "id": "AS_Button_8b93f99b7f77466596ecde6c2359f189",
        "type": "ACTION_SEQUENCE",
        "name": "AccountInfoEditBack",
        "params": [{
            "datatype": "collection",
            "name": "eventobject"
        }],
        "contextObj": {
            "name": "frmAccountInfoEditKA",
            "type": "forms",
            "platform": "",
            "KUID": "d632c1724f9840698e446fcf7c83b2ca"
        },
        "language": "js",
        "actions": [{
            "id": "NAVIGATE_TO_FORM___1db1eaa06aa346b684bdd68ec25d8c68",
            "type": "NAVIGATE_TO_FORM",
            "formId": "frmAccountInfoKA",
            "formKUID": "b2f984d11c5244e6ae5f81fe393d837e",
            "mappings": {},
            "mappingsOrder": [],
            "parentId": "",
            "callbackType": null,
            "enableMappingEditor": true
        }]
    }
}