{
    "AS_Button_e74f18376e29471da58f3e0e6248ae37": {
        "id": "AS_Button_e74f18376e29471da58f3e0e6248ae37",
        "type": "ACTION_SEQUENCE",
        "name": "actionNUOSignUpCancel",
        "params": [{
            "datatype": "collection",
            "name": "eventobject"
        }],
        "contextObj": {
            "name": "frmNUOSignUpPhoneKA",
            "type": "forms",
            "platform": "",
            "KUID": "df10c73727f6431c97b66d9fe3bb8549"
        },
        "language": "js",
        "actions": [{
            "id": "ADD_SNIPPET__d0059935ad1744e9a9a1c5ba7daa582f",
            "type": "ADD_SNIPPET",
            "codeSnippet": "kony.print(\"Deleted\");",
            "parentId": null,
            "callbackType": null
        }]
    }
}