{
    "AS_TextField_ic6dca93b74646aeb036f044ff9c6f17": {
        "id": "AS_TextField_ic6dca93b74646aeb036f044ff9c6f17",
        "type": "ACTION_SEQUENCE",
        "name": "actionOnTextChangeOTP",
        "params": [{
            "datatype": "collection",
            "name": "eventobject"
        }, {
            "datatype": "string",
            "name": "changedtext"
        }],
        "contextObj": {
            "name": "frmNewUserOnboardVerificationKA",
            "type": "forms",
            "platform": "",
            "KUID": "ie7b921fac134bd8a8afb16afc085409"
        },
        "language": "js",
        "actions": [{
            "id": "ADD_SNIPPET__h9c7f0e1e4fc4bf49f5718f541fbbbcb",
            "type": "ADD_SNIPPET",
            "codeSnippet": "var VC=applicationManager.getFrmNUOVerificationKAViewController();\nVC.onTextChangeOTP();",
            "parentId": null,
            "callbackType": null
        }]
    }
}