{
    "AS_TextField_e712013ed31a44298f9392598cf651c4": {
        "id": "AS_TextField_e712013ed31a44298f9392598cf651c4",
        "type": "ACTION_SEQUENCE",
        "name": "actionOntextChangeOfCountryCode",
        "params": [{
            "datatype": "collection",
            "name": "eventobject"
        }, {
            "datatype": "string",
            "name": "changedtext"
        }],
        "contextObj": {
            "name": "frmNUOSignUpPhoneKA",
            "type": "forms",
            "platform": "",
            "KUID": "df10c73727f6431c97b66d9fe3bb8549"
        },
        "language": "js",
        "actions": [{
            "id": "ADD_SNIPPET__ha11141f86864841a05a95cc8bfed0fa",
            "type": "ADD_SNIPPET",
            "codeSnippet": "kony.print(\"Deleted\");",
            "parentId": null,
            "callbackType": null
        }]
    }
}