{
    "AS_FlexContainer_ie4d948c87814d0fbd61e8e910d962aa": {
        "id": "AS_FlexContainer_ie4d948c87814d0fbd61e8e910d962aa",
        "type": "ACTION_SEQUENCE",
        "name": "actionOnApplicationDetailsClick",
        "params": [{
            "datatype": "collection",
            "name": "eventobject"
        }],
        "contextObj": {
            "name": "frmNewAccountKA",
            "type": "forms",
            "platform": "",
            "KUID": "ae9bd585c9dc472abb9f4a818592681b"
        },
        "language": "js",
        "actions": [{
            "id": "ADD_SNIPPET__edcdca7ad74b4462b3f1687146f2f03b",
            "type": "ADD_SNIPPET",
            "codeSnippet": "kony.print(\"Deleted\");",
            "parentId": null,
            "callbackType": null
        }]
    }
}