{
    "AS_Button_ffd44a48e1f74b5492dac99a9ce8b3dc": {
        "id": "AS_Button_ffd44a48e1f74b5492dac99a9ce8b3dc",
        "type": "ACTION_SEQUENCE",
        "name": "actionOnEmailContinue",
        "params": [{
            "datatype": "collection",
            "name": "eventobject"
        }],
        "language": "js",
        "actions": [{
            "id": "ADD_SNIPPET_ide_onClick_eb42756126fc4f52b8d5918b63477bbc",
            "type": "ADD_SNIPPET",
            "codeSnippet": "kony.print(\"Deleted\");\n",
            "callbackType": null
        }]
    }
}