{
    "AS_TextField_efacff8795914a11a0fe16067be3032a": {
        "id": "AS_TextField_efacff8795914a11a0fe16067be3032a",
        "type": "ACTION_SEQUENCE",
        "name": "actionOnTextChangeCountryCode",
        "params": [{
            "datatype": "collection",
            "name": "eventobject"
        }, {
            "datatype": "string",
            "name": "changedtext"
        }],
        "contextObj": {
            "name": "frmNUOSignUpPhoneKA",
            "type": "forms",
            "platform": "",
            "KUID": "df10c73727f6431c97b66d9fe3bb8549"
        },
        "language": "js",
        "actions": [{
            "id": "ADD_SNIPPET__f87578bec8e94f59a866e3f5d1e9cfa6",
            "type": "ADD_SNIPPET",
            "codeSnippet": "kony.print(\"Deleted\");",
            "parentId": null,
            "callbackType": null
        }]
    }
}