{
    "AS_Button_ge66ad9dfa274fa3955d824641f2e40c": {
        "id": "AS_Button_ge66ad9dfa274fa3955d824641f2e40c",
        "type": "ACTION_SEQUENCE",
        "name": "actionBackOnDOBKA",
        "params": [{
            "datatype": "collection",
            "name": "eventobject"
        }],
        "contextObj": {
            "name": "frmNUODOBKA",
            "type": "forms",
            "platform": "",
            "KUID": "g01e44fc626946168f2084ad3d64d5ff"
        },
        "language": "js",
        "actions": [{
            "id": "ADD_SNIPPET__b50c4f223847416789adb15c64980b93",
            "type": "ADD_SNIPPET",
            "codeSnippet": "kony.print(\"Deleted\");",
            "parentId": null,
            "callbackType": null
        }]
    }
}