{
    "AS_Image_j1941e9965114749842b77ebd4bfc3ae": {
        "id": "AS_Image_j1941e9965114749842b77ebd4bfc3ae",
        "type": "ACTION_SEQUENCE",
        "name": "actionOnDownloadCompleteEnlargedAdImg",
        "params": [{
            "datatype": "collection",
            "name": "eventobject"
        }, {
            "datatype": "string",
            "name": "imagesrc"
        }, {
            "datatype": "boolean",
            "name": "issuccess"
        }],
        "contextObj": {
            "name": "frmEnlargeAdKA",
            "type": "forms",
            "platform": "",
            "KUID": "af0a08b95e4b4ced82724169b940deb3"
        },
        "language": "js",
        "actions": [{
            "id": "ADD_SNIPPET__g44d3775c5d64148bac289ce44ea42ba",
            "type": "ADD_SNIPPET",
            "codeSnippet": "var enLargeAdVC = applicationManager.getEnlargedAdViewController();\nenLargeAdVC.onImageDownloadComplete(issuccess);",
            "parentId": null,
            "callbackType": null
        }]
    }
}