{
    "AS_TextField_g09b23a80ae04211a674cb7ddd510279": {
        "id": "AS_TextField_g09b23a80ae04211a674cb7ddd510279",
        "type": "ACTION_SEQUENCE",
        "name": "actionOnTextChangeEmail",
        "params": [{
            "datatype": "collection",
            "name": "eventobject"
        }, {
            "datatype": "string",
            "name": "changedtext"
        }],
        "contextObj": {
            "name": "frmNUOSignUpEmailKA",
            "type": "forms",
            "platform": "",
            "KUID": "i2216dbab50146c68fa5b602e7af210e"
        },
        "language": "js",
        "actions": [{
            "id": "ADD_SNIPPET__f3ebb87173894b22936cd3b5d836b408",
            "type": "ADD_SNIPPET",
            "codeSnippet": "kony.print(\"Deleted\");",
            "parentId": null,
            "callbackType": null
        }]
    }
}