{
    "AS_Form_f5cc80e20f8f4c22bb19f8466493cfd1": {
        "id": "AS_Form_f5cc80e20f8f4c22bb19f8466493cfd1",
        "type": "ACTION_SEQUENCE",
        "name": "afwanJomoPayLandingScreenPostShow",
        "params": [{
            "datatype": "collection",
            "name": "eventobject"
        }],
        "contextObj": {
            "name": "frmJoMoPayLandingScreen",
            "type": "forms",
            "platform": "",
            "KUID": "c86898c50c7a4b78b566cfbdc7526d13"
        },
        "language": "js",
        "actions": [{
            "id": "ADD_SNIPPET__a7d042df73c0402492c89e17807505b1",
            "type": "ADD_SNIPPET",
            "codeSnippet": "//kony.boj.JomopayLanding();\nkony.print(\"In Post Show\");",
            "parentId": null,
            "callbackType": null,
            "disabled": false
        }]
    }
}