{
    "AS_Button_c69e583ce7414c5da676a6766197d949": {
        "id": "AS_Button_c69e583ce7414c5da676a6766197d949",
        "type": "ACTION_SEQUENCE",
        "name": "afwanNavigatetoJomoPayConfirmation",
        "params": [{
            "datatype": "collection",
            "name": "eventobject"
        }],
        "language": "js",
        "actions": [{
            "id": "ADD_SNIPPET_ide_onClick_e37d7aa8bdb040a0badda7af120039a9",
            "type": "ADD_SNIPPET",
            "codeSnippet": "frmJoMoPayConfirmation.lblTransferType.text=frmJoMoPay.lblTransferType.text;\nfrmJoMoPayConfirmation.lblAccountType.text=frmJoMoPay.lblAccountType.text;\nfrmJoMoPayConfirmation.lblType.text=frmJoMoPay.lblType.text;\nfrmJoMoPayConfirmation.lblAmount.text=frmJoMoPay.txtFieldAmount.text+\" JOD\";\nfrmJoMoPayConfirmation.lblPhoneNo.text=frmJoMoPay.txtAliasDetail.text;\nfrmJoMoPayConfirmation.show();",
            "callbackType": null
        }]
    }
}