{
    "AS_Button_c22caa4970124987a4295de09ec77cc5": {
        "id": "AS_Button_c22caa4970124987a4295de09ec77cc5",
        "type": "ACTION_SEQUENCE",
        "params": [{
            "datatype": "collection",
            "name": "eventobject"
        }],
        "language": "js",
        "actions": [{
            "id": "ADD_SNIPPET_ide_onClick_a1c60d861a8542c196752a04705114b5",
            "type": "ADD_SNIPPET",
            "codeSnippet": " successFormContinue();",
            "callbackType": null
        }]
    }
}