{
    "AS_Button_d1c7fb8557914d589d7979916d815627": {
        "id": "AS_Button_d1c7fb8557914d589d7979916d815627",
        "type": "ACTION_SEQUENCE",
        "params": [{
            "datatype": "collection",
            "name": "eventobject"
        }, {
            "datatype": "collection",
            "name": "context"
        }],
        "contextObj": {
            "name": "segMessagesBoldTmplDraftKA",
            "type": "templates",
            "platform": null,
            "KUID": "0a0d4d0f80c3458481990cc3597e4431"
        },
        "language": "js",
        "actions": [{
            "id": "ADD_SNIPPET__f0209637caf6467894460a5095a66d6a",
            "type": "ADD_SNIPPET",
            "codeSnippet": "onMessageSentSelected();",
            "parentId": null,
            "callbackType": null
        }]
    }
}