{
    "AS_Button_d076673bbcad401096e7dcfbf75dd43f": {
        "id": "AS_Button_d076673bbcad401096e7dcfbf75dd43f",
        "type": "ACTION_SEQUENCE",
        "params": [{
            "datatype": "collection",
            "name": "eventobject"
        }],
        "contextObj": {
            "name": "frmLoginKA",
            "type": "forms",
            "platform": "",
            "KUID": "7b1aa8fceb6b4070833e9eab879b0e5e"
        },
        "language": "js",
        "actions": [{
            "id": "ADD_SNIPPET__eb0b697ad6be4893ae9c6796cd5492c4",
            "type": "ADD_SNIPPET",
            "codeSnippet": "onClickLocator();",
            "parentId": null,
            "callbackType": null
        }]
    }
}