{
    "AS_Button_b3d0beb15e1a459a8138ffd38aa49a29": {
        "id": "AS_Button_b3d0beb15e1a459a8138ffd38aa49a29",
        "type": "ACTION_SEQUENCE",
        "params": [{
            "datatype": "collection",
            "name": "eventobject"
        }],
        "contextObj": {
            "name": "frmUserSettingsSiri",
            "type": "forms",
            "platform": "",
            "KUID": "f6a73333c5b04d9f97a80b02ff57e6ae"
        },
        "language": "js",
        "actions": [{
            "id": "ADD_SNIPPET__d502abf3b0a041d9b2d5dcffc390139b",
            "type": "ADD_SNIPPET",
            "codeSnippet": "onClickbtnUpdateLimit();",
            "parentId": null,
            "callbackType": null
        }]
    }
}