{
    "AS_Button_a133f0aa4e8747c09ce0aad3fa03fca1": {
        "id": "AS_Button_a133f0aa4e8747c09ce0aad3fa03fca1",
        "type": "ACTION_SEQUENCE",
        "params": [{
            "datatype": "collection",
            "name": "eventobject"
        }, {
            "datatype": "collection",
            "name": "context"
        }],
        "language": "js",
        "actions": [{
            "id": "ADD_SNIPPET_ide_onClick_jd42b1118e90439fae68d55e7ee1a13c",
            "type": "ADD_SNIPPET",
            "codeSnippet": "selectBills(eventobject,context);",
            "callbackType": null
        }]
    }
}