{
    "AS_Button_a8d3b9a3aff644329f6cc789089a46ba": {
        "id": "AS_Button_a8d3b9a3aff644329f6cc789089a46ba",
        "type": "ACTION_SEQUENCE",
        "params": [{
            "datatype": "collection",
            "name": "eventobject"
        }],
        "contextObj": {
            "name": "frmJoMoPayLanding",
            "type": "forms",
            "platform": "",
            "KUID": "d298f6fe5af04a4dbf76c2b5625a9f8c"
        },
        "language": "js",
        "actions": [{
            "id": "ADD_SNIPPET__h610a33c65b3478b8dcdf3705cd12e76",
            "type": "ADD_SNIPPET",
            "codeSnippet": "initiate_QRCodeScanner();",
            "parentId": null,
            "callbackType": null
        }]
    }
}