{
    "AS_Button_j5f85576bd2d4bd7b7a666a03c3c2d48": {
        "id": "AS_Button_j5f85576bd2d4bd7b7a666a03c3c2d48",
        "type": "ACTION_SEQUENCE",
        "params": [{
            "datatype": "collection",
            "name": "eventobject"
        }],
        "contextObj": {
            "name": "frmSettingsKA",
            "type": "forms",
            "platform": null,
            "KUID": "hb0fb66c0c224ed284a1334d78669bfa"
        },
        "language": "js",
        "actions": [{
            "id": "ADD_SNIPPET_ide_onClick_ae0d4a0417ba48a4b8964575a08db89a",
            "type": "ADD_SNIPPET",
            "codeSnippet": "frmJoMoPayLanding.txtSearch.text=\"\";\nfrmPaymentDashboard.show();;",
            "callbackType": null
        }]
    }
}