{
    "AS_Button_j374f6babe6c4b60b6d49cc95cc13f8d": {
        "id": "AS_Button_j374f6babe6c4b60b6d49cc95cc13f8d",
        "type": "ACTION_SEQUENCE",
        "name": "AS_Button_cardreasons",
        "params": [{
            "datatype": "collection",
            "name": "eventobject"
        }],
        "contextObj": {
            "name": "frmCancelCardKA",
            "type": "forms",
            "platform": "",
            "KUID": "h9147b91e9434f428264b7f811fa0f0c"
        },
        "language": "js",
        "actions": [{
            "id": "ADD_SNIPPET__f30b13eba7fd49e89d336708514b66c8",
            "type": "ADD_SNIPPET",
            "codeSnippet": "//onClickCancelCardReasons();\nloadStopCardReasons();\n",
            "parentId": null
        }]
    }
}