{
    "AS_Button_j4abe7531cf5425abc3a7f70e1d7e9a5": {
        "id": "AS_Button_j4abe7531cf5425abc3a7f70e1d7e9a5",
        "type": "ACTION_SEQUENCE",
        "params": [{
            "datatype": "collection",
            "name": "eventobject"
        }],
        "language": "js",
        "actions": [{
            "id": "ADD_SNIPPET_ide_onClick_f803fbe0114a49309c812a39061fe779",
            "type": "ADD_SNIPPET",
            "codeSnippet": "scheduledTabSelectedAccounts();",
            "callbackType": null
        }]
    }
}