{
    "AS_Button_cce7c6e86f9a4a519653d2e50ec2afd5": {
        "id": "AS_Button_cce7c6e86f9a4a519653d2e50ec2afd5",
        "type": "ACTION_SEQUENCE",
        "params": [{
            "datatype": "collection",
            "name": "eventobject"
        }],
        "language": "js",
        "actions": [{
            "id": "ADD_SNIPPET_ide_onClick_0e6a9dec2c1346e780b65ffb703622f8",
            "type": "ADD_SNIPPET",
            "codeSnippet": "locatorListViewEnabledAnimate();"
        }]
    }
}