{
    "AS_Button_754a4714677148c38ebac165945f715e": {
        "id": "AS_Button_754a4714677148c38ebac165945f715e",
        "type": "ACTION_SEQUENCE",
        "params": [{
            "datatype": "collection",
            "name": "eventobject"
        }],
        "language": "js",
        "actions": [{
            "id": "ADD_SNIPPET__109201266e9b48258913bda76e50c01b",
            "type": "ADD_SNIPPET",
            "codeSnippet": "//onClickLocatoriPhoneBackBtn();\n//onBackforMaps();\nkony.print(\"Deleted\");",
            "parentId": null,
            "callbackType": null
        }]
    }
}