{
    "AS_Button_7d809e51e33946bf80f0e1966d14102d": {
        "id": "AS_Button_7d809e51e33946bf80f0e1966d14102d",
        "type": "ACTION_SEQUENCE",
        "params": [{
            "datatype": "collection",
            "name": "eventobject"
        }],
        "contextObj": {
            "name": "frmSearchResultsKA",
            "type": "forms",
            "platform": null,
            "KUID": "c0c324792a474a0fb5c1fbb09304b98a"
        },
        "language": "js",
        "actions": [{
            "id": "ADD_SNIPPET_ide_onClick_311e759235244b01a12706a175d05639",
            "type": "ADD_SNIPPET",
            "codeSnippet": "navigateBackToSearchOptions();",
            "callbackType": null
        }]
    }
}