{
    "AS_Button_a415dabcfce641daa56db1d5478825fa": {
        "id": "AS_Button_a415dabcfce641daa56db1d5478825fa",
        "type": "ACTION_SEQUENCE",
        "params": [{
            "datatype": "collection",
            "name": "eventobject"
        }],
        "contextObj": {
            "name": "frmCardlessAcknowledgeQRCodeKA",
            "type": "forms",
            "platform": "",
            "KUID": "b05c2215220d4fcea5167c0ae154dcd7"
        },
        "language": "js",
        "actions": [{
            "id": "ADD_SNIPPET__e0890b07579f426e8b361d33db2be34b",
            "type": "ADD_SNIPPET",
            "codeSnippet": "frmSuccessQRCode.show();",
            "parentId": null,
            "callbackType": null
        }]
    }
}