{
    "AS_Button_0002d1812be74a8f85adef366f8b8fb4": {
        "id": "AS_Button_0002d1812be74a8f85adef366f8b8fb4",
        "type": "ACTION_SEQUENCE",
        "params": [{
            "datatype": "collection",
            "name": "eventobject"
        }],
        "contextObj": {
            "name": "frmSearchOptionsKA",
            "type": "forms",
            "platform": null,
            "KUID": "400a0ee97eb04e5897318084b1271b8a"
        },
        "language": "js",
        "actions": [{
            "id": "ADD_SNIPPET_ide_onClick_5b72eefdcc8747c3912ed308ed21400c",
            "type": "ADD_SNIPPET",
            "codeSnippet": " var INSTANCE = kony.sdk.mvvm.KonyApplicationContext.getAppInstance();\n var controller = INSTANCE.getFormController(\"frmAccountDetailKA\");\n controller.getFormModel().showView();",
            "callbackType": null
        }]
    }
}