{
    "AS_Button_c133b23f4a504a3cb1f9ca58870cb1ec": {
        "id": "AS_Button_c133b23f4a504a3cb1f9ca58870cb1ec",
        "type": "ACTION_SEQUENCE",
        "params": [{
            "datatype": "collection",
            "name": "eventobject"
        }],
        "contextObj": {
            "name": "frmAccountDetailKA",
            "type": "forms",
            "platform": "",
            "KUID": "5ed703cad63c441882fc4a36f5ea0c28"
        },
        "language": "js",
        "actions": [{
            "id": "ADD_SNIPPET__ha20e64780684b79859e4ecbe2ccbfd5",
            "type": "ADD_SNIPPET",
            "codeSnippet": "kony.print(\"asdas\");",
            "parentId": null,
            "callbackType": null
        }]
    }
}