{
    "AS_Button_j5de3baed4d7441daad9d77b0d9d7556": {
        "id": "AS_Button_j5de3baed4d7441daad9d77b0d9d7556",
        "type": "ACTION_SEQUENCE",
        "params": [{
            "datatype": "collection",
            "name": "eventobject"
        }],
        "language": "js",
        "actions": [{
            "id": "ADD_SNIPPET_ide_onClick_h7d2a086aaae467b9723ac5d2caa1724",
            "type": "ADD_SNIPPET",
            "codeSnippet": "frmPaymentDashboard.show();;",
            "callbackType": null
        }]
    }
}