{
    "AS_Button_a8786ffcf5b9418f9b9f41e9e689e598": {
        "id": "AS_Button_a8786ffcf5b9418f9b9f41e9e689e598",
        "type": "ACTION_SEQUENCE",
        "name": "AS_Button_SaveNickName",
        "params": [{
            "datatype": "collection",
            "name": "eventobject"
        }],
        "language": "js",
        "actions": [{
            "id": "ADD_SNIPPET_ide_onClick_g4c0519bd15d4d5f8268ef0ca6fd7d98",
            "type": "ADD_SNIPPET",
            "codeSnippet": "callSetNicknameAletSettings();",
            "callbackType": null
        }]
    }
}