{
    "AS_Button_e6ce3b1d181441bd8d1d57a8e6fa106f": {
        "id": "AS_Button_e6ce3b1d181441bd8d1d57a8e6fa106f",
        "type": "ACTION_SEQUENCE",
        "params": [{
            "datatype": "collection",
            "name": "eventobject"
        }],
        "language": "js",
        "actions": [{
            "id": "ADD_SNIPPET_ide_onClick_f66b944c72b94ad9b9af8340019bc499",
            "type": "ADD_SNIPPET",
            "codeSnippet": "showHideAccountInsights();",
            "callbackType": null
        }]
    }
}