{
    "AS_Button_fb245ecc8971403abe69c66b69b5d26f": {
        "id": "AS_Button_fb245ecc8971403abe69c66b69b5d26f",
        "type": "ACTION_SEQUENCE",
        "params": [{
            "datatype": "collection",
            "name": "eventobject"
        }],
        "language": "js",
        "actions": [{
            "id": "ADD_SNIPPET_ide_onClick_h0b90df4e6a5429ea884fea889963887",
            "type": "ADD_SNIPPET",
            "codeSnippet": "kony.print(\"kony.print\");",
            "callbackType": null
        }]
    }
}