{
    "AS_Button_6b57b327e242415fbda37625dcf59435": {
        "id": "AS_Button_6b57b327e242415fbda37625dcf59435",
        "type": "ACTION_SEQUENCE",
        "params": [{
            "datatype": "collection",
            "name": "eventobject"
        }],
        "contextObj": {
            "name": "frmConfirmPayBill",
            "type": "forms",
            "platform": "",
            "KUID": "7edcb6b785704e568d781d83f428fe71"
        },
        "language": "js",
        "actions": [{
            "id": "ADD_SNIPPET__760e3f3ffb8047feadc8047400efc098",
            "type": "ADD_SNIPPET",
            "codeSnippet": "kony.print(\"Removed\");",
            "parentId": null,
            "callbackType": null
        }]
    }
}