{
    "AS_Button_f6ad90f2e4b3446f9c11b108e5040aee": {
        "id": "AS_Button_f6ad90f2e4b3446f9c11b108e5040aee",
        "type": "ACTION_SEQUENCE",
        "params": [{
            "datatype": "collection",
            "name": "eventobject"
        }],
        "language": "js",
        "actions": [{
            "id": "ADD_SNIPPET_ide_onClick_9e80e87e1b9044e0bc6b87197b64ee70",
            "type": "ADD_SNIPPET",
            "codeSnippet": "searchResults();",
            "callbackType": null
        }]
    }
}