{
    "AS_Button_35e89b8de4594a5e8983aa587a7c4109": {
        "id": "AS_Button_35e89b8de4594a5e8983aa587a7c4109",
        "type": "ACTION_SEQUENCE",
        "params": [{
            "datatype": "collection",
            "name": "eventobject"
        }],
        "contextObj": {
            "name": "frmMyMoneyListKA",
            "type": "forms",
            "platform": "",
            "KUID": "4c6f3d4dd57b4bc3a51ee85d32b7cd14"
        },
        "language": "js",
        "actions": [{
            "id": "ADD_SNIPPET__a488bd86b7394043869088af166a27a7",
            "type": "ADD_SNIPPET",
            "codeSnippet": "navigateToUncategorisedList();",
            "parentId": null,
            "callbackType": null
        }]
    }
}