{
    "AS_Button_g367d42e106b463f954721b8e94951f4": {
        "id": "AS_Button_g367d42e106b463f954721b8e94951f4",
        "type": "ACTION_SEQUENCE",
        "params": [{
            "datatype": "collection",
            "name": "eventobject"
        }],
        "language": "js",
        "actions": [{
            "id": "ADD_SNIPPET_ide_onClick_ae0ce20dc7594069a9cb1460db1e5464",
            "type": "ADD_SNIPPET",
            "codeSnippet": "gblEntryFormForSettings = \"Accounts\";\nsubMenuFlag = true;\nfrmSettingsKA.show();",
            "callbackType": null
        }]
    }
}