{
    "AS_Button_b99009d6bdbd445ab4f028102210acff": {
        "id": "AS_Button_b99009d6bdbd445ab4f028102210acff",
        "type": "ACTION_SEQUENCE",
        "params": [{
            "datatype": "collection",
            "name": "eventobject"
        }],
        "language": "js",
        "actions": [{
            "id": "ADD_SNIPPET_ide_onClick_ea33bac850ad4ce39990a0817883e59a",
            "type": "ADD_SNIPPET",
            "codeSnippet": "onConfirmFormEditButtonClick();\n//getTransferPayLandingForm(\"frmNewTransferKA\");\n//frmNewTransferKA.transferPayTitleLabel.text=\"Edit Transfer\";\n//var INSTANCE = kony.sdk.mvvm.KonyApplicationContext.getAppInstance();\n//var listController = INSTANCE.getFormController(\"frmNewTransferKA\");\n//var navObject = new kony.sdk.mvvm.NavigationObject();\n//navObject.setCustomInfo(\"showState\",\"EditLanding\");\n//navObject.setRequestOptions(\"segInternalFromAccountsKA\",{\"headers\":{\"session_token\":kony.retailBanking.globalData.session_token}});\n//listController.performAction(\"navigateTo\",[\"frmNewTransferKA\",navObject]); ",
            "callbackType": null
        }]
    }
}