{
    "AS_Button_88261b2778a4420bb684bbd16f03c7a1": {
        "id": "AS_Button_88261b2778a4420bb684bbd16f03c7a1",
        "type": "ACTION_SEQUENCE",
        "params": [{
            "datatype": "collection",
            "name": "eventobject"
        }],
        "language": "js",
        "actions": [{
            "id": "ADD_SNIPPET_ide_onClick_60fc1268594f4e0aa8949f532071dff3",
            "type": "ADD_SNIPPET",
            "codeSnippet": "editCheckReOrderScreen();",
            "callbackType": null
        }]
    }
}