{
    "AS_Button_ec48c56bb9ca4a53bbec2ee7f953107d": {
        "id": "AS_Button_ec48c56bb9ca4a53bbec2ee7f953107d",
        "type": "ACTION_SEQUENCE",
        "params": [{
            "datatype": "collection",
            "name": "eventobject"
        }],
        "language": "js",
        "actions": [{
            "id": "ADD_SNIPPET_ide_onClick_bac669b59d7242ffbab8fc0d72b565ab",
            "type": "ADD_SNIPPET",
            "codeSnippet": "activeAndroidNav();",
            "callbackType": null
        }]
    }
}