{
    "AS_Button_1415d4d4c03b4c8dbfa3d60d1a810a12": {
        "id": "AS_Button_1415d4d4c03b4c8dbfa3d60d1a810a12",
        "type": "ACTION_SEQUENCE",
        "params": [{
            "datatype": "collection",
            "name": "eventobject"
        }],
        "language": "js",
        "actions": [{
            "id": "ADD_SNIPPET__facde63ff137428686fb09b0d9095470",
            "type": "ADD_SNIPPET",
            "codeSnippet": "kony.print(\"Deleted\");",
            "parentId": null,
            "callbackType": null
        }]
    }
}