{
    "AS_Button_d80529ba2e594c98928a8f87a1aaa4df": {
        "id": "AS_Button_d80529ba2e594c98928a8f87a1aaa4df",
        "type": "ACTION_SEQUENCE",
        "params": [{
            "datatype": "collection",
            "name": "eventobject"
        }],
        "language": "js",
        "actions": [{
            "id": "ADD_SNIPPET_ide_onClick_ca3dffbd75e6420db21bcf094f302a73",
            "type": "ADD_SNIPPET",
            "codeSnippet": "frmJoMoPayLanding.txtSearch.text=\"\";\ngetAllAccounts();",
            "callbackType": null
        }]
    }
}