{
    "AS_Button_d29cad59df624351b1d45bba69830453": {
        "id": "AS_Button_d29cad59df624351b1d45bba69830453",
        "type": "ACTION_SEQUENCE",
        "params": [{
            "datatype": "collection",
            "name": "eventobject"
        }],
        "language": "js",
        "actions": [{
            "id": "ADD_SNIPPET_ide_onClick_b381c3583d984358b70a58afe467970f",
            "type": "ADD_SNIPPET",
            "codeSnippet": "PopupCancelAndReplaceCard.dismiss();",
            "callbackType": null
        }]
    }
}