{
    "AS_Button_hac60c00e8d14eecb5e8a6e5f0c36b36": {
        "id": "AS_Button_hac60c00e8d14eecb5e8a6e5f0c36b36",
        "type": "ACTION_SEQUENCE",
        "params": [{
            "datatype": "collection",
            "name": "eventobject"
        }],
        "language": "js",
        "actions": [{
            "id": "NAVIGATE_TO_FORM__ide_onClick_d4d4c62e112242a9a0347fb400986e7f",
            "type": "NAVIGATE_TO_FORM",
            "formId": "frmUnauthForgotUsernamePasswordStep1KA",
            "formKUID": "54e375c1a90146209699603526a8e7ca",
            "mappings": {},
            "mappingsOrder": [],
            "parentId": "",
            "callbackType": null,
            "enableMappingEditor": true
        }]
    }
}