{
    "AS_Button_fa6147faade649db8f1dacde38bf8c6f": {
        "id": "AS_Button_fa6147faade649db8f1dacde38bf8c6f",
        "type": "ACTION_SEQUENCE",
        "name": "AS_Button_closeCallout",
        "params": [{
            "datatype": "collection",
            "name": "eventobject"
        }],
        "contextObj": {
            "name": "mapATMBranchWithoutLocation",
            "type": "templates",
            "platform": "",
            "KUID": "d9a3f4d131104a4d8e5801b1d2cbb932"
        },
        "language": "js",
        "actions": [{
            "id": "ADD_SNIPPET__a2d0fea1c5b54df6b04c7752db5509c8",
            "type": "ADD_SNIPPET",
            "codeSnippet": "closeCallout();",
            "parentId": null,
            "callbackType": null
        }]
    }
}