{
    "AS_Button_e0ad8a8ca784434ab03180183211c2c6": {
        "id": "AS_Button_e0ad8a8ca784434ab03180183211c2c6",
        "type": "ACTION_SEQUENCE",
        "params": [{
            "datatype": "collection",
            "name": "eventobject"
        }],
        "contextObj": {
            "name": "frmAccountDetailKA",
            "type": "forms",
            "platform": "",
            "KUID": "5ed703cad63c441882fc4a36f5ea0c28"
        },
        "language": "js",
        "actions": [{
            "id": "ADD_SNIPPET__c8ada3fb824a4a489396555c2412b363",
            "type": "ADD_SNIPPET",
            "codeSnippet": "kony.print(\"Asdasdas\");",
            "parentId": null,
            "callbackType": null
        }]
    }
}