{
    "AS_Button_d890a5cd82024dd0af366bf0e7febe70": {
        "id": "AS_Button_d890a5cd82024dd0af366bf0e7febe70",
        "type": "ACTION_SEQUENCE",
        "params": [{
            "datatype": "collection",
            "name": "eventobject"
        }],
        "contextObj": {
            "name": "frmConfirmP2PRegistrationKA",
            "type": "forms",
            "platform": null,
            "KUID": "j3748976af8941aa993b14b2d72a60b1"
        },
        "language": "js",
        "actions": [{
            "id": "ADD_SNIPPET__edee338be32244bd9e853ecb12946bb6",
            "type": "ADD_SNIPPET",
            "codeSnippet": "var vc=applicationManager.getfrmConfirmP2PRegistrationViewController();\nvc.onClickOfCancel();\n",
            "parentId": null,
            "callbackType": null
        }]
    }
}