{
    "AS_Button_c8125c493ae84f6e957f9f62347e6804": {
        "id": "AS_Button_c8125c493ae84f6e957f9f62347e6804",
        "type": "ACTION_SEQUENCE",
        "params": [{
            "datatype": "collection",
            "name": "eventobject"
        }],
        "language": "js",
        "actions": [{
            "id": "ADD_SNIPPET_ide_onClick_ce150133de1547f68ec163804019ca33",
            "type": "ADD_SNIPPET",
            "codeSnippet": "frmPaymentDashboard.show();",
            "callbackType": null
        }]
    }
}