{
    "AS_Button_bbbbeaa100c743cd977265b6803830fb": {
        "id": "AS_Button_bbbbeaa100c743cd977265b6803830fb",
        "type": "ACTION_SEQUENCE",
        "params": [{
            "datatype": "collection",
            "name": "eventobject"
        }],
        "contextObj": {
            "name": "frmNewUserCameraActionKA",
            "type": "forms",
            "platform": null,
            "KUID": "c93d766ce16743fc979b2a247c8db394"
        },
        "language": "js",
        "actions": [{
            "id": "ADD_SNIPPET__f6cc6ba8f94143b084096b3d5cc129a4",
            "type": "ADD_SNIPPET",
            "codeSnippet": "kony.print(\"Deleted\");",
            "parentId": null,
            "callbackType": null
        }]
    }
}