{
    "AS_Button_ie619cafbef849e7952dbb582b29a282": {
        "id": "AS_Button_ie619cafbef849e7952dbb582b29a282",
        "type": "ACTION_SEQUENCE",
        "params": [{
            "datatype": "collection",
            "name": "eventobject"
        }],
        "contextObj": {
            "name": "frmNewCashCollectorKA",
            "type": "forms",
            "platform": "",
            "KUID": "c1ec9b0a2635465caf9f94d22caae9f7"
        },
        "language": "js",
        "actions": [{
            "id": "ADD_SNIPPET__i907a9b3c7f942a3b582e72bf780f3c4",
            "type": "ADD_SNIPPET",
            "codeSnippet": "kony.print(\"Deleted\");",
            "parentId": null,
            "callbackType": null
        }]
    }
}