{
    "AS_Button_fae2e9ec70df4e69983ee3211f847d10": {
        "id": "AS_Button_fae2e9ec70df4e69983ee3211f847d10",
        "type": "ACTION_SEQUENCE",
        "params": [{
            "datatype": "collection",
            "name": "eventobject"
        }],
        "language": "js",
        "actions": [{
            "id": "ADD_SNIPPET_ide_onClick_fa1fa60b15a64dfb8289b88e2738b150",
            "type": "ADD_SNIPPET",
            "codeSnippet": "activeAndroidNav();",
            "callbackType": null
        }]
    }
}