{
    "AS_Button_a4f30c0f1c644c61a4076f0092745f1e": {
        "id": "AS_Button_a4f30c0f1c644c61a4076f0092745f1e",
        "type": "ACTION_SEQUENCE",
        "params": [{
            "datatype": "collection",
            "name": "eventobject"
        }],
        "language": "js",
        "actions": [{
            "id": "ADD_SNIPPET_ide_onClick_hc06e797b6c442028ec383fea1c5f41a",
            "type": "ADD_SNIPPET",
            "codeSnippet": "if(frmJoMoPay.btnNext.skin==\"jomopaynextEnabled\")\n{\n if(kony.sdk.isNetworkAvailable())\n  { \n kony.application.showLoadingScreen(null, \"\", constants.LOADING_SCREEN_POSITION_ONLY_CENTER, true, true, null);\nfrmJoMoPayConfirmation.lblTransferType.text=frmJoMoPay.lblTransferType.text;\nfrmJoMoPayConfirmation.lblAccountType.text=frmJoMoPay.lblAccountType.text+\" \"+frmJoMoPay.lblAccountCode.text;\nfrmJoMoPayConfirmation.lblType.text=frmJoMoPay.lblType.text;\n   // var amount = Number.parseFloat(frmJoMoPay.txtFieldAmount.text).toFixed(3);\nfrmJoMoPayConfirmation.lblAmount.text=frmJoMoPay.txtFieldAmount.text;\n  if(frmJoMoPay.lblType.text==\"Mobile Number\")\n    {\n      frmJoMoPayConfirmation.btnProfilePhoto.skin=\"sknbtnProfileMobile\";\n       frmJoMoPayConfirmation.btnProfilePhoto.focusSkin=\"sknbtnProfileMobile\";\n      frmJoMoPayConfirmation.btnProfilePhoto.text=\"F\";\nfrmJoMoPayConfirmation.lblPhoneNo.text=frmJoMoPay.txtPhoneNo.text;\n    }\n  else\n    {\n          var Name = frmJoMoPay.txtAliasDetail.text;\n          var splittedName = Name.split(\" \");\n      \t  if(splittedName.length==2)\n            {\n          var shortName = splittedName[0][0] + splittedName[1][0];\n            }\n      \telse\n          {\t\n            if(splittedName[0].length>1)\n            var shortName = splittedName[0][0] + splittedName[0][1];\n            else\n               var shortName = splittedName[0][0];\n          }\n          shortName = shortName.toUpperCase();\nfrmJoMoPayConfirmation.lblPhoneNo.text=frmJoMoPay.txtAliasDetail.text;\n     frmJoMoPayConfirmation.btnProfilePhoto.skin=\"sknbtnProfileAlias\";\n      frmJoMoPayConfirmation.btnProfilePhoto.focusSkin=\"sknbtnProfileAlias\";\n      frmJoMoPayConfirmation.btnProfilePhoto.text=shortName;\n    }\n     kony.boj.getJomopayFee();\n     \n}\n  else\n  {\n kony.sdk.mvvm.KonyApplicationContext.dismissLoadingScreen();\n        customAlertPopup(\"\", kony.i18n.getLocalizedString(\"i18n.errorMsg.deviceConnectionError\"), popupCommonAlertDimiss, \"\");\n  }\n}\nelse\n  {\n    kony.print(\"All details are not filled\");\n  }",
            "callbackType": null
        }]
    }
}