{
    "AS_Button_jdb54ad4e1894d49838ac02851d1563f": {
        "id": "AS_Button_jdb54ad4e1894d49838ac02851d1563f",
        "type": "ACTION_SEQUENCE",
        "params": [{
            "datatype": "collection",
            "name": "eventobject"
        }],
        "contextObj": {
            "KUID": "a7af44ce35e44a7ea6c9516ec3bff4eb",
            "platform": "",
            "type": "forms"
        },
        "language": "js",
        "actions": [{
            "id": "ADD_SNIPPET__dd86867aac64473ba99fdbedd74a22df",
            "type": "ADD_SNIPPET",
            "codeSnippet": "frmEPS.btnMobile.skin = sknOrangeBGRNDBOJ;\nfrmEPS.btnEmail.skin = slButtonBlueFocus;\nfrmEPS.btntext.skin = slButtonBlueFocus;",
            "parentId": null,
            "callbackType": null
        }]
    }
}