{
    "AS_Button_b978bc73031f4deab8675fa0ce6925c4": {
        "id": "AS_Button_b978bc73031f4deab8675fa0ce6925c4",
        "type": "ACTION_SEQUENCE",
        "name": "AS_Button_stopCardSubmissionaction",
        "params": [{
            "datatype": "collection",
            "name": "eventobject"
        }],
        "language": "js",
        "actions": [{
            "id": "ADD_SNIPPET_ide_onClick_f644b2c7d1414dcd91fd8a972a19c6a3",
            "type": "ADD_SNIPPET",
            "codeSnippet": "//stopCardSubmit();\ninvokeStopCardService();"
        }]
    }
}