{
    "AS_Button_bf1368cb6cf340dc9fbb41805bbddc50": {
        "id": "AS_Button_bf1368cb6cf340dc9fbb41805bbddc50",
        "type": "ACTION_SEQUENCE",
        "params": [{
            "datatype": "collection",
            "name": "eventobject"
        }],
        "language": "js",
        "actions": [{
            "id": "ADD_SNIPPET_ide_onClick_a2e9f9209cda4055a2c1bfd7a4ce9cd3",
            "type": "ADD_SNIPPET",
            "codeSnippet": "frmPaymentDashboard.show();",
            "callbackType": null
        }]
    }
}