{
    "AS_Button_d346385a5e8b43c0a65b6199f8a3606a": {
        "id": "AS_Button_d346385a5e8b43c0a65b6199f8a3606a",
        "type": "ACTION_SEQUENCE",
        "params": [{
            "datatype": "collection",
            "name": "eventobject"
        }],
        "contextObj": {
            "name": "frmNewSubAccountConfirm",
            "type": "forms",
            "platform": "",
            "KUID": "had87411f0e7475b88178a427b6e7299"
        },
        "language": "js",
        "actions": [{
            "id": "ADD_SNIPPET__cba16d3c90f5443a86f0fd6a3ca689da",
            "type": "ADD_SNIPPET",
            "codeSnippet": "PreCallFrmRequestPinCard();",
            "parentId": null,
            "callbackType": null
        }]
    }
}