{
    "AS_Button_099bf61b93ef41c3bff1bf1bd00ec1f8": {
        "id": "AS_Button_099bf61b93ef41c3bff1bf1bd00ec1f8",
        "type": "ACTION_SEQUENCE",
        "params": [{
            "datatype": "collection",
            "name": "eventobject"
        }],
        "language": "js",
        "actions": [{
            "id": "ADD_SNIPPET_ide_onClick_4ca821d5272a4f0ca0c4908c36756c1f",
            "type": "ADD_SNIPPET",
            "codeSnippet": "var INSTANCE = kony.sdk.mvvm.KonyApplicationContext.getAppInstance();\n        var listController = INSTANCE.getFormController(\"frmAddNewPayeeKA\");\n        var navigationObject = new kony.sdk.mvvm.NavigationObject();\n        var datamodelflxAddressKA = new kony.sdk.mvvm.DataModel();\n        navigationObject.setDataModel(null,kony.sdk.mvvm.OperationType.ADD, \"form\");\n        navigationObject.setRequestOptions(\"form\",{\"headers\":{\"session_token\":kony.retailBanking.globalData.session_token}});\n        \n        listController.performAction(\"navigateTo\",[\"frmAddNewPayeeKA\",navigationObject]);",
            "callbackType": null
        }]
    }
}