{
    "AS_Button_fca20b95d649462091b45ee6a68a0f6a": {
        "id": "AS_Button_fca20b95d649462091b45ee6a68a0f6a",
        "type": "ACTION_SEQUENCE",
        "name": "AS_Button_CardCancelClose",
        "params": [{
            "datatype": "collection",
            "name": "eventobject"
        }],
        "language": "js",
        "actions": [{
            "id": "ADD_SNIPPET_ide_onClick_a5f0c6b8f2b54fe786aca03b7524b46a",
            "type": "ADD_SNIPPET",
            "codeSnippet": "frmManageCardsKA.show();",
            "callbackType": null
        }]
    }
}