{
    "AS_Label_eef163aeeaec492fb08d8009c75c5d53": {
        "id": "AS_Label_eef163aeeaec492fb08d8009c75c5d53",
        "type": "ACTION_SEQUENCE",
        "name": "AS_backspace",
        "params": [{
            "datatype": "collection",
            "name": "eventobject"
        }, {
            "datatype": "string",
            "name": "x"
        }, {
            "datatype": "string",
            "name": "y"
        }],
        "contextObj": {
            "name": "frmRegisterUser",
            "type": "forms",
            "platform": "",
            "KUID": "cd7432ec5087404590338186c94e35d2"
        },
        "language": "js",
        "actions": [{
            "id": "ADD_SNIPPET__h249c0f5a9944278bb61044dce6750dc",
            "type": "ADD_SNIPPET",
            "codeSnippet": "backspace(\"txtCardNum\");\nfrmRegisterUser.lblClose.setVisibility(false);\nisNextEnabled();",
            "parentId": null,
            "callbackType": null
        }]
    }
}