{
    "AS_Button_d3e393accbca4a2888ade40c48e70a00": {
        "id": "AS_Button_d3e393accbca4a2888ade40c48e70a00",
        "type": "ACTION_SEQUENCE",
        "params": [{
            "datatype": "collection",
            "name": "eventobject"
        }],
        "language": "js",
        "actions": [{
            "id": "ADD_SNIPPET_ide_onClick_gf271f6bc9594562834e7ee3d3d49586",
            "type": "ADD_SNIPPET",
            "codeSnippet": "frmJoMoPay.show();",
            "callbackType": null
        }]
    }
}