{
    "AS_Button_eb22cd9df906421ea389c5ac36a5855c": {
        "id": "AS_Button_eb22cd9df906421ea389c5ac36a5855c",
        "type": "ACTION_SEQUENCE",
        "params": [{
            "datatype": "collection",
            "name": "eventobject"
        }],
        "language": "js",
        "actions": [{
            "id": "ADD_SNIPPET_ide_onClick_aea36a79afc24486ac82e50a8b16e3a5",
            "type": "ADD_SNIPPET",
            "codeSnippet": "var fromAccounts = kony.retailBanking.globalData.accountsDashboardData.accountsData;\ngblTModule=\"jomo\";\nkony.boj.accounttype(fromAccounts,gblTModule);\n//frmJoMoPay.flxPopupOuter.setVisibility(true);",
            "callbackType": null
        }]
    }
}