{
    "AS_Button_b33522cb78f9484fa409bc04460e2a7d": {
        "id": "AS_Button_b33522cb78f9484fa409bc04460e2a7d",
        "type": "ACTION_SEQUENCE",
        "params": [{
            "datatype": "collection",
            "name": "eventobject"
        }],
        "contextObj": {
            "name": "frmConfirmDepositKA",
            "type": "forms",
            "platform": "",
            "KUID": "422237ff93274fe59fc6163e5e1f62cd"
        },
        "language": "js",
        "actions": [{
            "id": "ADD_SNIPPET__dea68a4a3a7a46b2a1b8ecc80ce2cd0b",
            "type": "ADD_SNIPPET",
            "codeSnippet": "kony.print(\"deleted\");",
            "parentId": null,
            "callbackType": null
        }]
    }
}