{
    "AS_Button_ec684d1f2c804687bb5cb3d56775b0ee": {
        "id": "AS_Button_ec684d1f2c804687bb5cb3d56775b0ee",
        "type": "ACTION_SEQUENCE",
        "name": "AS_Button_onClickConfirmEditJomopayBene",
        "params": [{
            "datatype": "collection",
            "name": "eventobject"
        }],
        "contextObj": {
            "name": "frmJOMOPayAddBiller",
            "type": "forms",
            "platform": "",
            "KUID": "df7e7935cb6a4e5c8a9dad110f300c3c"
        },
        "language": "js",
        "actions": [{
            "id": "ADD_SNIPPET__cdf3efd289874cec8ac7bfaefb315195",
            "type": "ADD_SNIPPET",
            "codeSnippet": "serv_UPDATE_JOMOPAY_BENEFICIARY_DETAILS();",
            "parentId": null,
            "callbackType": null
        }]
    }
}