{
    "AS_Button_j0446ba9d958486385caf7565e3dcf6a": {
        "id": "AS_Button_j0446ba9d958486385caf7565e3dcf6a",
        "type": "ACTION_SEQUENCE",
        "params": [{
            "datatype": "collection",
            "name": "eventobject"
        }],
        "language": "js",
        "actions": [{
            "id": "ADD_SNIPPET_ide_onClick_a4df98bc020d4b40815b650da3b87bbc",
            "type": "ADD_SNIPPET",
            "codeSnippet": "glbJmpFlow = \"Update\";\ncall_serv_getjomoppayregdata();\n//resetJomoPayRegistationSaveData();",
            "callbackType": null
        }]
    }
}