{
    "AS_Button_85302f24a2b34708962f7077471a1cb0": {
        "id": "AS_Button_85302f24a2b34708962f7077471a1cb0",
        "type": "ACTION_SEQUENCE",
        "params": [{
            "datatype": "collection",
            "name": "eventobject"
        }],
        "language": "js",
        "actions": [{
            "id": "ADD_SNIPPET_ide_onClick_b651a5277dbe4b9cad79cffa0ddde976",
            "type": "ADD_SNIPPET",
            "codeSnippet": "kony.application.getPreviousForm().show();",
            "callbackType": null
        }]
    }
}