{
    "AS_FlexContainer_fccb24234e7546d18883a824e4129214": {
        "id": "AS_FlexContainer_fccb24234e7546d18883a824e4129214",
        "type": "ACTION_SEQUENCE",
        "name": "AS_CardsSettingsOnClick",
        "params": [{
            "datatype": "collection",
            "name": "eventobject"
        }],
        "language": "js",
        "actions": [{
            "id": "ADD_SNIPPET_ide_onClick_hf3b072ec4c4424db66bd11c1f11fe82",
            "type": "ADD_SNIPPET",
            "codeSnippet": "gblCardAddNickname = true;\n gblCardReorder = false;\ngetDataforCardsReOrder();",
            "callbackType": null
        }]
    }
}