{
    "AS_Calendar_b875b06ed8034ec7bf6f78f1bb545817": {
        "id": "AS_Calendar_b875b06ed8034ec7bf6f78f1bb545817",
        "type": "ACTION_SEQUENCE",
        "name": "AS_Calendar_onTouchStartEffictiveDateOpenDeposit",
        "params": [{
            "datatype": "collection",
            "name": "eventobject"
        }, {
            "datatype": "string",
            "name": "x"
        }, {
            "datatype": "string",
            "name": "y"
        }],
        "contextObj": {
            "name": "frmOpenTermDeposit",
            "type": "forms",
            "platform": "",
            "KUID": "fec6fddbcf8543f2b30114c87e1a7e99"
        },
        "language": "js",
        "actions": [{
            "id": "ADD_SNIPPET__cf79c5b02a0440bdae0fab1cdf7ea134",
            "type": "ADD_SNIPPET",
            "codeSnippet": "var caldate = new Date();\nfrmOpenTermDeposit.calOpenDeposite.validStartDate=[caldate.getDate()+1,caldate.getMonth()+1,caldate.getFullYear()];",
            "parentId": null,
            "callbackType": null
        }]
    }
}