{
    "AS_FlexContainer_e24f414930d2414da8393909a11202cc": {
        "id": "AS_FlexContainer_e24f414930d2414da8393909a11202cc",
        "type": "ACTION_SEQUENCE",
        "params": [{
            "datatype": "collection",
            "name": "eventobject"
        }],
        "contextObj": {
            "name": "frmCardsAddNickname",
            "type": "forms",
            "platform": null,
            "KUID": "d382c627ba0b45cfb446cc6dd8d8759e"
        },
        "language": "js",
        "actions": [{
            "id": "ADD_SNIPPET_ide_onClick_b61411d33cf84ae08bfcdbcab5466641",
            "type": "ADD_SNIPPET",
            "codeSnippet": "frmEditAccountSettings.flxeStatmentSwitchOn.isVisible = true;\nfrmEditAccountSettings.flxeStatmentSwitchOff.isVisible = false;\n\n\n"
        }]
    }
}