{
    "AS_FlexScrollContainer_dd5378d39efa433296b918902e8262b4": {
        "id": "AS_FlexScrollContainer_dd5378d39efa433296b918902e8262b4",
        "type": "ACTION_SEQUENCE",
        "params": [{
            "datatype": "collection",
            "name": "eventobject"
        }],
        "language": "js",
        "actions": [{
            "id": "ADD_SNIPPET_ide_onScrolling_gb6ad8a749284386a906a51fb4e6a62f",
            "type": "ADD_SNIPPET",
            "codeSnippet": " insightsPaging();",
            "callbackType": null
        }]
    }
}