{
    "AS_FlexContainer_befaef06ed01478c89b2df1e21addc7e": {
        "id": "AS_FlexContainer_befaef06ed01478c89b2df1e21addc7e",
        "type": "ACTION_SEQUENCE",
        "name": "AS_FlexContainer_accNew",
        "params": [{
            "datatype": "collection",
            "name": "eventobject"
        }],
        "contextObj": {
            "name": "frmAuthorizationAlternatives",
            "type": "forms",
            "platform": "",
            "KUID": "d410b4cb8325465eb5a9cb0f8e472aec"
        },
        "language": "js",
        "actions": [{
            "id": "ADD_SNIPPET__f796640bd85a42dbacc6190de5902350",
            "type": "ADD_SNIPPET",
            "codeSnippet": "//accountDashboardDataCall();\n",
            "parentId": null,
            "callbackType": null
        }]
    }
}