{
    "AS_Form_61a0ecc12bcf4aa8875c2da0d372b600": {
        "id": "AS_Form_61a0ecc12bcf4aa8875c2da0d372b600",
        "type": "ACTION_SEQUENCE",
        "params": [{
            "datatype": "collection",
            "name": "eventobject"
        }],
        "contextObj": {
            "name": "frmDirectionsKA",
            "type": "forms",
            "platform": "",
            "KUID": "2a844aaae75b49948039c6e28c65dfcc"
        },
        "language": "js",
        "actions": [{
            "id": "ADD_SNIPPET__2ad21a5891cb4e56933cc4897c0734b1",
            "type": "ADD_SNIPPET",
            "codeSnippet": "locatorInit();",
            "parentId": null,
            "callbackType": null
        }]
    }
}