{
    "AS_FlexContainer_eec4fe65033d4851ae9e04a009270cbc": {
        "id": "AS_FlexContainer_eec4fe65033d4851ae9e04a009270cbc",
        "type": "ACTION_SEQUENCE",
        "params": [{
            "datatype": "collection",
            "name": "eventobject"
        }],
        "contextObj": {
            "name": "frmCardsAddNickname",
            "type": "forms",
            "platform": null,
            "KUID": "d382c627ba0b45cfb446cc6dd8d8759e"
        },
        "language": "js",
        "actions": [{
            "id": "ADD_SNIPPET_ide_onClick_ef0e73e0aabd48afb5015ca9eb3dd291",
            "type": "ADD_SNIPPET",
            "codeSnippet": "frmEditAccountSettings.flxDefaultPaymentSwitchOff.isVisible = true;\nfrmEditAccountSettings.flxDefaultPaymentSwitchOn.isVisible = false;\n"
        }]
    }
}