{
    "AS_FlexContainer_f239d821dd3d420ebba6d2fb5c2fc73a": {
        "id": "AS_FlexContainer_f239d821dd3d420ebba6d2fb5c2fc73a",
        "type": "ACTION_SEQUENCE",
        "params": [{
            "datatype": "collection",
            "name": "eventobject"
        }],
        "language": "js",
        "actions": [{
            "id": "ADD_SNIPPET_ide_onClick_aff417c0e61845efa5b0a8a135abb309",
            "type": "ADD_SNIPPET",
            "codeSnippet": "gblfrmName = \"\";\nadditionalValidationRdc(this,gotoDeposits);\n",
            "callbackType": null
        }]
    }
}