{
    "AS_FlexContainer_f188be557d9542c99caf381cf602efae": {
        "id": "AS_FlexContainer_f188be557d9542c99caf381cf602efae",
        "type": "ACTION_SEQUENCE",
        "params": [{
            "datatype": "collection",
            "name": "eventobject"
        }],
        "language": "js",
        "actions": [{
            "id": "ADD_SNIPPET_ide_onClick_j09e13a68ed64e68a4c0fa469487809d",
            "type": "ADD_SNIPPET",
            "codeSnippet": "kony.print(\"Removed\");",
            "callbackType": null
        }]
    }
}