{
    "AS_Form_a2f3e90bc62941918d366894292146e6": {
        "id": "AS_Form_a2f3e90bc62941918d366894292146e6",
        "type": "ACTION_SEQUENCE",
        "name": "AS_Form_a2f3e90bc62941918d366894292146e6",
        "params": [{
            "datatype": "collection",
            "name": "eventobject"
        }],
        "contextObj": {
            "name": "frmLoginAuthSuccessKA",
            "type": "forms",
            "platform": "",
            "KUID": "fdd59a96c4c04dc7a5156b603b7d52c6"
        },
        "language": "js",
        "actions": [{
            "id": "ADD_SNIPPET__bf14ee432f1e4f548c4155a043e4e46c",
            "type": "ADD_SNIPPET",
            "codeSnippet": "defaultLoginPreshow(frmLoginAuthSuccessKA);",
            "parentId": null,
            "callbackType": null
        }]
    }
}