{
    "AS_FlexContainer_j59f4053cd4b49008c1a3fd6e4b0889a": {
        "id": "AS_FlexContainer_j59f4053cd4b49008c1a3fd6e4b0889a",
        "type": "ACTION_SEQUENCE",
        "name": "AS_FlexContainer_accountTransferSwitchOff",
        "params": [{
            "datatype": "collection",
            "name": "eventobject"
        }],
        "contextObj": {
            "name": "frmEditAccountSettings",
            "type": "forms",
            "platform": "",
            "KUID": "ace74a42ca5e45cabde3f7b9d6361bd8"
        },
        "language": "js",
        "actions": [{
            "id": "ADD_SNIPPET__gf3e133b4ac045089ca630201d56cfcd",
            "type": "ADD_SNIPPET",
            "codeSnippet": "frmEditAccountSettings.flxAccountTransferSwitchOn.isVisible = true;\nfrmEditAccountSettings.flxAccountTransferSwitchOff.isVisible = false;\n",
            "parentId": null
        }]
    }
}