{
    "AS_FlexContainer_g67a101fcd5a45f4b963490f44e9aec7": {
        "id": "AS_FlexContainer_g67a101fcd5a45f4b963490f44e9aec7",
        "type": "ACTION_SEQUENCE",
        "params": [{
            "datatype": "collection",
            "name": "eventobject"
        }],
        "contextObj": {
            "name": "frmSelectBankName",
            "type": "forms",
            "platform": "",
            "KUID": "c2d9b967cf1c4963b04c284e17237946"
        },
        "language": "js",
        "actions": []
    }
}