{
    "AS_FlexContainer_cd9b4f37323a43c0a70f270add0e659e": {
        "id": "AS_FlexContainer_cd9b4f37323a43c0a70f270add0e659e",
        "type": "ACTION_SEQUENCE",
        "params": [{
            "datatype": "collection",
            "name": "eventobject"
        }],
        "language": "js",
        "actions": [{
            "id": "ADD_SNIPPET_ide_onClick_ee611e3c27b9412f98f6c57a9796791f",
            "type": "ADD_SNIPPET",
            "codeSnippet": "updateDealsAlertStatus(\"newDealsAvailable\");",
            "callbackType": null
        }]
    }
}