{
    "AS_FlexContainer_h80d9d24dc214e9d977390bd6b6f9d96": {
        "id": "AS_FlexContainer_h80d9d24dc214e9d977390bd6b6f9d96",
        "type": "ACTION_SEQUENCE",
        "params": [{
            "datatype": "collection",
            "name": "eventobject"
        }],
        "language": "js",
        "actions": [{
            "id": "ADD_SNIPPET_ide_onClick_c9564095255143489b3ca9d6d61c1972",
            "type": "ADD_SNIPPET",
            "codeSnippet": "setSegmentData(\"frmAccountsLandingKA\");\nfrmAccountsLandingKA.flxAccntLandingNavOptKA.isVisible=true;",
            "callbackType": null
        }]
    }
}