{
    "AS_FlexScrollContainer_efe77d0654d24333be80228d9b22aadb": {
        "id": "AS_FlexScrollContainer_efe77d0654d24333be80228d9b22aadb",
        "type": "ACTION_SEQUENCE",
        "params": [{
            "datatype": "collection",
            "name": "eventobject"
        }],
        "language": "js",
        "actions": [{
            "id": "ADD_SNIPPET_ide_onScrolling_e807e1976a7140258f41e36120deebaf",
            "type": "ADD_SNIPPET",
            "codeSnippet": "outerAccountScroll();",
            "callbackType": null
        }]
    }
}