{
    "AS_FlexContainer_b38bad40db3b44629a3388065d05b0c4": {
        "id": "AS_FlexContainer_b38bad40db3b44629a3388065d05b0c4",
        "type": "ACTION_SEQUENCE",
        "params": [{
            "datatype": "collection",
            "name": "eventobject"
        }],
        "language": "js",
        "actions": [{
            "id": "ADD_SNIPPET_ide_onClick_a3b6897d0b644b0285ad04381f2c2ce3",
            "type": "ADD_SNIPPET",
            "codeSnippet": "frmAccountsLandingKA.flxAccntLandingNavOptKA.isVisible=false;",
            "callbackType": null
        }]
    }
}