{
    "AS_Form_f84fcadef7984bfd97970b3ce472216d": {
        "id": "AS_Form_f84fcadef7984bfd97970b3ce472216d",
        "type": "ACTION_SEQUENCE",
        "params": [{
            "datatype": "collection",
            "name": "eventobject"
        }],
        "contextObj": {
            "name": "frmCardsListPreferences",
            "type": "forms",
            "platform": null,
            "KUID": "gbc93386725a4f228cae50ca2122b7bb"
        },
        "language": "js",
        "actions": [{
            "id": "ADD_SNIPPET_ide_onDeviceBack_fe1cf377f8054634a0baf63522f39696",
            "type": "ADD_SNIPPET",
            "codeSnippet": "gblCardReorder = false;\ngblCardAddNickname = false;\nfrmSettingsKA.show();",
            "callbackType": null
        }]
    }
}