{
    "AS_FlexContainer_ad49c2596b0f4255840ebcb9aaf07c54": {
        "id": "AS_FlexContainer_ad49c2596b0f4255840ebcb9aaf07c54",
        "type": "ACTION_SEQUENCE",
        "params": [{
            "datatype": "collection",
            "name": "eventobject"
        }],
        "contextObj": {
            "name": "frmProductBundle",
            "type": "forms",
            "platform": null,
            "KUID": "c9f1a22e807c45e29c7075a20485a984"
        },
        "language": "js",
        "actions": [{
            "id": "ADD_SNIPPET_ide_onClick_f9245b42e18b432eb6e457142390875a",
            "type": "ADD_SNIPPET",
            "codeSnippet": "previous_FORM.show();\nfrmTermsAndCondtions.destroy();\nprevious_FORM = null;",
            "callbackType": null
        }]
    }
}