{
    "AS_FlexScrollContainer_j36edda5c3cf465d8923b8616e111b15": {
        "id": "AS_FlexScrollContainer_j36edda5c3cf465d8923b8616e111b15",
        "type": "ACTION_SEQUENCE",
        "params": [{
            "datatype": "collection",
            "name": "eventobject"
        }],
        "language": "js",
        "actions": [{
            "id": "ADD_SNIPPET_ide_onScrolling_f323130373f3400391809497761698b6",
            "type": "ADD_SNIPPET",
            "codeSnippet": "innerAccountScroll();",
            "callbackType": null
        }]
    }
}