{
    "AS_FlexContainer_h44b11dcbd1a41dc9492547839cd0e85": {
        "id": "AS_FlexContainer_h44b11dcbd1a41dc9492547839cd0e85",
        "type": "ACTION_SEQUENCE",
        "params": [{
            "datatype": "collection",
            "name": "eventobject"
        }],
        "contextObj": {
            "name": "frmCheckingJoint",
            "type": "forms",
            "platform": "",
            "KUID": "b0246be9d9aa4f7a97eafdd44842ffb2"
        },
        "language": "js",
        "actions": [{
            "id": "ADD_SNIPPET__bd7d6f9a34e244bba473a7e817a513f9",
            "type": "ADD_SNIPPET",
            "codeSnippet": "kony.print(\"deleted\");",
            "parentId": null,
            "callbackType": null
        }]
    }
}