{
    "AS_Form_f9d0266c60414f0e970c30c8481cb970": {
        "id": "AS_Form_f9d0266c60414f0e970c30c8481cb970",
        "type": "ACTION_SEQUENCE",
        "params": [{
            "datatype": "collection",
            "name": "eventobject"
        }],
        "contextObj": {
            "name": "frmDirectionsKA",
            "type": "forms",
            "platform": null,
            "KUID": "2a844aaae75b49948039c6e28c65dfcc"
        },
        "language": "js",
        "actions": [{
            "id": "ADD_SNIPPET__97842aa7542247beb80ebc2a567fabc4",
            "type": "ADD_SNIPPET",
            "codeSnippet": "directionPreShow();"
        }]
    }
}