{
    "AS_FlexContainer_b1bc3fea4699490599984103f594425d": {
        "id": "AS_FlexContainer_b1bc3fea4699490599984103f594425d",
        "type": "ACTION_SEQUENCE",
        "params": [{
            "datatype": "collection",
            "name": "eventobject"
        }],
        "language": "js",
        "actions": [{
            "id": "ADD_SNIPPET_ide_onClick_0cc49fe907a04a6daae200e62fd6a08a",
            "type": "ADD_SNIPPET",
            "codeSnippet": "updateSecurityAletStatus(\"passwordChange\");",
            "callbackType": null
        }]
    }
}