{
    "AS_Form_a1b411b9737e417f8bdfcacd3d97ba1b": {
        "id": "AS_Form_a1b411b9737e417f8bdfcacd3d97ba1b",
        "type": "ACTION_SEQUENCE",
        "params": [{
            "datatype": "collection",
            "name": "eventobject"
        }],
        "contextObj": {
            "name": "frmConfirmCashWithDrawQRCodeKA",
            "type": "forms",
            "platform": null,
            "KUID": "ded4b5c79a094fb6a00d414ebe133610"
        },
        "language": "js",
        "actions": [{
            "id": "ADD_SNIPPET_ide_preShow_idca9e3083ae49449d652b23e3db9cda",
            "type": "ADD_SNIPPET",
            "codeSnippet": "var vc = new kony.rb.frmConfirmCashWithDrawQRCodeKAViewController();\nvc.frmConfirmCashWithDrawQRCodeKApreshow();\n",
            "callbackType": null
        }]
    }
}