{
    "AS_Form_f106cfb3e9424eb697659cecb9b86068": {
        "id": "AS_Form_f106cfb3e9424eb697659cecb9b86068",
        "type": "ACTION_SEQUENCE",
        "name": "AS_Form_morePostshow",
        "params": [{
            "datatype": "collection",
            "name": "eventobject"
        }],
        "contextObj": {
            "name": "frmMore",
            "type": "forms",
            "platform": "",
            "KUID": "d84431c3625d480e87968404e4325341"
        },
        "language": "js",
        "actions": [{
            "id": "ADD_SNIPPET__efb4e48fa7094a06847f7ee8fd1271df",
            "type": "ADD_SNIPPET",
            "codeSnippet": "releaseLocatorGlobals();\ngblCalculateFXLeft = false;\ngblCalculateFXRight = false;\ngblExchangeRatesFlag = false;\nfrmInformationKA.destroy();",
            "parentId": null,
            "callbackType": null
        }]
    }
}