{
    "AS_FlexContainer_d1c3d3fd78e244b2b46674dd96620650": {
        "id": "AS_FlexContainer_d1c3d3fd78e244b2b46674dd96620650",
        "type": "ACTION_SEQUENCE",
        "params": [{
            "datatype": "collection",
            "name": "eventobject"
        }],
        "contextObj": {
            "name": "frmStandingInstructions",
            "type": "forms",
            "platform": "",
            "KUID": "cf89335dd93d4b46a77376646c7657ea"
        },
        "language": "js",
        "actions": [{
            "id": "ADD_SNIPPET__a1c19f60e2bb4657a18728bd367fc877",
            "type": "ADD_SNIPPET",
            "codeSnippet": "frmPaymentDashboard.show();\nfrmStandingInstructions.flxAccountDetailsSort.top = \"5%\"",
            "parentId": null,
            "callbackType": null
        }]
    }
}