{
    "AS_FlexContainer_b70ab343f2154834a459e23563641473": {
        "id": "AS_FlexContainer_b70ab343f2154834a459e23563641473",
        "type": "ACTION_SEQUENCE",
        "name": "AS_FlexContainer_LandingDashboard",
        "params": [{
            "datatype": "collection",
            "name": "eventobject"
        }, {
            "datatype": "collection",
            "name": "context"
        }],
        "contextObj": {
            "name": "tmpAccountLandingKA",
            "type": "templates",
            "platform": "",
            "KUID": "d6ec8423e4fc4a0ea9253aafc6a0dd46"
        },
        "language": "js",
        "actions": [{
            "id": "INVOKE_FUNCTION___bc084e2490824f8ead9d822416bc3edc",
            "type": "INVOKE_FUNCTION",
            "sequenceKUID": "onheaderDashboard",
            "display": "onheaderDashboard",
            "inputparams": [{
                "name": "data",
                "value": " eventobject"
            }, {
                "name": "context",
                "value": " context"
            }],
            "parentId": null,
            "disabled": null,
            "source": "module"
        }]
    }
}