{
    "AS_FlexContainer_53011a6c48e6463d954800a8a9f43356": {
        "id": "AS_FlexContainer_53011a6c48e6463d954800a8a9f43356",
        "type": "ACTION_SEQUENCE",
        "params": [{
            "datatype": "collection",
            "name": "eventobject"
        }, {
            "datatype": "string",
            "name": "x"
        }, {
            "datatype": "string",
            "name": "y"
        }],
        "contextObj": {
            "name": "frmCheckReOrderListKA",
            "type": "forms",
            "platform": "",
            "KUID": "82e3c377c2264e8281fc81abb3ae4f3a"
        },
        "language": "js",
        "actions": [{
            "id": "ADD_SNIPPET__ba4ff16ca9da45a09c68b382419b40a0",
            "type": "ADD_SNIPPET",
            "codeSnippet": "alertCallCheckReOrder();",
            "parentId": null,
            "callbackType": null
        }]
    }
}