{
    "AS_FlexContainer_ac9c96ef40854f1691080ae3da462aff": {
        "id": "AS_FlexContainer_ac9c96ef40854f1691080ae3da462aff",
        "type": "ACTION_SEQUENCE",
        "params": [{
            "datatype": "collection",
            "name": "eventobject"
        }],
        "contextObj": {
            "name": "frmLoginKA",
            "type": "forms",
            "platform": "",
            "KUID": "7b1aa8fceb6b4070833e9eab879b0e5e"
        },
        "language": "js",
        "actions": [{
            "id": "OPEN_URL__c12298ab011e4e47bc1bae878b97c0da",
            "type": "OPEN_URL",
            "url": "http://pmqa.konylabs.net/KonyWebBanking/campaign.html",
            "parentId": null,
            "callbackType": null
        }]
    }
}