{
    "AS_FlexContainer_f7559ba967054d3ca60ae5d8e395dedb": {
        "id": "AS_FlexContainer_f7559ba967054d3ca60ae5d8e395dedb",
        "type": "ACTION_SEQUENCE",
        "params": [{
            "datatype": "collection",
            "name": "eventobject"
        }],
        "language": "js",
        "actions": [{
            "id": "ADD_SNIPPET_ide_onClick_e95f8476bbe24083a8bd5d841073b90f",
            "type": "ADD_SNIPPET",
            "codeSnippet": "frmCardsLandingKA.show();",
            "callbackType": null
        }]
    }
}