{
    "AS_FlexContainer_e03dca9494c949bcb7fd29673673a407": {
        "id": "AS_FlexContainer_e03dca9494c949bcb7fd29673673a407",
        "type": "ACTION_SEQUENCE",
        "name": "AS_footerDepositOnClick",
        "params": [{
            "datatype": "collection",
            "name": "eventobject"
        }],
        "language": "js",
        "actions": [{
            "id": "ADD_SNIPPET_ide_onClick_i5d7de1cec1b4040a90bd349b82301fe",
            "type": "ADD_SNIPPET",
            "codeSnippet": "gblfrmName = \"\";\nadditionalValidationRdc(this,gotoDeposits);\n",
            "callbackType": null
        }]
    }
}