{
    "AS_FlexContainer_f078a04efc954e0abcad4aac281eea80": {
        "id": "AS_FlexContainer_f078a04efc954e0abcad4aac281eea80",
        "type": "ACTION_SEQUENCE",
        "params": [{
            "datatype": "collection",
            "name": "eventobject"
        }],
        "contextObj": {
            "name": "frmRecentTransactionDetailsKA",
            "type": "forms",
            "platform": "",
            "KUID": "3e75bf63a2d4443486447188bb14c36b"
        },
        "language": "js",
        "actions": [{
            "id": "ADD_SNIPPET__c3a508c50e4d4ae68ac25ff6170f0c80",
            "type": "ADD_SNIPPET",
            "codeSnippet": "onClickLocateUS(true,\"frmRecentTransactionDetailsKA\");",
            "parentId": null,
            "callbackType": null
        }]
    }
}