{
    "AS_FlexContainer_gf344720fe1847b499bc348c2d34deac": {
        "id": "AS_FlexContainer_gf344720fe1847b499bc348c2d34deac",
        "type": "ACTION_SEQUENCE",
        "name": "AS_FlexContainer_StopCard",
        "params": [{
            "datatype": "collection",
            "name": "eventobject"
        }],
        "contextObj": {
            "name": "frmManageCardsKA",
            "type": "forms",
            "platform": "",
            "KUID": "75db60b6b4944b7faf9c556f4dbcaf8d"
        },
        "language": "js",
        "actions": [{
            "id": "ADD_SNIPPET__a8c341c506f1493a989dcc2466486764",
            "type": "ADD_SNIPPET",
            "codeSnippet": "showPopupStopCard();",
            "parentId": null,
            "callbackType": null
        }]
    }
}