{
    "AS_FlexContainer_jc5faecf6023498da0ce1eadb2aa04d1": {
        "id": "AS_FlexContainer_jc5faecf6023498da0ce1eadb2aa04d1",
        "type": "ACTION_SEQUENCE",
        "name": "AS_FlexContainer_OnClickBackEPSScreen",
        "params": [{
            "datatype": "collection",
            "name": "eventobject"
        }],
        "language": "js",
        "actions": [{
            "id": "ADD_SNIPPET_ide_onClick_e62ff252376948ac9a5a847f6d012ddd",
            "type": "ADD_SNIPPET",
            "codeSnippet": "customAlertPopup(geti18Value(\"i18n.cards.Confirmation\"), \n                 geti18Value(\"i18n.transfers.eraseAllAlert\"),\n                 userResponseESP, onClickNoBackESP, \n                 geti18Value(\"i18n.common.YES\"),\n                 geti18Value(\"i18n.common.NO\"));\n\nfunction userResponseESP(){\n//   removeDatafrmTransfersformEPS();\n  ResetFormIPSData();\n  popupCommonAlertDimiss();\n  //frmPaymentDashboard.show();\n  frmIPSManageBene.show();\n  \n}\nfunction onClickNoBackESP(){\n  popupCommonAlertDimiss();\n}",
            "callbackType": null
        }]
    }
}