{
    "AS_FlexContainer_da6c3a8eeab5464d9868b9a0525de60e": {
        "id": "AS_FlexContainer_da6c3a8eeab5464d9868b9a0525de60e",
        "type": "ACTION_SEQUENCE",
        "params": [{
            "datatype": "collection",
            "name": "eventobject"
        }],
        "language": "js",
        "actions": [{
            "id": "ADD_SNIPPET_ide_onClick_h93fb189a0604af7bda252786e6491c3",
            "type": "ADD_SNIPPET",
            "codeSnippet": "gblrequestStatementBranch=true;\n kony.boj.showSelectedDetailsFromBene(\"Branch\", \"lblBankBranch\");",
            "callbackType": null
        }]
    }
}