{
    "AS_Form_a2569aa6268e474fa0087f8434a38751": {
        "id": "AS_Form_a2569aa6268e474fa0087f8434a38751",
        "type": "ACTION_SEQUENCE",
        "params": [{
            "datatype": "collection",
            "name": "eventobject"
        }],
        "contextObj": {
            "name": "frmNewUserSignatureKA",
            "type": "forms",
            "platform": "",
            "KUID": "e7029c3819434ea7be1d285c8a8017a4"
        },
        "language": "js",
        "actions": [{
            "id": "ADD_SNIPPET__a25922fab38d4339a04f2aa5ad21a63c",
            "type": "ADD_SNIPPET",
            "codeSnippet": "var NUSign = applicationManager.getNewUserSignatureViewController();\nNUSign.signPreShow();",
            "parentId": null,
            "callbackType": null
        }]
    }
}