{
    "AS_FlexContainer_c555fc96803048f8b90b9d3c93e2a54e": {
        "id": "AS_FlexContainer_c555fc96803048f8b90b9d3c93e2a54e",
        "type": "ACTION_SEQUENCE",
        "name": "AS_FlexContainer_onClickBackGetAliases",
        "params": [{
            "datatype": "collection",
            "name": "eventobject"
        }],
        "contextObj": {
            "name": "frmGetIPSAlias",
            "type": "forms",
            "platform": null,
            "KUID": "fdbc809430384fee86dac0a2bfd0880d"
        },
        "language": "js",
        "actions": [{
            "id": "ADD_SNIPPET__i4f7be8bf9df4b858ee5c58eafbee777",
            "type": "ADD_SNIPPET",
            "codeSnippet": "frmIPSManageBene.show();",
            "parentId": null,
            "callbackType": null
        }]
    }
}