{
    "AS_Form_hda449db0e5d434b84e1ae59158487cc": {
        "id": "AS_Form_hda449db0e5d434b84e1ae59158487cc",
        "type": "ACTION_SEQUENCE",
        "name": "AS_Form_postShowJomopayRegestration",
        "params": [{
            "datatype": "collection",
            "name": "eventobject"
        }],
        "contextObj": {
            "name": "frmJoMoPayRegistration",
            "type": "forms",
            "platform": "",
            "KUID": "h0b4f51069c74c7bbbbd6798301d77d6"
        },
        "language": "js",
        "actions": [{
            "id": "ADD_SNIPPET__b40c1792f25545c38a1f67bcc5d7f5f7",
            "type": "ADD_SNIPPET",
            "codeSnippet": "if (frmJoMoPayRegistration.txtJomopayID.text !== \"\")\n   animate_NEWCARDSOPTIOS(\"UP\",\"lblJomopayIDstatic\",frmJoMoPayRegistration.txtJomopayID.text);\nif (frmJoMoPayRegistration.txtAlias.text !== \"\")\n   animate_NEWCARDSOPTIOS(\"UP\",\"lblAliasJMPRstatic\",frmJoMoPayRegistration.txtAlias.text);\nif (frmJoMoPayRegistration.lblDateOfBirth.text !== \"\")\n   animate_NEWCARDSOPTIOS(\"UP\",\"lblDateOfBirthstatic\",frmJoMoPayRegistration.lblDateOfBirth.text);\nif (frmJoMoPayRegistration.txtPhoneNo.text !== \"\")\n   animate_NEWCARDSOPTIOS(\"UP\",\"lblMobileNumberText\",frmJoMoPayRegistration.txtPhoneNo.text);\nif (frmJoMoPayRegistration.txtNationalID.text !== \"\")\n   animate_NEWCARDSOPTIOS(\"UP\",\"lblNationalID\",frmJoMoPayRegistration.txtNationalID.text);\nif (frmJoMoPayRegistration.txtEmail.text !== \"\")\n   animate_NEWCARDSOPTIOS(\"UP\",\"lblEmailStatic\",frmJoMoPayRegistration.txtEmail.text);",
            "parentId": null,
            "callbackType": null
        }]
    }
}