{
    "AS_Form_bb7e02cf43ca4e18996de0f50c5b590a": {
        "id": "AS_Form_bb7e02cf43ca4e18996de0f50c5b590a",
        "type": "ACTION_SEQUENCE",
        "params": [{
            "datatype": "collection",
            "name": "eventobject"
        }],
        "contextObj": {
            "name": "frmReleaseNotesKA",
            "type": "forms",
            "platform": "",
            "KUID": "cd9f0006f05a4c99a07e762ad6cd7438"
        },
        "language": "js",
        "actions": [{
            "id": "ADD_SNIPPET__e2289d4713cd41d6b1a4940c1cccf077",
            "type": "ADD_SNIPPET",
            "codeSnippet": "releaseNotesnextBackBtnonClick();",
            "parentId": null,
            "callbackType": null
        }]
    }
}