{
    "AS_FlexContainer_b94cf2e11fbe4abcab6ed5c2f2dba4f7": {
        "id": "AS_FlexContainer_b94cf2e11fbe4abcab6ed5c2f2dba4f7",
        "type": "ACTION_SEQUENCE",
        "params": [{
            "datatype": "collection",
            "name": "eventobject"
        }],
        "contextObj": {
            "name": "frmRecentTransactionDetailsKA",
            "type": "forms",
            "platform": "",
            "KUID": "3e75bf63a2d4443486447188bb14c36b"
        },
        "language": "js",
        "actions": [{
            "id": "ADD_SNIPPET__e8bdf1dec8be457ca0dfa5851caa8f5a",
            "type": "ADD_SNIPPET",
            "codeSnippet": "onClickLocateUS(false,\"frmRecentTransactionDetailsKA\");",
            "parentId": null,
            "callbackType": null
        }]
    }
}