{
    "AS_FlexContainer_c430c0c45097446ea58d9481d5244385": {
        "id": "AS_FlexContainer_c430c0c45097446ea58d9481d5244385",
        "type": "ACTION_SEQUENCE",
        "name": "AS_FlexContainer_onClickBackFrmIPSHome",
        "params": [{
            "datatype": "collection",
            "name": "eventobject"
        }],
        "contextObj": {
            "name": "frmIPSHome",
            "type": "forms",
            "platform": "",
            "KUID": "a2754de03fdc4fab9e1f4aeb43b1858d"
        },
        "language": "js",
        "actions": [{
            "id": "ADD_SNIPPET__a466818cdb84446fa29099798cb20b38",
            "type": "ADD_SNIPPET",
            "codeSnippet": "frmPaymentDashboard.show();\nfrmIPSHome.destroy();",
            "parentId": null,
            "callbackType": null
        }]
    }
}