{
    "AS_Image_fa86ae2b16714efbaf5b7077228218ff": {
        "id": "AS_Image_fa86ae2b16714efbaf5b7077228218ff",
        "type": "ACTION_SEQUENCE",
        "params": [{
            "datatype": "collection",
            "name": "eventobject"
        }, {
            "datatype": "string",
            "name": "x"
        }, {
            "datatype": "string",
            "name": "y"
        }],
        "contextObj": {
            "name": "frmUserSettingsPinLoginKA",
            "type": "forms",
            "platform": null,
            "KUID": "d6efcea46d734da8bf7a8f21578e100d"
        },
        "language": "js",
        "actions": [{
            "id": "ADD_SNIPPET_ide_onTouchStart_h75bd2641a674b0f80df8caa1a0862a4",
            "type": "ADD_SNIPPET",
            "codeSnippet": "kony.localAuthentication.cancelAuthentication();\nfrmUserSettingsTouchIdKA.flxtouchIdAndrd.setVisibility(false);\nkony.sdk.mvvm.KonyApplicationContext.dismissLoadingScreen();",
            "callbackType": null
        }]
    }
}