{
    "AS_Image_ef15fdfba05d4c19ad969e7104d3b145": {
        "id": "AS_Image_ef15fdfba05d4c19ad969e7104d3b145",
        "type": "ACTION_SEQUENCE",
        "params": [{
            "datatype": "collection",
            "name": "eventobject"
        }, {
            "datatype": "string",
            "name": "x"
        }, {
            "datatype": "string",
            "name": "y"
        }],
        "contextObj": {
            "name": "frmRecentTransactionDetailsKA",
            "type": "forms",
            "platform": "",
            "KUID": "3e75bf63a2d4443486447188bb14c36b"
        },
        "language": "js",
        "actions": [{
            "id": "ADD_SNIPPET__e4781f181bb745d3947be0314ed6444b",
            "type": "ADD_SNIPPET",
            "codeSnippet": "kony.print(\"Deleted\");",
            "parentId": null,
            "callbackType": null
        }]
    }
}