{
    "AS_ListBox_g0cbe57d9a32406b82bb2e6ccf631d1c": {
        "id": "AS_ListBox_g0cbe57d9a32406b82bb2e6ccf631d1c",
        "type": "ACTION_SEQUENCE",
        "params": [{
            "datatype": "collection",
            "name": "eventobject"
        }],
        "language": "js",
        "actions": [{
            "id": "ADD_SNIPPET_ide_onSelection_e7e52ab4cbbf491d8e43d5d661cd64bf",
            "type": "ADD_SNIPPET",
            "codeSnippet": "// alert(\"TextFieldAmont Data: \"+frmCreditCardPayment.txtFieldAmount.text);\n// alert(\"Textof Other Card: \"+frmCreditCardPayment.txtBoxOtherCard.text);\nif(frmCreditCardPayment.txtFieldAmount.text!==null &&frmCreditCardPayment.txtFieldAmount.text!==\"\" && frmCreditCardPayment.txtBoxOtherCard.text!==\"\")\n  {\n    frmCreditCardPayment.btnNext.skin=\"jomopaynextEnabled\";\n    frmCreditCardPayment.btnNext.focusSkin=\"jomopaynextEnabled\";\n  }\nelse\n  {\n     frmCreditCardPayment.btnNext.skin=\"jomopaynextDisabled\";\n    frmCreditCardPayment.btnNext.focusSkin=\"jomopaynextDisabled\";\n  }",
            "callbackType": null
        }]
    }
}