{
    "AS_Label_h839a419634c448bb461e4c371066f39": {
        "id": "AS_Label_h839a419634c448bb461e4c371066f39",
        "type": "ACTION_SEQUENCE",
        "params": [{
            "datatype": "collection",
            "name": "eventobject"
        }, {
            "datatype": "string",
            "name": "x"
        }, {
            "datatype": "string",
            "name": "y"
        }],
        "contextObj": {
            "name": "frmNewUserOnboardVerificationKA",
            "type": "forms",
            "platform": "",
            "KUID": "ie7b921fac134bd8a8afb16afc085409"
        },
        "language": "js",
        "actions": [{
            "id": "ADD_SNIPPET__dda42e1c773f410f88933598d5d8347d",
            "type": "ADD_SNIPPET",
            "codeSnippet": "//applicable only for Iphone \nfrmNewUserOnboardVerificationKA.loadCustomWidgetForm.clearOTPTextField();",
            "parentId": null,
            "callbackType": null
        }]
    }
}