{
    "AS_Label_j7f57b209e46436f9ac1694619817718": {
        "id": "AS_Label_j7f57b209e46436f9ac1694619817718",
        "type": "ACTION_SEQUENCE",
        "params": [{
            "datatype": "collection",
            "name": "eventobject"
        }, {
            "datatype": "string",
            "name": "x"
        }, {
            "datatype": "string",
            "name": "y"
        }],
        "language": "js",
        "actions": [{
            "id": "ADD_SNIPPET_ide_onTouchEnd_j34d3d5d30f9419fa12092a1f1e0448b",
            "type": "ADD_SNIPPET",
            "codeSnippet": "kony.boj.showSelectedDetailsFromBene(\"Country\", \"lblCountryNameKA\", \"\");",
            "callbackType": null
        }]
    }
}