{
    "AS_Label_ec35aa25f14e4695b414b8847906f669": {
        "id": "AS_Label_ec35aa25f14e4695b414b8847906f669",
        "type": "ACTION_SEQUENCE",
        "params": [{
            "datatype": "collection",
            "name": "eventobject"
        }, {
            "datatype": "string",
            "name": "x"
        }, {
            "datatype": "string",
            "name": "y"
        }],
        "language": "js",
        "actions": [{
            "id": "ADD_SNIPPET_ide_onTouchEnd_b06c8d46388240c2be3a7e98e4c6aa2f",
            "type": "ADD_SNIPPET",
            "codeSnippet": "frmEnrolluserLandingKA.lblNext.skin = \"sknLblNextDisabled\";\nbackspace(\"tbxConfrmPwdKA\");\nset_SHOW_BUTTON_VISIBILITY(frmEnrolluserLandingKA.tbxConfrmPwdKA,frmEnrolluserLandingKA.lblShowConfirmPassword);\nfrmEnrolluserLandingKA.CopylblClose0dcca487a6bc243.setVisibility(false);\nisNextEnabled();",
            "callbackType": null
        }]
    }
}