{
    "AS_Label_h159497eca514dc2b080f4da38fbd78f": {
        "id": "AS_Label_h159497eca514dc2b080f4da38fbd78f",
        "type": "ACTION_SEQUENCE",
        "params": [{
            "datatype": "collection",
            "name": "eventobject"
        }, {
            "datatype": "string",
            "name": "x"
        }, {
            "datatype": "string",
            "name": "y"
        }],
        "language": "js",
        "actions": [{
            "id": "ADD_SNIPPET_ide_onTouchEnd_b5c882aaf95644948bb0d612936bb396",
            "type": "ADD_SNIPPET",
            "codeSnippet": "customAlertPopup(geti18Value(\"i18n.cards.Confirmation\"), \n                   geti18Value(\"i18n.Transfer.cancelTra\"),\n                   onClickYesClose, onClickNoClose, \n                   geti18Value(\"i18n.login.continue\"),\n                   geti18Value(\"i18n.common.cancel\"));\n\nfunction onClickYesClose(){\n  popupCommonAlertDimiss();\n  removeDatafrmTransfersform();\n  makeInlineErrorsTransfersInvisible();\n  frmPaymentDashboard.show();;\n}\n\nfunction onClickNoClose(){\n  popupCommonAlertDimiss();\n}",
            "callbackType": null
        }]
    }
}