{
    "AS_Label_c46cec92cc1b4fe0a557d19f169c1a74": {
        "id": "AS_Label_c46cec92cc1b4fe0a557d19f169c1a74",
        "type": "ACTION_SEQUENCE",
        "params": [{
            "datatype": "collection",
            "name": "eventobject"
        }, {
            "datatype": "string",
            "name": "x"
        }, {
            "datatype": "string",
            "name": "y"
        }],
        "language": "js",
        "actions": [{
            "id": "ADD_SNIPPET_ide_onTouchEnd_g6d6cf4d9b64415ba5d693760c912b8a",
            "type": "ADD_SNIPPET",
            "codeSnippet": "if (frmCardlessTransaction.lblTermsandConditionsCheckBox.text === \"q\")\n  frmCardlessTransaction.lblTermsandConditionsCheckBox.text=\"p\";\nelse\n  frmCardlessTransaction.lblTermsandConditionsCheckBox.text=\"q\";\n\ncheckNextCardless();",
            "callbackType": null
        }]
    }
}