{
    "AS_Label_bf105407db054a46b2cdd17093859a18": {
        "id": "AS_Label_bf105407db054a46b2cdd17093859a18",
        "type": "ACTION_SEQUENCE",
        "params": [{
            "datatype": "collection",
            "name": "eventobject"
        }, {
            "datatype": "string",
            "name": "x"
        }, {
            "datatype": "string",
            "name": "y"
        }],
        "contextObj": {
            "name": "frmUserSettingsSiri",
            "type": "forms",
            "platform": "",
            "KUID": "f6a73333c5b04d9f97a80b02ff57e6ae"
        },
        "language": "js",
        "actions": [{
            "id": "ADD_SNIPPET__d6294bfbbdc248cb907c83d166952ac1",
            "type": "ADD_SNIPPET",
            "codeSnippet": "frmUserSettingsSiri.txtSiriLimit.text = \"\";\nanimateLabel(\"UP\",\"lblSiriTransLimit\",frmUserSettingsSiri.txtSiriLimit.text);\n",
            "parentId": null,
            "callbackType": null
        }]
    }
}