{
    "AS_TextField_gc91e6bc52d84b47a0552a41a63d4e55": {
        "id": "AS_TextField_gc91e6bc52d84b47a0552a41a63d4e55",
        "type": "ACTION_SEQUENCE",
        "name": "AS_onTextChangeCity",
        "params": [{
            "datatype": "collection",
            "name": "eventobject"
        }, {
            "datatype": "string",
            "name": "changedtext"
        }],
        "contextObj": {
            "name": "frmAddExternalAccountKA",
            "type": "forms",
            "platform": "",
            "KUID": "4943cca5d62d4f0ca6f2e9ab47274db5"
        },
        "language": "js",
        "actions": [{
            "id": "ADD_SNIPPET__d4d1b4ed9ee942f58eb023e104087046",
            "type": "ADD_SNIPPET",
            "codeSnippet": "kony.boj.addBeneNextStatus();",
            "parentId": null,
            "callbackType": null
        }]
    }
}