{
    "AS_FlexContainer_i4d000581cf04b1bac1a5e4ecf05bc13": {
        "id": "AS_FlexContainer_i4d000581cf04b1bac1a5e4ecf05bc13",
        "type": "ACTION_SEQUENCE",
        "name": "AS_OnClickCardsPreferenceActionSettings",
        "params": [{
            "datatype": "collection",
            "name": "eventobject"
        }],
        "language": "js",
        "actions": [{
            "id": "ADD_SNIPPET_ide_onClick_e45efdc788bb44baab543851a262be15",
            "type": "ADD_SNIPPET",
            "codeSnippet": "SETTINGS_GLOBALS.CARD = !SETTINGS_GLOBALS.CARD;\ntoggleMenuOptions(PROFILE_CONSTANTS.CARDPREFERENCES,SETTINGS_GLOBALS.CARD,PROFILE_CONSTANTS.MENU[5]);\ntoggleMenuOptions(PROFILE_CONSTANTS.ACCOUNTPREFERENCES,(SETTINGS_GLOBALS.ACCOUNT = GENERIC_COSNTATNTS.FALSE),PROFILE_CONSTANTS.MENU[1]);\ntoggleMenuOptions(PROFILE_CONSTANTS.PROFILE,(SETTINGS_GLOBALS.PROFILE = GENERIC_COSNTATNTS.FALSE),PROFILE_CONSTANTS.MENU[0]);\ntoggleMenuOptions(PROFILE_CONSTANTS.CHANGELANGUAGE,(SETTINGS_GLOBALS.LANGUAGE = GENERIC_COSNTATNTS.FALSE),PROFILE_CONSTANTS.MENU[2]);\ntoggleMenuOptions(PROFILE_CONSTANTS.ALERTANDNOTIFICATIONS, (SETTINGS_GLOBALS.ALERT = GENERIC_COSNTATNTS.FALSE), PROFILE_CONSTANTS.MENU[4]);\ntoggleMenuOptions(PROFILE_CONSTANTS.ALTERNATELOGINS, (SETTINGS_GLOBALS.ALTERNATELOGINS = GENERIC_COSNTATNTS.FALSE), PROFILE_CONSTANTS.MENU[3]);"
        }]
    }
}