{
    "AS_Label_af07d11947354013927e48e9b8edae60": {
        "id": "AS_Label_af07d11947354013927e48e9b8edae60",
        "type": "ACTION_SEQUENCE",
        "name": "AS_onClickExternalAccountNext",
        "params": [{
            "datatype": "collection",
            "name": "eventobject"
        }, {
            "datatype": "string",
            "name": "x"
        }, {
            "datatype": "string",
            "name": "y"
        }],
        "contextObj": {
            "name": "frmAddExternalAccountKA",
            "type": "forms",
            "platform": "",
            "KUID": "4943cca5d62d4f0ca6f2e9ab47274db5"
        },
        "language": "js",
        "actions": [{
            "id": "ADD_SNIPPET__bd18dc7a5cfd4e29af2c5356bf40389f",
            "type": "ADD_SNIPPET",
            "codeSnippet": "kony.print(\"hassan benevald \"||kony.boj.checkAddBeneValidation());\nif(frmAddExternalAccountKA.lblNext.skin === \"sknLblNextEnabled\" && kony.boj.checkAddBeneValidation() === true){\n  kony.print(\"hassan checkforExistingAccountAddBen \");\n  if(checkforExistingAccountAddBen())\n    kony.print(\"hassan checkforExistingAccountAddBenssss \");\n   kony.boj.thingsToShow();\n}\n \n\n\n\n// kony.sdk.mvvm.KonyApplicationContext.logout(successCallback, errorCallback);  \n\n// function successCallback(res){\n//   frmLoginKA.show();\n//   alert(JSON.stringify(res));\n//   alert(\"Sucess\");\n// }\n\n// function errorCallback(res){\n//   alert(\"Failed\");\n// }",
            "parentId": null,
            "callbackType": null
        }]
    }
}