{
    "AS_TextField_g3e99865222e468f963fcfdb60d6c1db": {
        "id": "AS_TextField_g3e99865222e468f963fcfdb60d6c1db",
        "type": "ACTION_SEQUENCE",
        "name": "AS_onEndEditingBenficiryNameAndroid",
        "params": [{
            "datatype": "collection",
            "name": "eventobject"
        }, {
            "datatype": "string",
            "name": "changedtext"
        }],
        "language": "js",
        "actions": [{
            "id": "ADD_SNIPPET_ide_onEndEditing_h6d9bb3fb59e4aa1b916ed7dba02a95a",
            "type": "ADD_SNIPPET",
            "codeSnippet": "if(frmAddExternalAccountKA.txtBenficiryNameKA.text !== \"\"){\n  frmAddExternalAccountKA.flxUnderlineBenficiryNameKA.skin = \"sknFlxGreenLine\";\n}else{\n  frmAddExternalAccountKA.flxUnderlineBenficiryNameKA.skin = \"sknFlxOrangeLine\";\n}\n\nanimateLabel(\"DOWN\", \"lblBenficiryNameKA\", frmAddExternalAccountKA.txtBenficiryNameKA.text);",
            "callbackType": null
        }]
    }
}