{
    "AS_Button_j5768a5e27cc40fdbbecfacd5de9472f": {
        "id": "AS_Button_j5768a5e27cc40fdbbecfacd5de9472f",
        "type": "ACTION_SEQUENCE",
        "name": "AS_onclickRequestPinCardConfirm",
        "params": [{
            "datatype": "collection",
            "name": "eventobject"
        }],
        "language": "js",
        "actions": [{
            "id": "ADD_SNIPPET_ide_onClick_dfed131afce449efa7ab2f429504862e",
            "type": "ADD_SNIPPET",
            "codeSnippet": "if(frmRequestPinCard.lblBranch.text != geti18Value(\"i18n.cards.reasonhead3\")){\n     frmRequestPinCard.flxInvalidAmountField.setVisibility(false);\n  confirmCallrequestNewPinService();\n  }else{\n     frmRequestPinCard.flxInvalidAmountField.setVisibility(true);\n  }\n",
            "callbackType": null
        }]
    }
}