{
    "AS_TextField_hf0a1314caa544248e7335aacfef2b89": {
        "id": "AS_TextField_hf0a1314caa544248e7335aacfef2b89",
        "type": "ACTION_SEQUENCE",
        "name": "AS_onEndEditingAddressAddBillerAndroid",
        "params": [{
            "datatype": "collection",
            "name": "eventobject"
        }, {
            "datatype": "string",
            "name": "changedtext"
        }],
        "contextObj": {
            "name": "frmAddNewPayeeKA",
            "type": "forms",
            "platform": "",
            "KUID": "22b994296d374ff48427012b2b05feb7"
        },
        "language": "js",
        "actions": [{
            "id": "ADD_SNIPPET__f7258b81dc79482199a4c498a64bf955",
            "type": "ADD_SNIPPET",
            "codeSnippet": "animateLabel(\"DOWN\", \"lblAddress\",frmAddNewPayeeKA.tbxAddress.text);",
            "parentId": null,
            "callbackType": null
        }]
    }
}