{
    "AS_Button_f13d10e3487b4c41945fb87ca352ce8c": {
        "id": "AS_Button_f13d10e3487b4c41945fb87ca352ce8c",
        "type": "ACTION_SEQUENCE",
        "name": "AS_onClickAddBeneConfirm",
        "params": [{
            "datatype": "collection",
            "name": "eventobject"
        }],
        "language": "js",
        "actions": [{
            "id": "ADD_SNIPPET_ide_onClick_c5fda3a7abb14f74915b68f7823d285d",
            "type": "ADD_SNIPPET",
            "codeSnippet": "gblToOTPFrom = \"AddBene\";\nShowLoadingScreen();\ncallRequestOTP();\n//frmNewUserOnboardVerificationKA.show();\n// var INSTANCE = kony.sdk.mvvm.KonyApplicationContext.getAppInstance();\n// var listController = INSTANCE.getFormController(\"frmAddExternalAccountKA\");\n// listController.performAction(\"saveData\");\n// kony.boj.detailsForBene.flag = false;",
            "callbackType": null
        }]
    }
}