{
    "AS_Label_i15289511e734af8a0e39b1fbef37dfb": {
        "id": "AS_Label_i15289511e734af8a0e39b1fbef37dfb",
        "type": "ACTION_SEQUENCE",
        "name": "AS_onclickInfoTabVieweraccountssetskinss",
        "params": [{
            "datatype": "collection",
            "name": "eventobject"
        }, {
            "datatype": "string",
            "name": "x"
        }, {
            "datatype": "string",
            "name": "y"
        }],
        "contextObj": {
            "name": "frmAccountInfoKA",
            "type": "forms",
            "platform": "",
            "KUID": "b2f984d11c5244e6ae5f81fe393d837e"
        },
        "language": "js",
        "actions": [{
            "id": "ADD_SNIPPET__bbd58cd2d2fb4adfb32da7c7d8f13ad9",
            "type": "ADD_SNIPPET",
            "codeSnippet": "setDefaultAccountsInfoSetTabs();",
            "parentId": null,
            "callbackType": null
        }]
    }
}