{
    "AS_TextField_c1a2a34d81ca4328b000b3a0f4a81b26": {
        "id": "AS_TextField_c1a2a34d81ca4328b000b3a0f4a81b26",
        "type": "ACTION_SEQUENCE",
        "name": "AS_onTextChangeCityBank",
        "params": [{
            "datatype": "collection",
            "name": "eventobject"
        }, {
            "datatype": "string",
            "name": "changedtext"
        }],
        "contextObj": {
            "name": "frmAddExternalAccountKA",
            "type": "forms",
            "platform": "",
            "KUID": "4943cca5d62d4f0ca6f2e9ab47274db5"
        },
        "language": "js",
        "actions": [{
            "id": "ADD_SNIPPET__g6e7ec60cca3448fa9c4fc2b65d1958a",
            "type": "ADD_SNIPPET",
            "codeSnippet": "kony.boj.addBeneNextStatus();",
            "parentId": null,
            "callbackType": null
        }]
    }
}