{
    "AS_TextField_fbe9a7f7dc3248ad87ba6f652c6fc478": {
        "id": "AS_TextField_fbe9a7f7dc3248ad87ba6f652c6fc478",
        "type": "ACTION_SEQUENCE",
        "name": "AS_onTextChangeOTP",
        "params": [{
            "datatype": "collection",
            "name": "eventobject"
        }, {
            "datatype": "string",
            "name": "changedtext"
        }],
        "contextObj": {
            "name": "frmNewUserOnboardVerificationKA",
            "type": "forms",
            "platform": "",
            "KUID": "ie7b921fac134bd8a8afb16afc085409"
        },
        "language": "js",
        "actions": [{
            "id": "ADD_SNIPPET__cc8346f40dc8435287be439a464712da",
            "type": "ADD_SNIPPET",
            "codeSnippet": "onTextChangeOTP(false);",
            "parentId": null,
            "callbackType": null
        }]
    }
}