{
    "AS_Segment_ab0e4baf7fc742c0b6906a3adcaf8ba4": {
        "id": "AS_Segment_ab0e4baf7fc742c0b6906a3adcaf8ba4",
        "type": "ACTION_SEQUENCE",
        "name": "AS_onRowClickSelectDetail",
        "params": [{
            "datatype": "collection",
            "name": "eventobject"
        }, {
            "datatype": "number",
            "name": "sectionNumber"
        }, {
            "datatype": "number",
            "name": "rowNumber"
        }],
        "contextObj": {
            "name": "frmSelectDetailsBene",
            "type": "forms",
            "platform": null,
            "KUID": "dc083a9578ae4c11820ce4dbba701670"
        },
        "language": "js",
        "actions": [{
            "id": "ADD_SNIPPET__ae8521170405435c806db3022c764ef8",
            "type": "ADD_SNIPPET",
            "codeSnippet": "//alert(frmSelectDetailsBene.segDetails.selectedRowItems[0]);\nif(kony.newCARD.applyCardsOption === true){\n\tselected_OPTIONS_APPLYNEWCARDS(frmSelectDetailsBene.segDetails.selectedItems[0],kony.boj.selectedDetailsType);\n}else if(gblWorkflowType === \"IPS\"){\n  setupBanknameIPS(frmSelectDetailsBene.segDetails.selectedItems[0]);\n}else{\n  if(gblsubaccBranchList){\n    setDatatoCheckOrderBranchList(frmSelectDetailsBene.segDetails.selectedRowItems[0]);\n  }else if(gblrequestStatementBranch){\n    setDatatoRequestStatementBranchList(frmSelectDetailsBene.segDetails.selectedRowItems[0]);\n  }else if(gblRequestNewPinBranchList){\n    setDatatoRequestNewPinBranchList(frmSelectDetailsBene.segDetails.selectedRowItems[0]);\n  }else if(gblRequestStatementCrediCards){\n    setDatatoRequestStatementBranchList(frmSelectDetailsBene.segDetails.selectedRowItems[0]);\n  }else if(gblopenTermDepositeMI){ // hassan open deposite\n    setDataMaturityInstruction(frmSelectDetailsBene.segDetails.selectedRowItems[0]);\n  }else{\n  kony.boj.updateLabel(frmSelectDetailsBene.segDetails.selectedRowItems[0]);\n  }\n}",
            "parentId": null,
            "callbackType": null
        }]
    }
}