{
    "AS_FlexContainer_f48b8e9619ac4df997032df63a53adf9": {
        "id": "AS_FlexContainer_f48b8e9619ac4df997032df63a53adf9",
        "type": "ACTION_SEQUENCE",
        "name": "AS_onclickNewPinCardSetFocuss",
        "params": [{
            "datatype": "collection",
            "name": "eventobject"
        }],
        "contextObj": {
            "name": "frmRequestPinCard",
            "type": "forms",
            "platform": "",
            "KUID": "b22a7d80b05143d9910e188625a8eb0b"
        },
        "language": "js",
        "actions": [{
            "id": "ADD_SNIPPET__gb7e9506e8bd4ef283126ca92baf501a",
            "type": "ADD_SNIPPET",
            "codeSnippet": "frmRequestPinCard.txtPIN.setFocus(false);",
            "parentId": null,
            "callbackType": null,
            "disabled": true
        }]
    }
}