{
    "AS_Button_ac78a366be28472dac76bef8a8641a1c": {
        "id": "AS_Button_ac78a366be28472dac76bef8a8641a1c",
        "type": "ACTION_SEQUENCE",
        "name": "AS_onAddBeneficiaryClick",
        "params": [{
            "datatype": "collection",
            "name": "eventobject"
        }],
        "language": "js",
        "actions": [{
            "id": "ADD_SNIPPET_ide_onClick_j89052771eda4a6aaa5a041b1da05598",
            "type": "ADD_SNIPPET",
            "codeSnippet": "frmAddExternalAccountKA.destroy();\nkony.boj.detailsForBene.flag = false;\nkony.boj.addBeneVar.selectedType = \"BOJ\";\ngblFromModule = \"\";\nnavigation_STORE_PREVIOUS_FORM(frmAddExternalAccountHome);\nvar INSTANCE = kony.sdk.mvvm.KonyApplicationContext.getAppInstance();\nvar listController = INSTANCE.getFormController(\"frmAddExternalAccountKA\");\nvar navObject = new kony.sdk.mvvm.NavigationObject();\nvar datamodelflxAddressKA = new kony.sdk.mvvm.DataModel();\nnavObject.setDataModel(null,kony.sdk.mvvm.OperationType.ADD, \"form\");\nnavObject.setRequestOptions(\"form\",{\"headers\":{}});\nlistController.performAction(\"navigateTo\",[\"frmAddExternalAccountKA\",navObject]);",
            "callbackType": null
        }]
    }
}