{
    "AS_TextField_a692bcdfd67b4e6f86e38c3e7006735d": {
        "id": "AS_TextField_a692bcdfd67b4e6f86e38c3e7006735d",
        "type": "ACTION_SEQUENCE",
        "name": "AS_onEndEditingSwiftAndroid",
        "params": [{
            "datatype": "collection",
            "name": "eventobject"
        }, {
            "datatype": "string",
            "name": "changedtext"
        }],
        "contextObj": {
            "name": "frmAddExternalAccountKA",
            "type": "forms",
            "platform": "",
            "KUID": "4943cca5d62d4f0ca6f2e9ab47274db5"
        },
        "language": "js",
        "actions": [{
            "id": "ADD_SNIPPET_ide_onEndEditing_ac34f9fefbd84c398f5214e3daf5b1fe",
            "type": "ADD_SNIPPET",
            "codeSnippet": "if(frmAddExternalAccountKA.txtSwiftCodeKA.text !== \"\"){\n  frmAddExternalAccountKA.flxUnderlineSwiftCode.skin = \"sknFlxGreenLine\";\n}else{\n  frmAddExternalAccountKA.flxUnderlineSwiftCode.skin = \"sknFlxOrangeLine\";\n}\n\nanimateLabel(\"DOWN\", \"lblSwiftCode\", frmAddExternalAccountKA.txtSwiftCodeKA.text);",
            "callbackType": null
        }]
    }
}