{
    "AS_TextField_g4c215638b874c7688961ea25b5765d0": {
        "id": "AS_TextField_g4c215638b874c7688961ea25b5765d0",
        "type": "ACTION_SEQUENCE",
        "name": "AS_onEndEditingBankDetailsAndroid",
        "params": [{
            "datatype": "collection",
            "name": "eventobject"
        }, {
            "datatype": "string",
            "name": "changedtext"
        }],
        "language": "js",
        "actions": [{
            "id": "ADD_SNIPPET_ide_onEndEditing_j1b560abf64e4a5f948575f5ba58f467",
            "type": "ADD_SNIPPET",
            "codeSnippet": "if(frmAddExternalAccountKA.tbxBeneBankDetails.text !== \"\"){\n  frmAddExternalAccountKA.flxUnderlineBankDetails.skin = \"sknFlxGreenLine\";\n}else{\n  frmAddExternalAccountKA.flxUnderlineBankDetails.skin = \"sknFlxOrangeLine\";\n}\n\nanimateLabel(\"DOWN\", \"lblBeneBankDetails\", frmAddExternalAccountKA.tbxBeneBankDetails.text);",
            "callbackType": null
        }]
    }
}