{
    "AS_TextField_bb3b1bd137dd4f0bb3e02ab20fed1163": {
        "id": "AS_TextField_bb3b1bd137dd4f0bb3e02ab20fed1163",
        "type": "ACTION_SEQUENCE",
        "name": "AS_onDoneAddress",
        "params": [{
            "datatype": "collection",
            "name": "eventobject"
        }, {
            "datatype": "string",
            "name": "changedtext"
        }],
        "language": "js",
        "actions": [{
            "id": "ADD_SNIPPET_ide_onDone_d0ad14bdf2ac418bb7585865914d8809",
            "type": "ADD_SNIPPET",
            "codeSnippet": "if(kony.boj.addBeneVar.selectedType === \"DOM\")\n  kony.boj.addBeneficiaryAnimation(\"lblAccountNumber\");\nelse\n  kony.boj.addBeneficiaryAnimation(\"lblCityName\");",
            "callbackType": null
        }]
    }
}