{
    "AS_TextField_c2c7eaecc82d43a0abf0863ad35483b8": {
        "id": "AS_TextField_c2c7eaecc82d43a0abf0863ad35483b8",
        "type": "ACTION_SEQUENCE",
        "name": "AS_onDoneAccNum",
        "params": [{
            "datatype": "collection",
            "name": "eventobject"
        }, {
            "datatype": "string",
            "name": "changedtext"
        }],
        "language": "js",
        "actions": [{
            "id": "ADD_SNIPPET_ide_onDone_i3ff923d3b324b89a56887a1808aea16",
            "type": "ADD_SNIPPET",
            "codeSnippet": "if(kony.boj.addBeneVar.selectedType === \"INT\")\n\tkony.boj.addBeneficiaryAnimation(\"lblSwiftCode\");\nelse\n  kony.boj.addBeneficiaryAnimation(\"lblAccountNumber\");\n\n\ncheckforExistingAccountAddBen();",
            "callbackType": null
        }]
    }
}