{
    "AS_Label_d56f7251288a498e8b89984cc5e8d518": {
        "id": "AS_Label_d56f7251288a498e8b89984cc5e8d518",
        "type": "ACTION_SEQUENCE",
        "name": "AS_onTouchEndFilterSI",
        "params": [{
            "datatype": "collection",
            "name": "eventobject"
        }, {
            "datatype": "string",
            "name": "x"
        }, {
            "datatype": "string",
            "name": "y"
        }],
        "contextObj": {
            "name": "frmStandingInstructions",
            "type": "forms",
            "platform": "",
            "KUID": "cf89335dd93d4b46a77376646c7657ea"
        },
        "language": "js",
        "actions": [{
            "id": "ADD_SNIPPET__g432f4e640664194a3c90ea94b767c89",
            "type": "ADD_SNIPPET",
            "codeSnippet": "frmFilterSI.show();",
            "parentId": null,
            "callbackType": null
        }]
    }
}