{
    "AS_TextField_deb58d1a925045df99935d539e9c06af": {
        "id": "AS_TextField_deb58d1a925045df99935d539e9c06af",
        "type": "ACTION_SEQUENCE",
        "name": "AS_onEndEditingAddressAndroid",
        "params": [{
            "datatype": "collection",
            "name": "eventobject"
        }, {
            "datatype": "string",
            "name": "changedtext"
        }],
        "language": "js",
        "actions": [{
            "id": "ADD_SNIPPET_ide_onEndEditing_g81bfbfd6f1f4958803134a1b0637e28",
            "type": "ADD_SNIPPET",
            "codeSnippet": "kony.boj.addBeneNextStatus();\nanimateLabel(\"DOWN\", \"lblAddressBene\", frmAddExternalAccountKA.tbxAddressBene.text);\nif(kony.boj.addBeneVar.selectedType === \"DOM\")\n  kony.boj.addBeneficiaryAnimation(\"lblAccountNumber\");\nelse\n  kony.boj.addBeneficiaryAnimation(\"lblCityName\");",
            "callbackType": null
        }]
    }
}