{
    "AS_FlexContainer_hecccea50fb44b9b811679bfb49978c3": {
        "id": "AS_FlexContainer_hecccea50fb44b9b811679bfb49978c3",
        "type": "ACTION_SEQUENCE",
        "name": "AS_onclickBackofConfirmtoorderCheckBookform",
        "params": [{
            "datatype": "collection",
            "name": "eventobject"
        }],
        "language": "js",
        "actions": [{
            "id": "ADD_SNIPPET_ide_onClick_f82986e211f74fb892690bb1d433cf82",
            "type": "ADD_SNIPPET",
            "codeSnippet": "frmOrderCheckBook.show();",
            "callbackType": null
        }]
    }
}