{
    "AS_Form_fa93e0d5b298420fb4c13fce1b735839": {
        "id": "AS_Form_fa93e0d5b298420fb4c13fce1b735839",
        "type": "ACTION_SEQUENCE",
        "name": "AS_PayeeDetailsPreshow",
        "params": [{
            "datatype": "collection",
            "name": "eventobject"
        }],
        "contextObj": {
            "name": "frmPayeeDetailsKA",
            "type": "forms",
            "platform": "",
            "KUID": "eee6ed64af6148fd817b4b732ba55ecc"
        },
        "language": "js",
        "actions": [{
            "id": "ADD_SNIPPET__181f7e2ab5224ababd8fa1228fbf717f",
            "type": "ADD_SNIPPET",
            "codeSnippet": "// PopulatePayeeDetails();\nkony.boj.preshowPayeeDetails();",
            "parentId": null,
            "callbackType": null
        }]
    }
}