{
    "AS_Form_b7beb66108cf4da4a9ffb2fa88d3e21c": {
        "id": "AS_Form_b7beb66108cf4da4a9ffb2fa88d3e21c",
        "type": "ACTION_SEQUENCE",
        "name": "AS_preShowManagePayee",
        "params": [{
            "datatype": "collection",
            "name": "eventobject"
        }],
        "contextObj": {
            "name": "frmManagePayeeKA",
            "type": "forms",
            "platform": "",
            "KUID": "794f84071c7c4320866cf3978ca5357e"
        },
        "language": "js",
        "actions": [{
            "id": "ADD_SNIPPET__df0aecc109514341b7c10498bc456bc9",
            "type": "ADD_SNIPPET",
            "codeSnippet": "kony.boj.preshowManagePayee();\ngblBillHome = \"Biller\";",
            "parentId": null,
            "callbackType": null
        }]
    }
}