{
    "AS_Form_b008a95f9eab4724bfabe353e0e3f53d": {
        "id": "AS_Form_b008a95f9eab4724bfabe353e0e3f53d",
        "type": "ACTION_SEQUENCE",
        "name": "AS_postShowAddNewPayee",
        "params": [{
            "datatype": "collection",
            "name": "eventobject"
        }],
        "contextObj": {
            "name": "frmAddNewPayeeKA",
            "type": "forms",
            "platform": "",
            "KUID": "22b994296d374ff48427012b2b05feb7"
        },
        "language": "js",
        "actions": [{
            "id": "ADD_SNIPPET__a6d85ca4219e41ae879033294d626c31",
            "type": "ADD_SNIPPET",
            "codeSnippet": "if(kony.boj.addBillerFromQuickPay){\n  kony.boj.restoreBillerTabDetails();\n  frmAddNewPayeeKA.tbxBillerNumber.text = frmNewBillKA.tbxBillerNumber.text.replace(/\\s/g,\"\");\n  kony.boj.storeDetailsAddBiller(\"BillerNumber\", frmAddNewPayeeKA.tbxBillerNumber.text);\n  animateLabel(\"UP\", \"lblBillerNumber\",frmAddNewPayeeKA.tbxBillerNumber.text);\n  kony.boj.addBillerFromQuickPay = false;\n}",
            "parentId": null,
            "callbackType": null
        }]
    }
}