{
    "AS_Segment_602be2c19d0c4be980bd64793bd8c4bb": {
        "id": "AS_Segment_602be2c19d0c4be980bd64793bd8c4bb",
        "type": "ACTION_SEQUENCE",
        "params": [{
            "datatype": "collection",
            "name": "eventobject"
        }, {
            "datatype": "number",
            "name": "sectionNumber"
        }, {
            "datatype": "number",
            "name": "rowNumber"
        }],
        "contextObj": {
            "name": "frmAccountDetailKA",
            "type": "forms",
            "platform": "",
            "KUID": "5ed703cad63c441882fc4a36f5ea0c28"
        },
        "language": "js",
        "actions": [{
            "id": "ADD_SNIPPET_ide_onRowClick_5c7f379ba8d74c7888e99dacd87c291b",
            "type": "ADD_SNIPPET",
            "codeSnippet": "navigateToTransactionDetailsAccounts(\"frmAccountDetailKA\",\"frmRecentTransactionDetailsKA\",\"scheduledTransactionSegment\");",
            "callbackType": null
        }]
    }
}