{
    "AS_Switch_0072d302d54d4ed8bde8211d0dae3a4f": {
        "id": "AS_Switch_0072d302d54d4ed8bde8211d0dae3a4f",
        "type": "ACTION_SEQUENCE",
        "params": [{
            "datatype": "collection",
            "name": "eventobject"
        }],
        "language": "js",
        "actions": [{
            "id": "ADD_SNIPPET_ide_onSlide_bffe5069a3ed4abfb382c2d9aa6a74a0",
            "type": "ADD_SNIPPET",
            "codeSnippet": "selectAmountRange();",
            "callbackType": null
        }]
    }
}