{
    "AS_Segment_hafe5d839c6c438fb6abe5dc96a7d0cd": {
        "id": "AS_Segment_hafe5d839c6c438fb6abe5dc96a7d0cd",
        "type": "ACTION_SEQUENCE",
        "params": [{
            "datatype": "collection",
            "name": "eventobject"
        }, {
            "datatype": "number",
            "name": "sectionNumber"
        }, {
            "datatype": "number",
            "name": "rowNumber"
        }],
        "language": "js",
        "actions": [{
            "id": "ADD_SNIPPET_ide_onRowClick_f887c029baca42aea82848e7ec6cde4b",
            "type": "ADD_SNIPPET",
            "codeSnippet": "frmNewTransferKA.lblPOT.text = frmNewTransferKA.segFre.selectedRowItems[0].lblfrequency;\nfrmConfirmTransferKA.lblRemmit.text = frmNewTransferKA.segFre.selectedRowItems[0].lblKey;\nfrmConfirmTransferKA.lblPurposeofTransfer.text = frmNewTransferKA.segFre.selectedRowItems[0].lblfrequency;\nfrmNewTransferKA.flxPOTPopup.setVisibility(false);",
            "callbackType": null
        }]
    }
}