{
    "AS_Segment_dcb9aaab035e43bfa1637a1359e9d45b": {
        "id": "AS_Segment_dcb9aaab035e43bfa1637a1359e9d45b",
        "type": "ACTION_SEQUENCE",
        "params": [{
            "datatype": "collection",
            "name": "eventobject"
        }, {
            "datatype": "number",
            "name": "sectionNumber"
        }, {
            "datatype": "number",
            "name": "rowNumber"
        }],
        "language": "js",
        "actions": [{
            "id": "ADD_SNIPPET_ide_onRowClick_hcb6a0d922b24be7a5ed73472d14f110",
            "type": "ADD_SNIPPET",
            "codeSnippet": "navigateToTransactionDetailsAccounts(\"frmAccountDetailKA\",\"frmRecentTransactionDetailsKA\",\"scheduledTransactionSegment\");",
            "callbackType": null
        }]
    }
}