{
    "AS_Segment_d1273449bff042fbae04def14f6fa0b6": {
        "id": "AS_Segment_d1273449bff042fbae04def14f6fa0b6",
        "type": "ACTION_SEQUENCE",
        "name": "AS_Segment_ontouchStartQuickAccSettings",
        "params": [{
            "datatype": "collection",
            "name": "eventobject"
        }, {
            "datatype": "string",
            "name": "x"
        }, {
            "datatype": "string",
            "name": "y"
        }],
        "contextObj": {
            "name": "frmAuthorizationAlternatives",
            "type": "forms",
            "platform": "",
            "KUID": "d410b4cb8325465eb5a9cb0f8e472aec"
        },
        "language": "js",
        "actions": [{
            "id": "ADD_SNIPPET__fdbf741b99d249f7b535884b20e83608",
            "type": "ADD_SNIPPET",
            "codeSnippet": "frmAuthorizationAlternatives.FlexScrollContainer0ade157aa36f344.setFocus();",
            "parentId": null,
            "callbackType": null
        }]
    }
}