{
    "AS_Segment_a8b456f5d75148ff8c5bafe8aa321ae6": {
        "id": "AS_Segment_a8b456f5d75148ff8c5bafe8aa321ae6",
        "type": "ACTION_SEQUENCE",
        "params": [{
            "datatype": "collection",
            "name": "eventobject"
        }, {
            "datatype": "number",
            "name": "sectionNumber"
        }, {
            "datatype": "number",
            "name": "rowNumber"
        }],
        "contextObj": {
            "name": "frmNewCashWithdrawKA",
            "type": "forms",
            "platform": "",
            "KUID": "c61ad12e0ab14a518f43b91ce1670e1d"
        },
        "language": "js",
        "actions": [{
            "id": "ADD_SNIPPET__da8ccf5b0a6747ddb9886250aa3fe2c8",
            "type": "ADD_SNIPPET",
            "codeSnippet": "\nvar vc = new kony.rb.frmNewCashWithdrawViewController();\n vc.onClickOfFromSegment();",
            "parentId": null,
            "callbackType": null
        }]
    }
}