{
    "AS_TextField_a31a39ab8ee64d80bea82659430f8fed": {
        "id": "AS_TextField_a31a39ab8ee64d80bea82659430f8fed",
        "type": "ACTION_SEQUENCE",
        "params": [{
            "datatype": "collection",
            "name": "eventobject"
        }, {
            "datatype": "string",
            "name": "changedtext"
        }],
        "language": "js",
        "actions": [{
            "id": "ADD_SNIPPET_ide_onBeginEditing_b6cc915660214e68b79de11259646955",
            "type": "ADD_SNIPPET",
            "codeSnippet": "frmCardlessTransaction.flxBorderAmount.skin=\"skntextFieldDividerBlue\";",
            "callbackType": null
        }]
    }
}