{
    "AS_TextField_cfb3186419c24b1db3a561c25d804905": {
        "id": "AS_TextField_cfb3186419c24b1db3a561c25d804905",
        "type": "ACTION_SEQUENCE",
        "params": [{
            "datatype": "collection",
            "name": "eventobject"
        }, {
            "datatype": "string",
            "name": "changedtext"
        }],
        "contextObj": {
            "name": "frmAddNewPrePayeeKA",
            "type": "forms",
            "platform": null,
            "KUID": "a843292d9c674ff7ba10a9b594b7e7e5"
        },
        "language": "js",
        "actions": [{
            "id": "ADD_SNIPPET_ide_onEndEditing_e56fbf984ab8403baca384f3030d9a96",
            "type": "ADD_SNIPPET",
            "codeSnippet": "animateLabel(\"DOWN\", \"lblBillerID\",frmAddNewPayeeKA.tbxBillerID.text);",
            "callbackType": null
        }]
    }
}