{
    "AS_TextField_c455a979d0fb4ac8917a9a10a35d9b78": {
        "id": "AS_TextField_c455a979d0fb4ac8917a9a10a35d9b78",
        "type": "ACTION_SEQUENCE",
        "params": [{
            "datatype": "collection",
            "name": "eventobject"
        }, {
            "datatype": "string",
            "name": "changedtext"
        }],
        "language": "js",
        "actions": [{
            "id": "ADD_SNIPPET_ide_onBeginEditing_c84dead93dc1409e98ed1886829283d4",
            "type": "ADD_SNIPPET",
            "codeSnippet": "frmJoMoPay.flxBorderBenificiary.skin=\"skntextFieldDividerBlue\";",
            "callbackType": null
        }]
    }
}