{
    "AS_TextField_j4077d4d546e481f903e918a067c5ec9": {
        "id": "AS_TextField_j4077d4d546e481f903e918a067c5ec9",
        "type": "ACTION_SEQUENCE",
        "params": [{
            "datatype": "collection",
            "name": "eventobject"
        }, {
            "datatype": "string",
            "name": "changedtext"
        }],
        "language": "js",
        "actions": [{
            "id": "ADD_SNIPPET_ide_onEndEditing_a83a6d107831407a86aca3caa1199ab0",
            "type": "ADD_SNIPPET",
            "codeSnippet": "// animateLabel(\"DOWN\",\"lblBeneficiaryStaticText\",frmJoMoPay.txtPhoneNo.text);\nanimate_NEWCARDSOPTIOS(\"DOWN\",\"lblBeneficiaryStaticText\",frmJoMoPay.txtPhoneNo.text);\nfrmJoMoPay.flxBorderBenificiary.skin=\"skntextFieldDividerGreen\";",
            "callbackType": null
        }]
    }
}