{
    "AS_TextField_119834eb2135430abc490b1aeb0ba7c2": {
        "id": "AS_TextField_119834eb2135430abc490b1aeb0ba7c2",
        "type": "ACTION_SEQUENCE",
        "params": [{
            "datatype": "collection",
            "name": "eventobject"
        }, {
            "datatype": "string",
            "name": "x"
        }, {
            "datatype": "string",
            "name": "y"
        }],
        "language": "js",
        "actions": [{
            "id": "ADD_SNIPPET_ide_onTouchStart_11e501ec0bd64d03b375fe00f644377f",
            "type": "ADD_SNIPPET",
            "codeSnippet": "frmLoginKA.lblInvalidCredentialsKA.isVisible = false;\nfrmLoginKA.CopyborderBottom0239deae80c7042.skin=\"skntextFieldDividerBlue\";",
            "callbackType": null
        }]
    }
}