{
    "AS_TextField_1bf0f9d628104f34bbac1e31416e1cb1": {
        "id": "AS_TextField_1bf0f9d628104f34bbac1e31416e1cb1",
        "type": "ACTION_SEQUENCE",
        "params": [{
            "datatype": "collection",
            "name": "eventobject"
        }, {
            "datatype": "string",
            "name": "changedtext"
        }],
        "language": "js",
        "actions": [{
            "id": "ADD_SNIPPET_ide_onTextChange_f8c4ede826364c3fa4f9c8bdcc47a243",
            "type": "ADD_SNIPPET",
            "codeSnippet": "frmNewBillKA.lblInvalidAmount.isVisible=false;\nvalidateDecimals(frmNewBillKA.amountTextField.text);",
            "callbackType": null
        }]
    }
}