{
    "AS_TextField_ef2396f2621d47888126f1422be57b3b": {
        "id": "AS_TextField_ef2396f2621d47888126f1422be57b3b",
        "type": "ACTION_SEQUENCE",
        "name": "AS_TextField_onTouchEndTxtMobileNo",
        "params": [{
            "datatype": "collection",
            "name": "eventobject"
        }, {
            "datatype": "string",
            "name": "x"
        }, {
            "datatype": "string",
            "name": "y"
        }],
        "contextObj": {
            "name": "frmEPS",
            "type": "forms",
            "platform": "",
            "KUID": "c49bbb3175be499d86d933cee301b3c4"
        },
        "language": "js",
        "actions": [{
            "id": "ADD_SNIPPET__h2198390ce6f4a7cb97b8c237ee03e0f",
            "type": "ADD_SNIPPET",
            "codeSnippet": "animateLabel(\"UP\",\"lblAliasNameMob\",frmEPS.txtAliasNameMob.text);",
            "parentId": null,
            "callbackType": null
        }]
    }
}