{
    "AS_TextField_c7b1b32615cb4a0ca25424c48320bd0c": {
        "id": "AS_TextField_c7b1b32615cb4a0ca25424c48320bd0c",
        "type": "ACTION_SEQUENCE",
        "params": [{
            "datatype": "collection",
            "name": "eventobject"
        }, {
            "datatype": "string",
            "name": "changedtext"
        }],
        "contextObj": {
            "name": "frmLoginKA",
            "type": "forms",
            "platform": "",
            "KUID": "7b1aa8fceb6b4070833e9eab879b0e5e"
        },
        "language": "js",
        "actions": [{
            "id": "ADD_SNIPPET__ddcec351131948fc930caa45a78d35d7",
            "type": "ADD_SNIPPET",
            "codeSnippet": "frmLoginKA.borderBottom.skin=\"skntextFieldDividerGreen\";",
            "parentId": null,
            "callbackType": null
        }]
    }
}