{
    "AS_TextField_b37df8e1c1534196a0df05647d7bcff0": {
        "id": "AS_TextField_b37df8e1c1534196a0df05647d7bcff0",
        "type": "ACTION_SEQUENCE",
        "params": [{
            "datatype": "collection",
            "name": "eventobject"
        }, {
            "datatype": "string",
            "name": "changedtext"
        }],
        "language": "js",
        "actions": [{
            "id": "ADD_SNIPPET_ide_onTextChange_i176ea1d836140d6a33e63db3943788e",
            "type": "ADD_SNIPPET",
            "codeSnippet": "if(new RegExp(/[^0-9]/g).test(frmJOMOPayAddBiller.txtBeneficiaryMobile.text)){\n\tfrmJOMOPayAddBiller.flxBorderBenificiary.skin = \"skntextFieldDividerOrange\";\n}else{\n\tfrmJOMOPayAddBiller.flxBorderBenificiary.skin = \"skntextFieldDividerGreen\";\n}"
        }]
    }
}