{
    "AS_TextField_a4ce443baabb4663b0ac73ca4d592727": {
        "id": "AS_TextField_a4ce443baabb4663b0ac73ca4d592727",
        "type": "ACTION_SEQUENCE",
        "params": [{
            "datatype": "collection",
            "name": "eventobject"
        }, {
            "datatype": "string",
            "name": "changedtext"
        }],
        "language": "js",
        "actions": [{
            "id": "ADD_SNIPPET_ide_onEndEditing_j5a892deabf049558222850c44284c0c",
            "type": "ADD_SNIPPET",
            "codeSnippet": "animateLabel(\"DOWN\",\"lblDescription\",frmNewTransferKA.txtDesc.text);",
            "callbackType": null
        }]
    }
}