{
    "AS_TextField_00b59386762d49668ac65ae925cffeb9": {
        "id": "AS_TextField_00b59386762d49668ac65ae925cffeb9",
        "type": "ACTION_SEQUENCE",
        "params": [{
            "datatype": "collection",
            "name": "eventobject"
        }, {
            "datatype": "string",
            "name": "changedtext"
        }],
        "contextObj": {
            "name": "frmNewPayPersonKA",
            "type": "forms",
            "platform": "",
            "KUID": "1df7248b622b405fb1a73c4deef77bd8"
        },
        "language": "js",
        "actions": [{
            "id": "ADD_SNIPPET__391f2cb873604ec58e2b0153ba660242",
            "type": "ADD_SNIPPET",
            "codeSnippet": "CanEnableSelPayeeBtn();",
            "parentId": null,
            "callbackType": null
        }]
    }
}