{
    "AS_TextField_ccc322f23b79454fbfcb68a7d61711d4": {
        "id": "AS_TextField_ccc322f23b79454fbfcb68a7d61711d4",
        "type": "ACTION_SEQUENCE",
        "params": [{
            "datatype": "collection",
            "name": "eventobject"
        }, {
            "datatype": "string",
            "name": "changedtext"
        }],
        "language": "js",
        "actions": [{
            "id": "ADD_SNIPPET_ide_onEndEditing_g882411edc774d448104a31741783228",
            "type": "ADD_SNIPPET",
            "codeSnippet": "try{\n  if(frmEstatementLandingKA.txtEmail1.text!==null && frmEstatementLandingKA.txtEmail1.text!==\"\")\n  {\n    frmEstatementLandingKA.borderBottom1.skin=\"skntextFieldDividerGreen\";\n  }\n  else\n  {\n    frmEstatementLandingKA.borderBottom1.skin=\"skntextFieldDivider\";\n  }\n  animateLabel(\"DOWN\",\"lblEmail1\",frmEstatementLandingKA.txtEmail1.text);\n  animateLabel(\"DOWN\",\"lblEmail2\",frmEstatementLandingKA.txtEmail2.text);\n}catch(err){\n  kony.print( \"err in pwd::\"+err);\n}\n",
            "callbackType": null
        }]
    }
}