{
    "AS_TextField_d2e6eecfc7e548b3ba6d46eab132dd0c": {
        "id": "AS_TextField_d2e6eecfc7e548b3ba6d46eab132dd0c",
        "type": "ACTION_SEQUENCE",
        "params": [{
            "datatype": "collection",
            "name": "eventobject"
        }, {
            "datatype": "string",
            "name": "changedtext"
        }],
        "contextObj": {
            "name": "frmNewTransferKA",
            "type": "forms",
            "platform": "",
            "KUID": "2ac343500306428da0ceef91a3b44d18"
        },
        "language": "js",
        "actions": [{
            "id": "ADD_SNIPPET__b311d99395a24652817e16393128fc81",
            "type": "ADD_SNIPPET",
            "codeSnippet": "var Text=frmNewTransferKA.txtDesc.text;\nanimateLabel(\"UP\",\"lblDescription\",Text);\nif(Text.match(/[^A-Za-z0-9\\s]/g)){\n\tcustomAlertPopup(geti18Value(\"i18n.maps.Info\"), geti18Value(\"i18n.common.englishonly\"), popupCommonAlertDimiss, null, \"\", \"\");\n\tfrmNewTransferKA.txtDesc.text = Text.replace(/[^A-Za-z0-9,.\\s]/g,\"\");\n\tfrmNewTransferKA.lblNext.skin = sknLblNextDisabled;\n}else\n\tenableNext();",
            "parentId": null,
            "callbackType": null
        }]
    }
}