{
    "AS_TextField_bdc8236ffe7a4d77822b3a2a41441271": {
        "id": "AS_TextField_bdc8236ffe7a4d77822b3a2a41441271",
        "type": "ACTION_SEQUENCE",
        "params": [{
            "datatype": "collection",
            "name": "eventobject"
        }, {
            "datatype": "string",
            "name": "changedtext"
        }],
        "contextObj": {
            "name": "frmLoginKA",
            "type": "forms",
            "platform": "",
            "KUID": "7b1aa8fceb6b4070833e9eab879b0e5e"
        },
        "language": "js",
        "actions": [{
            "id": "ADD_SNIPPET__d6945513f88b47c686e3f91f98cf1e95",
            "type": "ADD_SNIPPET",
            "codeSnippet": "try{\n  frmLoginKA.borderBottom.skin=\"skntextFieldDividerBlue\";\n}catch(err){\n  kony.print( \"err in pwd::\"+err);\n}",
            "parentId": null
        }]
    }
}