{
    "AS_TextField_facf8aec7c74486baae9c373049ddb98": {
        "id": "AS_TextField_facf8aec7c74486baae9c373049ddb98",
        "type": "ACTION_SEQUENCE",
        "params": [{
            "datatype": "collection",
            "name": "eventobject"
        }, {
            "datatype": "string",
            "name": "changedtext"
        }],
        "language": "js",
        "actions": [{
            "id": "ADD_SNIPPET_ide_onTextChange_i50a71630c4149f2b272d03071af853e",
            "type": "ADD_SNIPPET",
            "codeSnippet": "if(new RegExp(/[^0-9]/g).test(frmJOMOPayAddBiller.txtBeneficiaryMobile.text)){\n\tfrmJOMOPayAddBiller.flxBorderBenificiary.skin = \"skntextFieldDividerOrange\";\n}else{\n\tfrmJOMOPayAddBiller.flxBorderBenificiary.skin = \"skntextFieldDividerGreen\";\n}"
        }]
    }
}