{
    "AS_TextField_g6d63bb695ad4d709f4c5597729064cc": {
        "id": "AS_TextField_g6d63bb695ad4d709f4c5597729064cc",
        "type": "ACTION_SEQUENCE",
        "params": [{
            "datatype": "collection",
            "name": "eventobject"
        }, {
            "datatype": "string",
            "name": "changedtext"
        }],
        "contextObj": {
            "name": "frmContactListphn",
            "type": "forms",
            "platform": "",
            "KUID": "i5c8139fc71b4520a7b73c51c650d654"
        },
        "language": "js",
        "actions": [{
            "id": "ADD_SNIPPET__b5d1dc721311412ca14d307cfff4a212",
            "type": "ADD_SNIPPET",
            "codeSnippet": "var vc=applicationManager.getfrmContactListphnViewController();\nvc.searchContacts();\n\n\n",
            "parentId": null,
            "callbackType": null
        }]
    }
}