{
    "AS_TextField_196a1c4adaac404b97429c8a82e151b0": {
        "id": "AS_TextField_196a1c4adaac404b97429c8a82e151b0",
        "type": "ACTION_SEQUENCE",
        "params": [{
            "datatype": "collection",
            "name": "eventobject"
        }, {
            "datatype": "string",
            "name": "changedtext"
        }],
        "contextObj": {
            "name": "frmP2PphonepayeeKA",
            "type": "forms",
            "platform": "",
            "KUID": "28dd657fd46d44f99b4f344da39c5ea9"
        },
        "language": "js",
        "actions": [{
            "id": "ADD_SNIPPET__9dec7048665d4147a3a39475dcdac252",
            "type": "ADD_SNIPPET",
            "codeSnippet": "searchContacts();",
            "parentId": null,
            "callbackType": null
        }]
    }
}