{
    "AS_TextField_f64da55feacc40bbb9484ecefef86e04": {
        "id": "AS_TextField_f64da55feacc40bbb9484ecefef86e04",
        "type": "ACTION_SEQUENCE",
        "params": [{
            "datatype": "collection",
            "name": "eventobject"
        }, {
            "datatype": "string",
            "name": "changedtext"
        }],
        "contextObj": {
            "name": "frmUserSettingsSiri",
            "type": "forms",
            "platform": "",
            "KUID": "f6a73333c5b04d9f97a80b02ff57e6ae"
        },
        "language": "js",
        "actions": [{
            "id": "ADD_SNIPPET__j3fc4cb4d251465eb868a285dd5f573e",
            "type": "ADD_SNIPPET",
            "codeSnippet": "onTextChangetxtSiriLimit();",
            "parentId": null,
            "callbackType": null
        }]
    }
}