{
    "AS_TextField_geb0b0ec3f164e7c94fa918995d30e25": {
        "id": "AS_TextField_geb0b0ec3f164e7c94fa918995d30e25",
        "type": "ACTION_SEQUENCE",
        "name": "AS_TextField_addNicknameOntextChange",
        "params": [{
            "datatype": "collection",
            "name": "eventobject"
        }, {
            "datatype": "string",
            "name": "changedtext"
        }],
        "language": "js",
        "actions": [{
            "id": "ADD_SNIPPET_ide_onTextChange_f6d21848a06c494b8d3172dc3af769a1",
            "type": "ADD_SNIPPET",
            "codeSnippet": "animateLabel(\"UP\",\"lblAddNickName\",frmEditAccountSettings.txtAddNickName.text);\n frmEditAccountSettings.btnEdit.text = \"O\";\n ",
            "callbackType": null
        }]
    }
}