{
    "AS_TextField_a6480ab733ca4dd5bb13eb3c0d0a1ae3": {
        "id": "AS_TextField_a6480ab733ca4dd5bb13eb3c0d0a1ae3",
        "type": "ACTION_SEQUENCE",
        "params": [{
            "datatype": "collection",
            "name": "eventobject"
        }, {
            "datatype": "string",
            "name": "changedtext"
        }],
        "language": "js",
        "actions": [{
            "id": "ADD_SNIPPET_ide_onDone_g5a1e04cf972496fa8d6d58120f8ab67",
            "type": "ADD_SNIPPET",
            "codeSnippet": "if(frmJoMoPayLanding.txtSearch.text==\"\"||frmJoMoPayLanding.txtSearch.text==null)\n  {\n   flag=1;\n    kony.boj.JomopayLanding(flag,frmJoMoPayLanding.txtSearch.text);\n  }\nelse\n  {\nflag=2;\nkony.boj.JomopayLanding(flag,frmJoMoPayLanding.txtSearch.text);\n  }",
            "callbackType": null
        }]
    }
}