{
    "AS_TextField_3a319f9c4cc0438c9ab6e3db060c786f": {
        "id": "AS_TextField_3a319f9c4cc0438c9ab6e3db060c786f",
        "type": "ACTION_SEQUENCE",
        "params": [{
            "datatype": "collection",
            "name": "eventobject"
        }, {
            "datatype": "string",
            "name": "changedtext"
        }],
        "contextObj": {
            "name": "frmSearchOptionsKA",
            "type": "forms",
            "platform": "",
            "KUID": "400a0ee97eb04e5897318084b1271b8a"
        },
        "language": "js",
        "actions": [{
            "id": "ADD_SNIPPET__bf789887fdd64f56b9ff3bc00aba9635",
            "type": "ADD_SNIPPET",
            "codeSnippet": "compareAmountFields();",
            "parentId": null,
            "callbackType": null
        }]
    }
}