{
    "AS_TextField_ce76bf8811844060a6984e2b96b684dc": {
        "id": "AS_TextField_ce76bf8811844060a6984e2b96b684dc",
        "type": "ACTION_SEQUENCE",
        "name": "AS_TextField_onEndEditingAndroidAliasNameMobEPS",
        "params": [{
            "datatype": "collection",
            "name": "eventobject"
        }, {
            "datatype": "string",
            "name": "changedtext"
        }],
        "contextObj": {
            "name": "frmEPS",
            "type": "forms",
            "platform": "",
            "KUID": "c49bbb3175be499d86d933cee301b3c4"
        },
        "language": "js",
        "actions": [{
            "id": "ADD_SNIPPET__ibec244832de4a9b99776300e4610275",
            "type": "ADD_SNIPPET",
            "codeSnippet": "animateLabel(\"DOWN\",\"lblAliasNameMob\",frmEPS.txtAliasNameMob.text);",
            "parentId": null,
            "callbackType": null
        }]
    }
}