{
    "AS_TextField_a6f21b2f66bd4fe0a24332bacbe87a11": {
        "id": "AS_TextField_a6f21b2f66bd4fe0a24332bacbe87a11",
        "type": "ACTION_SEQUENCE",
        "params": [{
            "datatype": "collection",
            "name": "eventobject"
        }, {
            "datatype": "string",
            "name": "changedtext"
        }],
        "contextObj": {
            "name": "frmLoginKA",
            "type": "forms",
            "platform": "",
            "KUID": "7b1aa8fceb6b4070833e9eab879b0e5e"
        },
        "language": "js",
        "actions": [{
            "id": "ADD_SNIPPET__c4eadc50a910423db625a86c7a55de44",
            "type": "ADD_SNIPPET",
            "codeSnippet": "frmLoginKA.borderBottom.skin=\"skntextFieldDividerBlue\";",
            "parentId": null,
            "callbackType": null
        }]
    }
}