{
    "AS_FlexContainer_e43e7f227ceb496c849ca8ca75147213": {
        "id": "AS_FlexContainer_e43e7f227ceb496c849ca8ca75147213",
        "type": "ACTION_SEQUENCE",
        "name": "BackOnConfirmSI",
        "params": [{
            "datatype": "collection",
            "name": "eventobject"
        }],
        "contextObj": {
            "name": "frmConfirmStandingInstructions",
            "type": "forms",
            "platform": "",
            "KUID": "c04448ebd0f445be9d93e4b0b1d40452"
        },
        "language": "js",
        "actions": [{
            "id": "ADD_SNIPPET__d275ed5c3bac41b698fe880b26e40202",
            "type": "ADD_SNIPPET",
            "codeSnippet": "frmStandingInstructions.flxAccountDetailsSort.top = \"5%\"\nfrmStandingInstructions.show();",
            "parentId": null,
            "callbackType": null
        }]
    }
}