{
    "AS_Label_c71cd08657254db5ab3ca89bb1e72c54": {
        "id": "AS_Label_c71cd08657254db5ab3ca89bb1e72c54",
        "type": "ACTION_SEQUENCE",
        "name": "backToaccountDashboardfromAccountDetail",
        "params": [{
            "datatype": "collection",
            "name": "eventobject"
        }, {
            "datatype": "string",
            "name": "x"
        }, {
            "datatype": "string",
            "name": "y"
        }],
        "contextObj": {
            "name": "frmAccountDetailKA",
            "type": "forms",
            "platform": "",
            "KUID": "5ed703cad63c441882fc4a36f5ea0c28"
        },
        "language": "js",
        "actions": [{
            "id": "ADD_SNIPPET__a029e8a98cdd46bda7adab3baaa053ff",
            "type": "ADD_SNIPPET",
            "codeSnippet": "frmAccountsLandingKA.flxAccountsMain.setVisibility(true);\nfrmAccountsLandingKA.flxDeals.setVisibility(false);\nfrmAccountsLandingKA.flxLoans.setVisibility(false);\nfrmAccountsLandingKA.forceLayout();\nkony.retailBanking.globalData.globals.accountDashboardFlowFlag = false;\nif(frmAccountDetailKA.flxAccountdetailsSortContainer.top != \"100%\"){\n\tanimatePopup_Sort();\n}\nfrmAccountDetailKA.imgSortDateAsc.src = \"map_arrow_straight_nonselected.png\";\nfrmAccountDetailKA.imgSortDateDesc.src = \"map_arrow_down_nonselected.png\";\nfrmAccountDetailKA.imgSortAmountAsc.src = \"map_arrow_straight_nonselected.png\";\nfrmAccountDetailKA.imgSortAmountDesc.src = \"map_arrow_down_nonselected.png\";\naccountDashboardDataCall();\nkony.print(\"Nav transaction to Dadhboard:::\");",
            "parentId": null,
            "callbackType": null
        }]
    }
}