{
    "AS_Button_bb1c48de43ac45aa89f4de7c0cf4483c": {
        "id": "AS_Button_bb1c48de43ac45aa89f4de7c0cf4483c",
        "type": "ACTION_SEQUENCE",
        "name": "backtologinfrominfo",
        "params": [{
            "datatype": "collection",
            "name": "eventobject"
        }],
        "contextObj": {
            "name": "frmContactUsKA",
            "type": "forms",
            "platform": "",
            "KUID": "3730b7e8806c47969fff751b469e1811"
        },
        "language": "js",
        "actions": [{
            "id": "ADD_SNIPPET__h8adf879ef264a17a0676c476be07269",
            "type": "ADD_SNIPPET",
            "codeSnippet": "frmLoginKA.show();",
            "parentId": null,
            "callbackType": null
        }]
    }
}