{
    "AS_Button_2b503b1cb0f4476f8741722dc3d9a9c4": {
        "id": "AS_Button_2b503b1cb0f4476f8741722dc3d9a9c4",
        "type": "ACTION_SEQUENCE",
        "name": "btn8_frmLoginKA",
        "params": [{
            "datatype": "collection",
            "name": "eventobject"
        }],
        "contextObj": {
            "name": "frmLoginKA",
            "type": "forms",
            "platform": "",
            "KUID": "7b1aa8fceb6b4070833e9eab879b0e5e"
        },
        "language": "js",
        "actions": [{
            "id": "ADD_SNIPPET__ffcad4e9e2e8445a9a32b1b1d120eff2",
            "type": "ADD_SNIPPET",
            "codeSnippet": "check_Login_Pin(8);",
            "parentId": null,
            "callbackType": null
        }]
    }
}