{
    "AS_Button_6cd352794f97466cafb83613bb9572ef": {
        "id": "AS_Button_6cd352794f97466cafb83613bb9572ef",
        "type": "ACTION_SEQUENCE",
        "name": "btnCancelSettingsEditPassword",
        "params": [{
            "datatype": "collection",
            "name": "eventobject"
        }],
        "contextObj": {
            "name": "frmUserSettingsEditPasswordKA",
            "type": "forms",
            "platform": "",
            "KUID": "c968931d2e6e4741bd77f49329ffbaac"
        },
        "language": "js",
        "actions": [{
            "id": "ADD_SNIPPET__bde5cfcbc51342508cb7f0096729046d",
            "type": "ADD_SNIPPET",
            "codeSnippet": "kony.print(\"Removed\");",
            "parentId": null,
            "callbackType": null
        }]
    }
}