{
    "AS_Button_51259a668b204f7c974f1d13098b9794": {
        "id": "AS_Button_51259a668b204f7c974f1d13098b9794",
        "type": "ACTION_SEQUENCE",
        "name": "btnCancelSettingsUsername",
        "params": [{
            "datatype": "collection",
            "name": "eventobject"
        }],
        "contextObj": {
            "name": "frmUserSettingsUsernameKA",
            "type": "forms",
            "platform": "",
            "KUID": "e7bc6db3364a42289149a87eda940604"
        },
        "language": "js",
        "actions": [{
            "id": "ADD_SNIPPET__ece7246cbef741bfbba87778f043255b",
            "type": "ADD_SNIPPET",
            "codeSnippet": "kony.print(\"Deleted\");",
            "parentId": null,
            "callbackType": null
        }]
    }
}