{
    "AS_Button_cc2cbbafc6d44bc3bee6959c276e9a0e": {
        "id": "AS_Button_cc2cbbafc6d44bc3bee6959c276e9a0e",
        "type": "ACTION_SEQUENCE",
        "name": "btnCancelSettingsPassword",
        "params": [{
            "datatype": "collection",
            "name": "eventobject"
        }],
        "contextObj": {
            "name": "frmUserSettingsPasswordKA",
            "type": "forms",
            "platform": "",
            "KUID": "9c08fa794eaf4f9abfb952f0487f97ac"
        },
        "language": "js",
        "actions": [{
            "id": "ADD_SNIPPET__a01fed2f69554e79942dfbb762ff6ece",
            "type": "ADD_SNIPPET",
            "codeSnippet": "kony.print(\"Deleted\");",
            "parentId": null,
            "callbackType": null
        }]
    }
}