{
    "AS_Button_6e241cb660f94933b711d183ff492fce": {
        "id": "AS_Button_6e241cb660f94933b711d183ff492fce",
        "type": "ACTION_SEQUENCE",
        "name": "btnSubmitSettingsPassword",
        "params": [{
            "datatype": "collection",
            "name": "eventobject"
        }],
        "contextObj": {
            "name": "frmUserSettingsPasswordKA",
            "type": "forms",
            "platform": "",
            "KUID": "9c08fa794eaf4f9abfb952f0487f97ac"
        },
        "language": "js",
        "actions": [{
            "id": "ADD_SNIPPET__f927937d111b4d85b60c71f51d4905a7",
            "type": "ADD_SNIPPET",
            "codeSnippet": "kony.print(\"Deleted\");",
            "parentId": null,
            "callbackType": null
        }]
    }
}