{
    "AS_Button_2d09dd75707b4b2faed3c6f841b70815": {
        "id": "AS_Button_2d09dd75707b4b2faed3c6f841b70815",
        "type": "ACTION_SEQUENCE",
        "name": "btnSubmitSettingsEditPassword",
        "params": [{
            "datatype": "collection",
            "name": "eventobject"
        }],
        "contextObj": {
            "name": "frmUserSettingsEditPasswordKA",
            "type": "forms",
            "platform": "",
            "KUID": "c968931d2e6e4741bd77f49329ffbaac"
        },
        "language": "js",
        "actions": [{
            "id": "ADD_SNIPPET__40e174f081d647be9f003a867ab4894a",
            "type": "ADD_SNIPPET",
            "codeSnippet": "kony.print(\"removed\");",
            "parentId": null,
            "callbackType": null
        }]
    }
}