{
    "AS_Form_hfc6f74bddbe428280026aa9932ac3c5": {
        "id": "AS_Form_hfc6f74bddbe428280026aa9932ac3c5",
        "type": "ACTION_SEQUENCE",
        "name": "DevBackDevRegList",
        "params": [{
            "datatype": "collection",
            "name": "eventobject"
        }],
        "contextObj": {
            "name": "frmDeviceRegistration",
            "type": "forms",
            "platform": "",
            "KUID": "d3f5bb6d97f641aa9040a4a3bbbb5f11"
        },
        "language": "js",
        "actions": [{
            "id": "ADD_SNIPPET__cbaa658c258545e98f33d89b3b0a3a77",
            "type": "ADD_SNIPPET",
            "codeSnippet": "frmSettingsKA.show();",
            "parentId": null,
            "callbackType": null
        }]
    }
}