{
    "AS_Form_hdf96a8fa9e746ecbf48592f435d5e7c": {
        "id": "AS_Form_hdf96a8fa9e746ecbf48592f435d5e7c",
        "type": "ACTION_SEQUENCE",
        "name": "deviceBackLangChange",
        "params": [{
            "datatype": "collection",
            "name": "eventobject"
        }],
        "contextObj": {
            "name": "frmLanguageChange",
            "type": "forms",
            "platform": "",
            "KUID": "gf87c4f80b864112b53423e6a7ad3af8"
        },
        "language": "js",
        "actions": [{
            "id": "ADD_SNIPPET__c5f354910eaa4370846b427da199c9b3",
            "type": "ADD_SNIPPET",
            "codeSnippet": "kony.print(\"Devicce Back disabled!!!\");",
            "parentId": null,
            "callbackType": null
        }]
    }
}