{
    "AS_Form_a004715c5a07435bb82b9fa6ed8430f8": {
        "id": "AS_Form_a004715c5a07435bb82b9fa6ed8430f8",
        "type": "ACTION_SEQUENCE",
        "name": "disabledbackjomopay",
        "params": [{
            "datatype": "collection",
            "name": "eventobject"
        }],
        "contextObj": {
            "name": "frmJoMoPayLanding",
            "type": "forms",
            "platform": "",
            "KUID": "d298f6fe5af04a4dbf76c2b5625a9f8c"
        },
        "language": "js",
        "actions": [{
            "id": "ADD_SNIPPET__cd1e37bb00a24dd2adba6a44251b38df",
            "type": "ADD_SNIPPET",
            "codeSnippet": "kony.print(\"Device BACK DISABLED\");\ngblTModule = \"\";\nglbJmpFlow = \"\";\nfrmPaymentDashboard.show();",
            "parentId": null,
            "callbackType": null
        }]
    }
}