{
    "AS_Button_b61f936dc80b4c2b89cea606fa60497c": {
        "id": "AS_Button_b61f936dc80b4c2b89cea606fa60497c",
        "type": "ACTION_SEQUENCE",
        "name": "dropDownAccountType",
        "params": [{
            "datatype": "collection",
            "name": "eventobject"
        }],
        "contextObj": {
            "name": "frmJoMoPay",
            "type": "forms",
            "platform": "",
            "KUID": "d41a38dfc97d4e0a8f3b1db96d6a1ca0"
        },
        "language": "js",
        "actions": [{
            "id": "ADD_SNIPPET__b66e013a58334b4498d83472f177a44e",
            "type": "ADD_SNIPPET",
            "codeSnippet": "var fromAccounts = kony.retailBanking.globalData.accountsDashboardData.fromAccounts;\ngblTModule=\"jomo\";\naccountsScreenPreshow(fromAccounts);\nfrmAccountDetailsScreen.show();\n//frmJoMoPay.flxPopupOuter.setVisibility(true);",
            "parentId": null,
            "callbackType": null
        }]
    }
}