{
    "AS_Button_b781a2826fc745ad9fd4187686694f4b": {
        "id": "AS_Button_b781a2826fc745ad9fd4187686694f4b",
        "type": "ACTION_SEQUENCE",
        "name": "dropDownButtonjomopay",
        "params": [{
            "datatype": "collection",
            "name": "eventobject"
        }],
        "contextObj": {
            "name": "frmJoMoPay",
            "type": "forms",
            "platform": null,
            "KUID": "d41a38dfc97d4e0a8f3b1db96d6a1ca0"
        },
        "language": "js",
        "actions": [{
            "id": "ADD_SNIPPET__c20dc0c6348f4bf7ba3a427e678433f2",
            "type": "ADD_SNIPPET",
            "codeSnippet": "kony.boj.JomoPaytransferType(inputObj1,flagtransfertype);\n//frmJoMoPay.flxPopupOuter.setVisibility(true);",
            "parentId": null,
            "callbackType": null
        }]
    }
}