{
    "AS_Form_084182b0dacf46049d4a86a66fe4553c": {
        "id": "AS_Form_084182b0dacf46049d4a86a66fe4553c",
        "type": "ACTION_SEQUENCE",
        "name": "frmDeviceRegistrationSuccessKA_preShow",
        "params": [{
            "datatype": "collection",
            "name": "eventobject"
        }],
        "contextObj": {
            "name": "frmDeviceregistrarionSuccessKA",
            "type": "forms",
            "platform": "",
            "KUID": "71f8ab34e5b2429c81c09a27704cb4a1"
        },
        "language": "js",
        "actions": [{
            "id": "ADD_SNIPPET__8ee28476ce48497482cc6ae4b204db49",
            "type": "ADD_SNIPPET",
            "codeSnippet": "deviceRegsitrationSuccessPreshow();\n",
            "parentId": null,
            "callbackType": null
        }]
    }
}