{
    "AS_Image_58e57997bf6a4f8a922ceb4c368f5938": {
        "id": "AS_Image_58e57997bf6a4f8a922ceb4c368f5938",
        "type": "ACTION_SEQUENCE",
        "name": "imgPhoneKAonTouchEnd",
        "params": [{
            "datatype": "collection",
            "name": "eventobject"
        }, {
            "datatype": "string",
            "name": "x"
        }, {
            "datatype": "string",
            "name": "y"
        }],
        "contextObj": {
            "name": "frmP2PaddnewPayeeKA",
            "type": "forms",
            "platform": "",
            "KUID": "6dd3432a9fd14a5f9f8e953aa892b534"
        },
        "language": "js",
        "actions": [{
            "id": "ADD_SNIPPET__67c6d8d3ed2948bcb7ae2b8a13b74a96",
            "type": "ADD_SNIPPET",
            "codeSnippet": "kony.print(\"Deleted\");",
            "parentId": null,
            "callbackType": null
        }]
    }
}