{
    "AS_Image_a13ab9bb1e8c44c890173dc099fec63f": {
        "id": "AS_Image_a13ab9bb1e8c44c890173dc099fec63f",
        "type": "ACTION_SEQUENCE",
        "name": "imgPinEnableCheckbox",
        "params": [{
            "datatype": "collection",
            "name": "eventobject"
        }, {
            "datatype": "string",
            "name": "x"
        }, {
            "datatype": "string",
            "name": "y"
        }],
        "contextObj": {
            "name": "frmDeviceregistrarionSuccessKA",
            "type": "forms",
            "platform": "",
            "KUID": "71f8ab34e5b2429c81c09a27704cb4a1"
        },
        "language": "js",
        "actions": [{
            "id": "ADD_SNIPPET__4455846f4ef442e49746808fb5a0e22a",
            "type": "ADD_SNIPPET",
            "codeSnippet": "updateStatusforPin(\"isPinEnabledFlag\",\"EnablePinImg\");",
            "parentId": null,
            "callbackType": null
        }]
    }
}