{
    "AS_Form_a9ec2cec456441c88a63018e377b9050": {
        "id": "AS_Form_a9ec2cec456441c88a63018e377b9050",
        "type": "ACTION_SEQUENCE",
        "name": "initLanguageScreen",
        "params": [{
            "datatype": "collection",
            "name": "eventobject"
        }],
        "contextObj": {
            "name": "frmLanguageChange",
            "type": "forms",
            "platform": "",
            "KUID": "gf87c4f80b864112b53423e6a7ad3af8"
        },
        "language": "js",
        "actions": [{
            "id": "ADD_SNIPPET__f44da7bfcdfb43e991932e9615d5b949",
            "type": "ADD_SNIPPET",
            "codeSnippet": "if(frmLanguageChange.flxLogin.isVisible == true){\n\tset_GESTUREQUICKPREVIEWLANG();\n}",
            "parentId": null,
            "callbackType": null
        }]
    }
}