{
    "AS_TextField_g5a08435b2d0457194344e8053190c15": {
        "id": "AS_TextField_g5a08435b2d0457194344e8053190c15",
        "type": "ACTION_SEQUENCE",
        "name": "jomopayparsefloat",
        "params": [{
            "datatype": "collection",
            "name": "eventobject"
        }, {
            "datatype": "string",
            "name": "changedtext"
        }],
        "contextObj": {
            "name": "frmJoMoPay",
            "type": "forms",
            "platform": "",
            "KUID": "d41a38dfc97d4e0a8f3b1db96d6a1ca0"
        },
        "language": "js",
        "actions": [{
            "id": "ADD_SNIPPET__f076504a2ed54aed857df12c54571741",
            "type": "ADD_SNIPPET",
            "codeSnippet": "if(frmJoMoPay.txtFieldAmount.text!==\"\"&&frmJoMoPay.txtFieldAmount.text!==\"0\"&&frmJoMoPay.txtFieldAmount.text!==0)\n  {\nvar amount = Number.parseFloat(frmJoMoPay.txtFieldAmount.text).toFixed(3);\nfrmJoMoPay.txtFieldAmount.text=amount;\n  }",
            "parentId": null,
            "callbackType": null
        }]
    }
}