{
    "AS_TextField_e8b0ad14f0e64377b3b92971e1fa6f05": {
        "id": "AS_TextField_e8b0ad14f0e64377b3b92971e1fa6f05",
        "type": "ACTION_SEQUENCE",
        "name": "jomopayonendandroid",
        "params": [{
            "datatype": "collection",
            "name": "eventobject"
        }, {
            "datatype": "string",
            "name": "changedtext"
        }],
        "contextObj": {
            "name": "frmJoMoPay",
            "type": "forms",
            "platform": "",
            "KUID": "d41a38dfc97d4e0a8f3b1db96d6a1ca0"
        },
        "language": "js",
        "actions": [{
            "id": "ADD_SNIPPET__afe72fc0cff349f9b87c50fc1881e0db",
            "type": "ADD_SNIPPET",
            "codeSnippet": "// animateLabel(\"DOWN\",\"lblstaticdescription\",frmJoMoPay.txtDescription.text);\nanimate_NEWCARDSOPTIOS(\"DOWN\",\"lblstaticdescription\",frmJoMoPay.txtDescription.text);",
            "parentId": null,
            "callbackType": null
        }]
    }
}