{
    "AS_Form_cc5efc6acd8048749dd69ade1e35dc5e": {
        "id": "AS_Form_cc5efc6acd8048749dd69ade1e35dc5e",
        "type": "ACTION_SEQUENCE",
        "name": "landingpreshow",
        "params": [{
            "datatype": "collection",
            "name": "eventobject"
        }],
        "contextObj": {
            "name": "frmAccountsLandingKA",
            "type": "forms",
            "platform": "",
            "KUID": "d62a2a0906c64d2281addc95893a6544"
        },
        "language": "js",
        "actions": [{
            "id": "ADD_SNIPPET__af9585e7088e4cedbc06ed04cb2547d9",
            "type": "ADD_SNIPPET",
            "codeSnippet": "diffFlowFlag = \"OTHERFLOW\";\nfrmAccountsLandingKA.flxAccntLandingNavOptKA.isVisible=false;\naccountsLandingPreShow();\ngblOtpFromforRemovingOTP=\"\";\nkony.store.setItem(\"isAppUpdated\", appConfig.appVersion);",
            "parentId": null,
            "callbackType": null
        }]
    }
}