{
    "AS_Button_i333e36c4fe34c39a51291d8102e10e3": {
        "id": "AS_Button_i333e36c4fe34c39a51291d8102e10e3",
        "type": "ACTION_SEQUENCE",
        "name": "navigateToInformationKA",
        "params": [{
            "datatype": "collection",
            "name": "eventobject"
        }],
        "contextObj": {
            "name": "frmMore",
            "type": "forms",
            "platform": "",
            "KUID": "d84431c3625d480e87968404e4325341"
        },
        "language": "js",
        "actions": [{
            "id": "ADD_SNIPPET__b063db8f2aaf4d21b36777de31252c1c",
            "type": "ADD_SNIPPET",
            "codeSnippet": "getNewsInfo(\"\");",
            "parentId": null,
            "callbackType": null
        }]
    }
}