{
    "AS_Button_f45f546be2f54552b76c038478e5504c": {
        "id": "AS_Button_f45f546be2f54552b76c038478e5504c",
        "type": "ACTION_SEQUENCE",
        "name": "newdepositBackActionKA",
        "params": [{
            "datatype": "collection",
            "name": "eventobject"
        }],
        "language": "js",
        "actions": [{
            "id": "ADD_SNIPPET__1d428a805b604d6b97ab10dda1d5ee16",
            "type": "ADD_SNIPPET",
            "codeSnippet": "getTransferPayLandingForm(\"frmDepositPayLandingKA\");",
            "parentId": null,
            "callbackType": null
        }]
    }
}