{
    "AS_Button_bed88763cfee451fb6c3e63bd991e2bc": {
        "id": "AS_Button_bed88763cfee451fb6c3e63bd991e2bc",
        "type": "ACTION_SEQUENCE",
        "name": "onbackweb",
        "params": [{
            "datatype": "collection",
            "name": "eventobject"
        }],
        "contextObj": {
            "name": "frmWebCharge",
            "type": "forms",
            "platform": "",
            "KUID": "i9ea7101c04f4b03aabeac1fe8d65589"
        },
        "language": "js",
        "actions": [{
            "id": "ADD_SNIPPET__eb04582524e646e1ad4c4af37c0b4436",
            "type": "ADD_SNIPPET",
            "codeSnippet": "frmManageCardsKA.show();\nfrmWebCharge.destroy();\nfrmWebCharge.txtFieldAmount.text=\"\";",
            "parentId": null,
            "callbackType": null
        }]
    }
}