{
    "AS_TextField_c19e1f86b3834676afcafd287a997b6a": {
        "id": "AS_TextField_c19e1f86b3834676afcafd287a997b6a",
        "type": "ACTION_SEQUENCE",
        "name": "onBeginEditingTransferedSalaryiPhone",
        "params": [{
            "datatype": "collection",
            "name": "eventobject"
        }, {
            "datatype": "string",
            "name": "changedtext"
        }],
        "contextObj": {
            "name": "frmApplyNewCardsKA",
            "type": "forms",
            "platform": "",
            "KUID": "a05ce8d2e4404e40bfbc8dad585d28dc"
        },
        "language": "js",
        "actions": [{
            "id": "ADD_SNIPPET__ce6b6fe13db84b278ad21138e62b2732",
            "type": "ADD_SNIPPET",
            "codeSnippet": "animate_NEWCARDSOPTIOS(\"UP\", \"lblTransferedSalaryTitle\", frmApplyNewCardsKA.txtTransferedSalary.text);",
            "parentId": null
        }]
    }
}