{
    "AS_TextField_e6c54480e7254e03a2b33f964e8b7ac2": {
        "id": "AS_TextField_e6c54480e7254e03a2b33f964e8b7ac2",
        "type": "ACTION_SEQUENCE",
        "name": "onbegineditingpasswordiphonelogin",
        "params": [{
            "datatype": "collection",
            "name": "eventobject"
        }, {
            "datatype": "string",
            "name": "changedtext"
        }],
        "contextObj": {
            "name": "frmLoginKA",
            "type": "forms",
            "platform": "",
            "KUID": "7b1aa8fceb6b4070833e9eab879b0e5e"
        },
        "language": "js",
        "actions": [{
            "id": "ADD_SNIPPET__c093611b962b4c6586d249255265e41e",
            "type": "ADD_SNIPPET",
            "codeSnippet": "frmLoginKA.flxbdrpwd.skin=\"skntextFieldDividerBlue\";\n//animateLabel(\"UP\",\"lblPassword\",frmLoginKA.passwordTextField.text);",
            "parentId": null,
            "callbackType": null
        }]
    }
}