{
    "AS_TextField_f40fbc2521034dda82d8462098326e51": {
        "id": "AS_TextField_f40fbc2521034dda82d8462098326e51",
        "type": "ACTION_SEQUENCE",
        "name": "onBeginEditingSupplementryLimitAndroid",
        "params": [{
            "datatype": "collection",
            "name": "eventobject"
        }, {
            "datatype": "string",
            "name": "changedtext"
        }],
        "contextObj": {
            "name": "frmApplyNewCardsKA",
            "type": "forms",
            "platform": "",
            "KUID": "a05ce8d2e4404e40bfbc8dad585d28dc"
        },
        "language": "js",
        "actions": [{
            "id": "ADD_SNIPPET__fbc3cf455adb4fd89531266a211583b0",
            "type": "ADD_SNIPPET",
            "codeSnippet": "animateLabel(\"UP\",kony.newCARD.fields.SuplementryCardLimit[0],frmApplyNewCardsKA[kony.newCARD.fields.SuplementryCardLimit[1]].text);",
            "parentId": null
        }]
    }
}