{
    "AS_TextField_fda06abe21be4950b9f18ddf8df3b479": {
        "id": "AS_TextField_fda06abe21be4950b9f18ddf8df3b479",
        "type": "ACTION_SEQUENCE",
        "name": "onBeginEditingJomopayNickNameiPhone",
        "params": [{
            "datatype": "collection",
            "name": "eventobject"
        }, {
            "datatype": "string",
            "name": "changedtext"
        }],
        "contextObj": {
            "name": "frmJOMOPayAddBiller",
            "type": "forms",
            "platform": null,
            "KUID": "df7e7935cb6a4e5c8a9dad110f300c3c"
        },
        "language": "js",
        "actions": [{
            "id": "ADD_SNIPPET__a6bd26e6e850465ebd3caff1309e471a",
            "type": "ADD_SNIPPET",
            "codeSnippet": "animate_NEWCARDSOPTIOS(\"UP\", \"lblNickNameTitle\", frmJOMOPayAddBiller.txtNickName.text);",
            "parentId": null
        }]
    }
}