{
    "AS_TextField_add135b9c31e4e28af233cb744c20669": {
        "id": "AS_TextField_add135b9c31e4e28af233cb744c20669",
        "type": "ACTION_SEQUENCE",
        "name": "onBeginEditingTransferedSalaryAndroid",
        "params": [{
            "datatype": "collection",
            "name": "eventobject"
        }, {
            "datatype": "string",
            "name": "changedtext"
        }],
        "contextObj": {
            "name": "frmApplyNewCardsKA",
            "type": "forms",
            "platform": "",
            "KUID": "a05ce8d2e4404e40bfbc8dad585d28dc"
        },
        "language": "js",
        "actions": [{
            "id": "ADD_SNIPPET__hb8f190a982c458e80ef8c38224aba11",
            "type": "ADD_SNIPPET",
            "codeSnippet": "animate_NEWCARDSOPTIOS(\"UP\", \"lblTransferedSalaryTitle\", frmApplyNewCardsKA.txtTransferedSalary.text);",
            "parentId": null
        }]
    }
}