{
    "AS_FlexContainer_d42bb2ce97534efab5537e961e08bbfd": {
        "id": "AS_FlexContainer_d42bb2ce97534efab5537e961e08bbfd",
        "type": "ACTION_SEQUENCE",
        "name": "onClickArabicSwitchOffSettings",
        "params": [{
            "datatype": "collection",
            "name": "eventobject"
        }],
        "contextObj": {
            "name": "frmSettingsKA",
            "type": "forms",
            "platform": "",
            "KUID": "hb0fb66c0c224ed284a1334d78669bfa"
        },
        "language": "js",
        "actions": [{
            "id": "ADD_SNIPPET__i21d67d807e54a269c17c5cefd0f99eb",
            "type": "ADD_SNIPPET",
            "codeSnippet": "onclickArabicSwitchOff();",
            "parentId": null,
            "callbackType": null
        }]
    }
}