{
    "AS_Button_bff471f8745643e38a6c14e519b82583": {
        "id": "AS_Button_bff471f8745643e38a6c14e519b82583",
        "type": "ACTION_SEQUENCE",
        "name": "onclicknextcards",
        "params": [{
            "datatype": "collection",
            "name": "eventobject"
        }],
        "contextObj": {
            "name": "frmCreditCardPayment",
            "type": "forms",
            "platform": "",
            "KUID": "ifc6e17e00ef473bb51f2718c349cfba"
        },
        "language": "js",
        "actions": [{
            "id": "ADD_SNIPPET__j77a903e12fc4b129b1360c4e3e27ac7",
            "type": "ADD_SNIPPET",
            "codeSnippet": "onnextcard();",
            "parentId": null,
            "callbackType": null
        }]
    }
}