{
    "AS_FlexContainer_hfbe8ef2027d46c19b6ea012d1ba531e": {
        "id": "AS_FlexContainer_hfbe8ef2027d46c19b6ea012d1ba531e",
        "type": "ACTION_SEQUENCE",
        "name": "onClickBackIPSRegistration",
        "params": [{
            "datatype": "collection",
            "name": "eventobject"
        }],
        "contextObj": {
            "name": "frmIPSRegistration",
            "type": "forms",
            "platform": "",
            "KUID": "d9019aaca9814c4fb7b2e6f1a98cc411"
        },
        "language": "js",
        "actions": [{
            "id": "ADD_SNIPPET__b046c7bad63a470dba3e1cfc8bb649fb",
            "type": "ADD_SNIPPET",
            "codeSnippet": "navigate_BACK_IPS_REGISTRATION();",
            "parentId": null,
            "callbackType": null
        }]
    }
}