{
    "AS_FlexContainer_a58e6f56b73946a8895d63fb80aa38e4": {
        "id": "AS_FlexContainer_a58e6f56b73946a8895d63fb80aa38e4",
        "type": "ACTION_SEQUENCE",
        "name": "onClickMyProfileSettings",
        "params": [{
            "datatype": "collection",
            "name": "eventobject"
        }],
        "contextObj": {
            "name": "frmSettingsKA",
            "type": "forms",
            "platform": "",
            "KUID": "hb0fb66c0c224ed284a1334d78669bfa"
        },
        "language": "js",
        "actions": [{
            "id": "ADD_SNIPPET__ef4ec5da0acc4c309afd2e2bc36e1ea9",
            "type": "ADD_SNIPPET",
            "codeSnippet": "var appContext = kony.sdk.mvvm.KonyApplicationContext.getAppInstance();\nvar frmUserSettingsMyProfileKAModelConfigObj = appContext.getFactorySharedInstance().createConfigClassObject(frmUserSettingsMyProfileKAConfig);\nvar frmUserSettingsMyProfileKAControllerObj = appContext.getFactorySharedInstance().createFormControllerObject(\"kony.sdk.mvvm.frmUserSettingsMyProfileKAController\", appContext, frmUserSettingsMyProfileKAModelConfigObj);\nvar frmUserSettingsMyProfileKAControllerExtObj = appContext.getFactorySharedInstance().createFormControllerExtObject(\"kony.sdk.mvvm.frmUserSettingsMyProfileKAControllerExtension\", frmUserSettingsMyProfileKAControllerObj);\nfrmUserSettingsMyProfileKAControllerObj.setControllerExtensionObject(frmUserSettingsMyProfileKAControllerExtObj);\nvar frmUserSettingsMyProfileKAFormModelObj = appContext.getFactorySharedInstance().createFormModelObject(\"kony.sdk.mvvm.frmUserSettingsMyProfileKAFormModel\", frmUserSettingsMyProfileKAControllerObj);\nvar frmUserSettingsMyProfileKAFormModelExtObj = appContext.getFactorySharedInstance().createFormModelExtObject(\"kony.sdk.mvvm.frmUserSettingsMyProfileKAFormModelExtension\", frmUserSettingsMyProfileKAFormModelObj);\nfrmUserSettingsMyProfileKAFormModelObj.setFormModelExtensionObj(frmUserSettingsMyProfileKAFormModelExtObj);\nappContext.setFormController(\"frmUserSettingsMyProfileKA\", frmUserSettingsMyProfileKAControllerObj);\n\nvar INSTANCE = kony.sdk.mvvm.KonyApplicationContext.getAppInstance();\nvar controller = INSTANCE.getFormController(\"frmUserSettingsMyProfileKA\");\nvar navObject = new kony.sdk.mvvm.NavigationObject();\nnavObject.setRequestOptions(\"form\", {\n  \"headers\": {\n    \"session_token\": kony.retailBanking.globalData.session_token\n  },\n  \"queryParams\": {\n    \"custId\": custid,\n    \"language\": kony.store.getItem(\"langPrefObj\")==\"en\"?\"eng\":\"ara\"\n  }\n});\ncontroller.loadDataAndShowForm(navObject);",
            "parentId": null,
            "callbackType": null
        }]
    }
}