{
    "AS_Button_8e16bee4635047e9be529c0ec03b5e8b": {
        "id": "AS_Button_8e16bee4635047e9be529c0ec03b5e8b",
        "type": "ACTION_SEQUENCE",
        "name": "onclickbtnsecurity",
        "params": [{
            "datatype": "collection",
            "name": "eventobject"
        }],
        "language": "js",
        "actions": [{
            "id": "ADD_SNIPPET_ide_onClick_4bf3776e90d741c3be08a12854d034bd",
            "type": "ADD_SNIPPET",
            "codeSnippet": "termsTabSelected();",
            "callbackType": null
        }]
    }
}