{
    "AS_FlexContainer_ef5b204a0565442db02d4bf6b6f166f7": {
        "id": "AS_FlexContainer_ef5b204a0565442db02d4bf6b6f166f7",
        "type": "ACTION_SEQUENCE",
        "name": "onClickSortDateDescSI",
        "params": [{
            "datatype": "collection",
            "name": "eventobject"
        }],
        "language": "js",
        "actions": [{
            "id": "ADD_SNIPPET__bda0ac8898114f5b84a2d42f5bd9622e",
            "type": "ADD_SNIPPET",
            "codeSnippet": "dateSortSI(frmStandingInstructions.segSIList, \"Date\", \"descending\");",
            "parentId": null,
            "callbackType": null
        }]
    }
}