{
    "AS_FlexContainer_e3bab6ac2b5a4231868465005103c207": {
        "id": "AS_FlexContainer_e3bab6ac2b5a4231868465005103c207",
        "type": "ACTION_SEQUENCE",
        "name": "onClickPaymentTransactionSortAmountAscending",
        "params": [{
            "datatype": "collection",
            "name": "eventobject"
        }],
        "language": "js",
        "actions": [{
            "id": "INVOKE_FUNCTION__ide_onClick_d9c81066d35d4239b01bdb2c69927c4a",
            "type": "INVOKE_FUNCTION",
            "sequenceKUID": "accountInfoSorting",
            "display": "accountInfoSorting",
            "inputparams": [{
                "name": "widget",
                "value": "frmJoMoPayLanding.imgSortAmountAsc"
            }, {
                "name": "sortby",
                "value": "\"Amount\""
            }, {
                "name": "type",
                "value": "\"ascending\""
            }],
            "callbackType": null,
            "disabled": false,
            "source": "module"
        }]
    }
}