{
    "AS_Image_54d11322fe4d42eabfed72a7a1a87df5": {
        "id": "AS_Image_54d11322fe4d42eabfed72a7a1a87df5",
        "type": "ACTION_SEQUENCE",
        "name": "onClosetouchAlert",
        "params": [{
            "datatype": "collection",
            "name": "eventobject"
        }, {
            "datatype": "string",
            "name": "x"
        }, {
            "datatype": "string",
            "name": "y"
        }],
        "contextObj": {
            "name": "frmLoginKA",
            "type": "forms",
            "platform": "",
            "KUID": "7b1aa8fceb6b4070833e9eab879b0e5e"
        },
        "language": "js",
        "actions": [{
            "id": "ADD_SNIPPET__b701cc8edd8848d29fdc856546c50ab4",
            "type": "ADD_SNIPPET",
            "codeSnippet": "kony.localAuthentication.cancelAuthentication();\nfrmLoginKA.skin=\"sknLoginMainPage\";\nfrmLoginKA.loginMainScreen.opacity=1;\nfrmLoginKA.loginMainPINScreen.opacity=1;\nfrmLoginKA.flxtouchIdAndrd.setVisibility(false);\nfrmLoginKA.loginMainScreen.setEnabled(true);\nfrmLoginKA.loginMainPINScreen.setEnabled(true);",
            "parentId": null,
            "callbackType": null
        }]
    }
}