{
    "AS_FlexContainer_a9918f62b18f4ac8aa19f8df4762ae50": {
        "id": "AS_FlexContainer_a9918f62b18f4ac8aa19f8df4762ae50",
        "type": "ACTION_SEQUENCE",
        "name": "onClickDevice2DeRegistration",
        "params": [{
            "datatype": "collection",
            "name": "eventobject"
        }],
        "contextObj": {
            "name": "frmDeviceRegistration",
            "type": "forms",
            "platform": "",
            "KUID": "d3f5bb6d97f641aa9040a4a3bbbb5f11"
        },
        "language": "js",
        "actions": [{
            "id": "ADD_SNIPPET__b6451025d30346bf8c1d0615eb22249b",
            "type": "ADD_SNIPPET",
            "codeSnippet": "// frmDeviceRegistration.flxDevice2SwitchOn.isVisible = false;\n// frmDeviceRegistration.flxDevice2SwitchOff.isVisible = true;\nonSelection_deviceDeregistration(frmDeviceRegistration.lblDevice2.text, frmDeviceRegistration.flxDevice2);",
            "parentId": null
        }]
    }
}