{
    "AS_Button_ed3a4a7981f94c63ac67ab2cf256168e": {
        "id": "AS_Button_ed3a4a7981f94c63ac67ab2cf256168e",
        "type": "ACTION_SEQUENCE",
        "name": "onClickDeleteAlertHistory",
        "params": [{
            "datatype": "collection",
            "name": "eventobject"
        }],
        "contextObj": {
            "name": "frmAlertHistory",
            "type": "forms",
            "platform": "",
            "KUID": "g45c06a5981f4c72a82d82a0d9282d35"
        },
        "language": "js",
        "actions": [{
            "id": "ADD_SNIPPET__da2370b994fb43fca2c4db46d433bc6e",
            "type": "ADD_SNIPPET",
            "codeSnippet": "customAlertPopup(geti18Value(\"i18n.cards.Confirmation\"),geti18Value(\"i18n.alert.deletehistoryhint\"),serv_DELETEALERTHISTORY,popupCommonAlertDimiss,geti18Value(\"i18n.common.Yess\"),geti18Value(\"i18n.comon.Noo\"));",
            "parentId": null,
            "callbackType": null
        }]
    }
}