{
    "AS_FlexContainer_j90b35c5a4524e17a41dc98e0d4a00b2": {
        "id": "AS_FlexContainer_j90b35c5a4524e17a41dc98e0d4a00b2",
        "type": "ACTION_SEQUENCE",
        "name": "onClickAccountsfrmBills",
        "params": [{
            "datatype": "collection",
            "name": "eventobject"
        }],
        "contextObj": {
            "name": "frmBills",
            "type": "forms",
            "platform": "",
            "KUID": "ade6df6ecf3c4acba302ea54bc0a2e56"
        },
        "language": "js",
        "actions": [{
            "id": "ADD_SNIPPET__c088688f726e4315b722a2abb9dcd951",
            "type": "ADD_SNIPPET",
            "codeSnippet": "frmAccountDetailsScreen.lblHead.text = \"Accounts\";\ngblTModule = \"BillPayBillers\";\ngotoAccountDetailsScreen(1);",
            "parentId": null,
            "callbackType": null
        }]
    }
}