{
    "AS_FlexContainer_c1834d9307e744d6adee27f5b68f4e87": {
        "id": "AS_FlexContainer_c1834d9307e744d6adee27f5b68f4e87",
        "type": "ACTION_SEQUENCE",
        "name": "onClickToggleEnableSMSAlert",
        "params": [{
            "datatype": "collection",
            "name": "eventobject"
        }, {
            "datatype": "collection",
            "name": "context"
        }],
        "contextObj": {
            "name": "tmpAccountSMSEnabled",
            "type": "templates",
            "platform": "",
            "KUID": "c4de9b07bcbf4d75b7fb8ea905d7e7d3"
        },
        "language": "js",
        "actions": [{
            "id": "ADD_SNIPPET__d16e95ebb62c4a60919c1466e702ce51",
            "type": "ADD_SNIPPET",
            "codeSnippet": "optAll = false;\nactivateordeactivate_SMSNOTIFICATION(eventobject,context);",
            "parentId": null
        }]
    }
}