{
    "AS_FlexContainer_d565feb9c5704fd49be75a6888e80da2": {
        "id": "AS_FlexContainer_d565feb9c5704fd49be75a6888e80da2",
        "type": "ACTION_SEQUENCE",
        "name": "onClickDefaultAccountsCards",
        "params": [{
            "name": "eventobject",
            "datatype": "collection"
        }, {
            "name": "context",
            "datatype": "collection"
        }],
        "contextObj": {
            "name": "tmpLinkedAccounts",
            "type": "templates",
            "platform": "",
            "KUID": "ga54dd6d57f945839065f3f22ca7c667"
        },
        "language": "js",
        "actions": [{
            "id": "ADD_SNIPPET__j879584efc674569ba19e7a6d6c6a251",
            "type": "ADD_SNIPPET",
            "codeSnippet": "onSelection_DEFAULT_ACCOUNTS(eventobject,context);",
            "parentId": null,
            "callbackType": null
        }]
    }
}