{
    "AS_Image_28910b6b0d83419083d6adcb77648961": {
        "id": "AS_Image_28910b6b0d83419083d6adcb77648961",
        "type": "ACTION_SEQUENCE",
        "name": "onclickimgRememberme",
        "params": [{
            "datatype": "collection",
            "name": "eventobject"
        }, {
            "datatype": "string",
            "name": "x"
        }, {
            "datatype": "string",
            "name": "y"
        }],
        "contextObj": {
            "name": "frmLoginKA",
            "type": "forms",
            "platform": "",
            "KUID": "7b1aa8fceb6b4070833e9eab879b0e5e"
        },
        "language": "js",
        "actions": [{
            "id": "ADD_SNIPPET__95b671eb5e514a73a0e879c11dbc5fe0",
            "type": "ADD_SNIPPET",
            "codeSnippet": "//onclickImageRememberMe();\nkony.print(\":: removed ::\");",
            "parentId": null,
            "callbackType": null
        }]
    }
}