{
    "AS_Segment_cc56effc9e3b43f6815689c6b7c03f12": {
        "id": "AS_Segment_cc56effc9e3b43f6815689c6b7c03f12",
        "type": "ACTION_SEQUENCE",
        "name": "onClicksettingsSegment",
        "params": [{
            "datatype": "collection",
            "name": "eventobject"
        }, {
            "datatype": "number",
            "name": "sectionNumber"
        }, {
            "datatype": "number",
            "name": "rowNumber"
        }],
        "language": "js",
        "actions": [{
            "id": "ADD_SNIPPET__49857fb361104f468efe0b08fa50d5ef",
            "type": "ADD_SNIPPET",
            "codeSnippet": "segSettingsOnClick();",
            "parentId": null,
            "callbackType": null
        }]
    }
}