{
    "AS_Button_c004a147154541408558d7a6840daf1d": {
        "id": "AS_Button_c004a147154541408558d7a6840daf1d",
        "type": "ACTION_SEQUENCE",
        "name": "onClickBackSMSNotification",
        "params": [{
            "datatype": "collection",
            "name": "eventobject"
        }],
        "contextObj": {
            "name": "frmSMSNotification",
            "type": "forms",
            "platform": "",
            "KUID": "h53d27b5aa3844a594848b59224c4f16"
        },
        "language": "js",
        "actions": [{
            "id": "ADD_SNIPPET__a32555d55be24ee082ebc580e7b8e9ca",
            "type": "ADD_SNIPPET",
            "codeSnippet": "frmSettingsKA.show();",
            "parentId": null,
            "callbackType": null
        }]
    }
}