{
    "AS_Button_3eb39c555faf423f8cf411d4f63de98b": {
        "id": "AS_Button_3eb39c555faf423f8cf411d4f63de98b",
        "type": "ACTION_SEQUENCE",
        "name": "onclickbackfromrecentransios",
        "params": [{
            "datatype": "collection",
            "name": "eventobject"
        }],
        "contextObj": {
            "name": "frmRecentTransactionDetailsKA",
            "type": "forms",
            "platform": "",
            "KUID": "3e75bf63a2d4443486447188bb14c36b"
        },
        "language": "js",
        "actions": [{
            "id": "ADD_SNIPPET__eaf9f5bdf99c4724bbe1e30367d552d9",
            "type": "ADD_SNIPPET",
            "codeSnippet": "var previousForm = kony.application.getPreviousForm().id;\nif(previousForm==\"frmAccountDetailKA\"){\n kony.sdk.mvvm.KonyApplicationContext.showLoadingScreen();\n var INSTANCE = kony.sdk.mvvm.KonyApplicationContext.getAppInstance();\n var controller = INSTANCE.getFormController(\"frmAccountDetailKA\");\n controller.getFormModel().showView();\n kony.sdk.mvvm.KonyApplicationContext.dismissLoadingScreen();\n}else{\nbackToTransferPayLandingPage(\"frmRecentTransactionDetailsKA\");\n}",
            "parentId": null,
            "callbackType": null
        }]
    }
}