{
    "AS_FlexContainer_ic0499bf27094e3a94ac7af77d1be747": {
        "id": "AS_FlexContainer_ic0499bf27094e3a94ac7af77d1be747",
        "type": "ACTION_SEQUENCE",
        "name": "onClickBackLoanPostPone",
        "params": [{
            "datatype": "collection",
            "name": "eventobject"
        }],
        "contextObj": {
            "name": "frmLoanPostpone",
            "type": "forms",
            "platform": "",
            "KUID": "c4f50ee093794ef7af792ffce1e5562c"
        },
        "language": "js",
        "actions": [{
            "id": "ADD_SNIPPET__ad377a514a04497682d43c9fb4df61ec",
            "type": "ADD_SNIPPET",
            "codeSnippet": "onClick_BACK_LOAN_POSTPONE();",
            "parentId": null,
            "callbackType": null
        }]
    }
}