{
    "AS_Button_84ed77b11a3b4e0cbfc37fb2a9734900": {
        "id": "AS_Button_84ed77b11a3b4e0cbfc37fb2a9734900",
        "type": "ACTION_SEQUENCE",
        "name": "onClickbtnDeletedKA",
        "params": [{
            "datatype": "collection",
            "name": "eventobject"
        }],
        "language": "js",
        "actions": [{
            "id": "ADD_SNIPPET__h12bea318a7640d181e5f6e76d01f9d8",
            "type": "ADD_SNIPPET",
            "codeSnippet": "kony.print(\"Deleted\");",
            "parentId": null,
            "callbackType": null
        }]
    }
}