{
    "AS_TextField_c0f47c11021346eda1f4faa7c146a1a6": {
        "id": "AS_TextField_c0f47c11021346eda1f4faa7c146a1a6",
        "type": "ACTION_SEQUENCE",
        "name": "onDoneSearch",
        "params": [{
            "datatype": "collection",
            "name": "eventobject"
        }, {
            "datatype": "string",
            "name": "changedtext"
        }],
        "contextObj": {
            "name": "frmInformationKA",
            "type": "forms",
            "platform": "",
            "KUID": "f18169832ba24ba09c8780278abfc207"
        },
        "language": "js",
        "actions": [{
            "id": "ADD_SNIPPET__g89ee5c03ec341389c75824cc512ed5b",
            "type": "ADD_SNIPPET",
            "codeSnippet": "fetchFAQ();",
            "parentId": null,
            "callbackType": null
        }]
    }
}