{
    "AS_TextField_82aeb4aae79a48b29d8e028bbfe15f3d": {
        "id": "AS_TextField_82aeb4aae79a48b29d8e028bbfe15f3d",
        "type": "ACTION_SEQUENCE",
        "name": "onDonetoAmntEntered",
        "params": [{
            "datatype": "collection",
            "name": "eventobject"
        }, {
            "datatype": "string",
            "name": "changedtext"
        }],
        "contextObj": {
            "name": "frmSearchOptionsKA",
            "type": "forms",
            "platform": "",
            "KUID": "400a0ee97eb04e5897318084b1271b8a"
        },
        "language": "js",
        "actions": [{
            "id": "ADD_SNIPPET__6195b0aaa8604a0799daff0fef870e28",
            "type": "ADD_SNIPPET",
            "codeSnippet": "compareAmountFields();",
            "parentId": null,
            "callbackType": null
        }]
    }
}