{
    "AS_TextField_ccdfaf9dcdfd423595d8966f4937435b": {
        "id": "AS_TextField_ccdfaf9dcdfd423595d8966f4937435b",
        "type": "ACTION_SEQUENCE",
        "name": "onEEIphoneJIDRegJP",
        "params": [{
            "datatype": "collection",
            "name": "eventobject"
        }, {
            "datatype": "string",
            "name": "changedtext"
        }],
        "language": "js",
        "actions": [{
            "id": "ADD_SNIPPET_ide_onEndEditing_a080db2ebc314120a19a7da65fe1495c",
            "type": "ADD_SNIPPET",
            "codeSnippet": "animate_NEWCARDSOPTIOS(\"DOWN\",\"lblJomopayIDstatic\",frmJoMoPayRegistration.txtJomopayID.text);\nif(frmJoMoPayRegistration.txtJomopayID.text!==\"\"&&frmJoMoPayRegistration.txtJomopayID.text!==null)\n  {\nfrmJoMoPayRegistration.flxBorderjomopayID.skin=\"skntextFieldDividerGreen\";\n  }\nelse\n  {\n   frmJoMoPayRegistration.flxBorderjomopayID.skin=\"skntextFieldDividerJomoPay\";\n  }",
            "callbackType": null
        }]
    }
}