{
    "AS_Segment_c243f75cc0c349de9071a6cc8bcce56e": {
        "id": "AS_Segment_c243f75cc0c349de9071a6cc8bcce56e",
        "type": "ACTION_SEQUENCE",
        "name": "onRowClickCardsListOption",
        "params": [{
            "datatype": "collection",
            "name": "eventobject"
        }, {
            "datatype": "number",
            "name": "sectionNumber"
        }, {
            "datatype": "number",
            "name": "rowNumber"
        }],
        "contextObj": {
            "name": "frmCardStatementKA",
            "type": "forms",
            "platform": null,
            "KUID": "ebef3c7798e64ac49c7cc83d9df0b4f2"
        },
        "language": "js",
        "actions": [{
            "id": "ADD_SNIPPET__cb5e36504bd543bfa1e3f8577dec04c7",
            "type": "ADD_SNIPPET",
            "codeSnippet": "kony.print(\"Segment Data ::\"+JSON.stringify(frmCardStatementKA.segCardsOptions.selectedRowItems));\nkony.print(\"Segment Data Length ::\"+frmCardStatementKA.segCardsOptions.selectedRowItems[0].lblValue.length);\nif(frmCardStatementKA.segCardsOptions.selectedRowItems[0].lblTitle === \"Year\"){\n\tfrmCardStatementKA.lblCardYear.text = frmCardStatementKA.segCardsOptions.selectedRowItems[0].lblValue;\n}else if(gblDownloadPDFFlow && frmCardStatementKA.segCardsOptions.selectedRowItems[0].lblTitle === \"Type\"){\n    frmCardStatementKA.lblDownloadType.text = frmCardStatementKA.segCardsOptions.selectedRowItems[0].lblValue;\n}else{\n\tfrmCardStatementKA.lblCardDate.text = frmCardStatementKA.segCardsOptions.selectedRowItems[0].lblValue;\n}\n\n\nanimate_cardsFilterOption();",
            "parentId": null,
            "callbackType": null
        }]
    }
}