{
    "AS_Segment_aeaf69d8d19c42668e4551eef00b8744": {
        "id": "AS_Segment_aeaf69d8d19c42668e4551eef00b8744",
        "type": "ACTION_SEQUENCE",
        "name": "onRowClickSegmentPurposeOfTransfer",
        "params": [{
            "datatype": "collection",
            "name": "eventobject"
        }, {
            "datatype": "number",
            "name": "sectionNumber"
        }, {
            "datatype": "number",
            "name": "rowNumber"
        }],
        "language": "js",
        "actions": [{
            "id": "ADD_SNIPPET_ide_onRowClick_h7a323ebbe79483088d025f12b3cc983",
            "type": "ADD_SNIPPET",
            "codeSnippet": "//alert(\"frmPOT.segFre.selectedRowItems[0].lblfrequency \" + frmPOT.segFre.selectedRowItems[0].lblfrequency);\nif(frmPOT.lblTitle.text === geti18Value(\"i18n.transfer.transfersubpurpose\")){\n  frmNewTransferKA.lblPOT.text = frmPOT.segFre.selectedRowItems[0].lblfrequency;\n  frmConfirmTransferKA.lblRemmit.text = frmPOT.segFre.selectedRowItems[0].lblKey;\n  frmConfirmTransferKA.lblPurposeofTransfer.text = frmPOT.segFre.selectedRowItems[0].lblfrequency;\n  enableNext();\n}else{\n\tkony.retailBanking.globalData.globals.popTransferFlag = frmPOT.segFre.selectedRowItems[0].lblKey;\n\tfrmNewTransferKA.lblTransferCategory.text = frmPOT.segFre.selectedRowItems[0].lblfrequency;\n\tfrmNewTransferKA.lblPOT.text = geti18Value(\"i18n.settings.select\");\n}\nfrmNewTransferKA.show();",
            "callbackType": null
        }]
    }
}