{
    "AS_TextField_f1588ade0d3e4fc18a428593dd00a577": {
        "id": "AS_TextField_f1588ade0d3e4fc18a428593dd00a577",
        "type": "ACTION_SEQUENCE",
        "name": "onTextChangeSearchRegJP",
        "params": [{
            "datatype": "collection",
            "name": "eventobject"
        }, {
            "datatype": "string",
            "name": "changedtext"
        }],
        "language": "js",
        "actions": [{
            "id": "ADD_SNIPPET_ide_onTextChange_a9364c756dc84a099aa610a4e900241f",
            "type": "ADD_SNIPPET",
            "codeSnippet": "kony.boj.searchDetailsJP(frmJomopayRegCountry.tbxSearch.text);",
            "callbackType": null
        }]
    }
}