{
    "AS_Label_db2e313fbb524871afa2029f6bf7e354": {
        "id": "AS_Label_db2e313fbb524871afa2029f6bf7e354",
        "type": "ACTION_SEQUENCE",
        "name": "onTouchEndContactUsLinkedIn",
        "params": [{
            "datatype": "collection",
            "name": "eventobject"
        }, {
            "datatype": "string",
            "name": "x"
        }, {
            "datatype": "string",
            "name": "y"
        }],
        "contextObj": {
            "name": "frmInformationKA",
            "type": "forms",
            "platform": "",
            "KUID": "f18169832ba24ba09c8780278abfc207"
        },
        "language": "js",
        "actions": [{
            "id": "ADD_SNIPPET__f772aa48c64247ee9f7850bd4a3a7f34",
            "type": "ADD_SNIPPET",
            "codeSnippet": "open_SOCIALMEDIA(LINKEDIN);",
            "parentId": null
        }]
    }
}