{
    "AS_Label_f0eeb60576ee4f00a74da098df924e19": {
        "id": "AS_Label_f0eeb60576ee4f00a74da098df924e19",
        "type": "ACTION_SEQUENCE",
        "name": "onTouchStartSearchIconRegJP",
        "params": [{
            "datatype": "collection",
            "name": "eventobject"
        }, {
            "datatype": "string",
            "name": "x"
        }, {
            "datatype": "string",
            "name": "y"
        }],
        "contextObj": {
            "name": "frmJomopayRegCountry",
            "type": "forms",
            "platform": null,
            "KUID": "d51a5c7093c94271abefd2f2ca149349"
        },
        "language": "js",
        "actions": [{
            "id": "ADD_SNIPPET__j09a3e259ea54adfb85a94f4731279bd",
            "type": "ADD_SNIPPET",
            "codeSnippet": "kony.boj.searchDetailsJP(frmJomopayRegCountry.tbxSearch.text);",
            "parentId": null,
            "callbackType": null
        }]
    }
}