{
    "AS_Label_de7bda87f648474b983224ccd233f390": {
        "id": "AS_Label_de7bda87f648474b983224ccd233f390",
        "type": "ACTION_SEQUENCE",
        "name": "onTouchEndNextEcommerceLimit",
        "params": [{
            "datatype": "collection",
            "name": "eventobject"
        }, {
            "datatype": "string",
            "name": "x"
        }, {
            "datatype": "string",
            "name": "y"
        }],
        "contextObj": {
            "name": "frmEnableInternetTransactionKA",
            "type": "forms",
            "platform": "",
            "KUID": "fc2ebd4d755e4e999be8a252c972d865"
        },
        "language": "js",
        "actions": [{
            "id": "ADD_SNIPPET__f9a9f31deb59409682041324917d69e4",
            "type": "ADD_SNIPPET",
            "codeSnippet": "gblToOTPFrom = \"cardLimit\";\nif(frmEnableInternetTransactionKA.lblNext.skin === \"sknLblNextEnabled\"){\n\tcallRequestOTP();\n}",
            "parentId": null,
            "callbackType": null
        }]
    }
}