{
    "AS_TextField_a176250a93a04056ab52cf917386327e": {
        "id": "AS_TextField_a176250a93a04056ab52cf917386327e",
        "type": "ACTION_SEQUENCE",
        "name": "onTouchEndEcommerceText",
        "params": [{
            "datatype": "collection",
            "name": "eventobject"
        }, {
            "datatype": "string",
            "name": "x"
        }, {
            "datatype": "string",
            "name": "y"
        }],
        "contextObj": {
            "name": "frmEnableInternetTransactionKA",
            "type": "forms",
            "platform": "",
            "KUID": "fc2ebd4d755e4e999be8a252c972d865"
        },
        "language": "js",
        "actions": [{
            "id": "ADD_SNIPPET__d3ca60ef499f42b1aababb083b35ef79",
            "type": "ADD_SNIPPET",
            "codeSnippet": "if(eventobject.id === \"txtEcomLimit\"){\n\tanimateLabel(\"UP\",\"lblEcom\",frmEnableInternetTransactionKA.txtEcomLimit.text);\n\tanimateLabel(\"DOWN\",\"lblMailOrder\",frmEnableInternetTransactionKA.txtMailLimit.text);\n\tonTextChange_ECOMMERCELIMIT(frmEnableInternetTransactionKA.txtEcomLimit, frmEnableInternetTransactionKA.sliderECommerceLmt, \"onTextChange\", \"internetlimit\");\n}else if(eventobject.id === \"txtMailLimit\"){\n\tanimateLabel(\"DOWN\",\"lblEcom\",frmEnableInternetTransactionKA.txtEcomLimit.text);\n\tanimateLabel(\"UP\",\"lblMailOrder\",frmEnableInternetTransactionKA.txtMailLimit.text);\n\tonTextChange_ECOMMERCELIMIT(frmEnableInternetTransactionKA.txtMailLimit, frmEnableInternetTransactionKA.sliderMailOrderLimit, \"onTextChange\", \"mailorderlimit\");\n}",
            "parentId": null,
            "callbackType": null
        }]
    }
}