{
    "AS_Form_a624969b075841cca990495754387822": {
        "id": "AS_Form_a624969b075841cca990495754387822",
        "type": "ACTION_SEQUENCE",
        "name": "quickPayPreShow",
        "params": [{
            "datatype": "collection",
            "name": "eventobject"
        }],
        "contextObj": {
            "name": "frmNewBillKA",
            "type": "forms",
            "platform": "",
            "KUID": "94b57de480514c9f98e1f6979b71a37b"
        },
        "language": "js",
        "actions": [{
            "id": "ADD_SNIPPET__8bcbf7157f7d464a93342b37dad580b0",
            "type": "ADD_SNIPPET",
            "codeSnippet": "//kony.print(\"#$: Executing form pre-show\");\n//frmNewTransferKA.fromCard.doLayout = onFromCardLayoutCallback;\n//newBillPayPreShow();\n//kony.print(\"#$: Executed newTransferPreShow\");\n\ngblQuickFlow = \"post\";",
            "parentId": null,
            "callbackType": null
        }]
    }
}