{
    "AS_Button_bcc85b20219b45e8be7e1a01dbe48752": {
        "id": "AS_Button_bcc85b20219b45e8be7e1a01dbe48752",
        "type": "ACTION_SEQUENCE",
        "name": "TouchLoginClick",
        "params": [{
            "datatype": "collection",
            "name": "eventobject"
        }],
        "contextObj": {
            "name": "frmLoginKA",
            "type": "forms",
            "platform": "",
            "KUID": "7b1aa8fceb6b4070833e9eab879b0e5e"
        },
        "language": "js",
        "actions": [{
            "id": "ADD_SNIPPET_ide_onClick_ffc88affc943462fb35a172e178461bf",
            "type": "ADD_SNIPPET",
            "codeSnippet": "kony.sdk.mvvm.KonyApplicationContext.showLoadingScreen(\"\");\nShowLoadingScreen();\nisAlternateLoginEnabled(\"T\");",
            "callbackType": null
        }]
    }
}