{
    "AS_Group_h5f57709681b4149a899223884de36f4": {
        "id": "AS_Group_h5f57709681b4149a899223884de36f4",
        "type": "ACTION_SEQUENCE",
        "params": [{
            "datatype": "FormController",
            "name": "form"
        }],
        "contextObj": {
            "name": "frmWatMenu",
            "type": "forms",
            "platform": "",
            "KUID": "ea59f4de6a074958ad1b469a50249501"
        },
        "language": "swift",
        "actions": [{
            "id": "ADD_SNIPPET__j664d5f904864d75a835230bd447e521",
            "type": "ADD_SNIPPET",
            "codeSnippet": "let context = [\"token\": \"3\"]\nform.pushController(withName: \"frmWatMenuItemList\", context: context);",
            "parentId": null,
            "callbackType": null
        }]
    }
}