{
    "@class": "com.kony.gen.viz.model.component.KVizButton",
    "DNDConfig": null,
    "__parentReadjusting__": false,
    "_height_": {
        "type": "string",
        "value": "75%"
    },
    "_left_": {
        "type": "string",
        "value": "35%"
    },
    "_margin_": [
        6,
        6,
        6,
        6
    ],
    "_padding_": [
        0,
        0,
        0,
        0
    ],
    "_skin_": "s17e292d54bd48bd8bd8a070c6c1819a",
    "_text_": "Mobile",
    "_top_": {
        "type": "string",
        "value": "2%"
    },
    "_width_": {
        "type": "string",
        "value": "30%"
    },
    "canUpdateUI": true,
    "centery": {
        "type": "string",
        "value": "50%"
    },
    "containerweight": 100,
    "contentalignment": 5,
    "disabledSkins": {},
    "displaytext": true,
    "focusskin": "sbe1e969bc9948e288db010580bd90b0",
    "id": "btnMob",
    "ide_onClick": "AS_Button_c0dfd3117c3f449bb29108b40418bd2a",
    "info": null,
    "isvisible": true,
    "kuid": "bbbdcf62627f4c709d75b9c46aa0d104",
    "name": "kony.ui.Button",
    "parent": "flxIBANAlias",
    "pf": "frmEPS",
    "texti18n": "i18n.jomopay.mobiletype",
    "wType": "Button",
    "zindex": 1
}