{
    "DNDConfig": null,
    "__parentReadjusting__": false,
    "_height_": {
        "type": "string",
        "value": "75%"
    },
    "_left_": {
        "type": "string",
        "value": "0"
    },
    "_margin_": [
        0,
        0,
        0,
        0
    ],
    "_orientation_": 6,
    "_padding_": [
        0,
        0,
        0,
        0
    ],
    "_percent_": true,
    "_skin_": "s388f0c575ef4d08ac3a5ed0a4b90085",
    "_top_": {
        "type": "string",
        "value": "2%"
    },
    "_width_": {
        "type": "string",
        "value": "100%"
    },
    "allboxes": [],
    "autogrowmode": 0,
    "canUpdateUI": true,
    "children": [
        "flxFromAccountsConf",
        "ToAccConfirmation",
        "flxConfirmBankName",
        "flxConfirmAddress",
        "flxConfirmIBANBeneName",
        "flxIBAN",
        "flxAmount",
        "flxConfirmFees"
    ],
    "clipbounds": true,
    "containerweight": 100,
    "enablescrolling": true,
    "id": "flxOtherDetailScroll",
    "info": null,
    "isvisible": true,
    "kuid": "bbf18e9e096b4fbe85db1cffc510a541",
    "layouttype": 4,
    "name": "kony.ui.FlexContainer",
    "parent": "flxConfirmEPS",
    "pf": "frmEPS",
    "snapgridsize": 10,
    "snaptogrid": true,
    "wType": "FlexContainer",
    "widgetalignment": 1,
    "zindex": 1
}