{
    "@class": "com.kony.gen.viz.model.component.KVizLabel",
    "DNDConfig": null,
    "__parentReadjusting__": false,
    "_height_": {
        "type": "ref",
        "value": "preferred"
    },
    "_left_": {
        "type": "string",
        "value": "8%"
    },
    "_margin_": [
        1,
        1,
        1,
        1
    ],
    "_padding_": [
        0,
        0,
        0,
        0
    ],
    "_skin_": "s4f9b513285f445db95f5bd98732b550",
    "_text_": "",
    "_top_": {
        "type": "string",
        "value": "19dp"
    },
    "_width_": {
        "type": "ref",
        "value": "preferred"
    },
    "_wrapping_": 2,
    "android": {
        "textStyle": {
            "letterSpacing": 0,
            "strikeThrough": false
        }
    },
    "canUpdateUI": true,
    "centery": {
        "type": "string",
        "value": "-35%"
    },
    "containerweight": 100,
    "contentalignment": 4,
    "id": "lblSelectanAccount1",
    "info": null,
    "ipad": {
        "psp": {
            "wrapping": 2
        }
    },
    "iphone": {
        "psp": {
            "wrapping": 2
        }
    },
    "isvisible": true,
    "kuid": "g6b9dcac81ca4e4a9a7a66d2c6bece26",
    "name": "kony.ui.Label",
    "parent": "flxAccounFrom",
    "pf": "frmEPS",
    "texti18n": "i18n.Transfer.selectAcc",
    "textstyle": {},
    "tooltip": "",
    "wType": "Label",
    "zindex": 1
}