{
    "DNDConfig": null,
    "__parentReadjusting__": false,
    "_height_": {
        "type": "string",
        "value": "50dp"
    },
    "_left_": {
        "type": "string",
        "value": "5%"
    },
    "_margin_": [
        0,
        0,
        0,
        0
    ],
    "_orientation_": 6,
    "_padding_": [
        0,
        0,
        0,
        0
    ],
    "_percent_": true,
    "_skin_": "sf913b6acdb2474c92719c98a2b33b2d",
    "_width_": {
        "type": "string",
        "value": "90%"
    },
    "allboxes": [],
    "autogrowmode": 0,
    "canUpdateUI": true,
    "centerx": {
        "type": "string",
        "value": "50%"
    },
    "centery": {
        "type": "string",
        "value": "90%"
    },
    "children": [
        "segAccountDetailNav1KA",
        "btnSignOutNavOptAccOverKA"
    ],
    "clipbounds": true,
    "containerweight": 100,
    "enablescrolling": true,
    "id": "flxNavSegment1",
    "info": null,
    "isvisible": true,
    "kuid": "8623c36f715b41f08e468c232abb15a4",
    "layouttype": 4,
    "name": "kony.ui.FlexContainer",
    "parent": "flxCheckDepositNavOptKA",
    "pf": "frmDepositPayLandingKA",
    "snapgridsize": 10,
    "snaptogrid": true,
    "wType": "FlexContainer",
    "widgetalignment": 1,
    "zindex": 1
}