{
    "@class": "com.kony.gen.viz.model.component.KVizTextBox2",
    "DNDConfig": null,
    "__parentReadjusting__": false,
    "_height_": {
        "type": "string",
        "value": "45%"
    },
    "_left_": {
        "type": "string",
        "value": "2%"
    },
    "_margin_": [
        0,
        0,
        0,
        0
    ],
    "_padding_": [
        0,
        0,
        0,
        0
    ],
    "_placeholder_": "",
    "_skin_": "s029998596d3421892d0917ea7492e1d",
    "_text_": "",
    "_top_": {
        "type": "string",
        "value": "40%"
    },
    "_width_": {
        "type": "string",
        "value": "99%"
    },
    "android": {
        "ide_onBeginEditing": "AS_TextField_e4a4873bacbe4246a48f6060ee5cac68"
    },
    "autocapitalize": "none",
    "autocomplete": false,
    "autocorrect": false,
    "autofilter": false,
    "canUpdateUI": true,
    "containerheight": "",
    "containerheightmode": 1,
    "containerweight": 100,
    "contentalignment": 4,
    "focusskin": "sa25e426dcb94c13ab46f59a2b31a09a",
    "id": "txtNickName",
    "ide_onTextChange": "AS_TextField_c9d555dc789740f289489033bf621acb",
    "info": null,
    "iphone": {
        "ide_onBeginEditing": "AS_TextField_fda06abe21be4950b9f18ddf8df3b479"
    },
    "isvisible": true,
    "keyboardtype": "A",
    "kuid": "bf641994c14841d4aedd5c2ccf0c7676",
    "mode": "A",
    "name": "kony.ui.TextBox2",
    "paddinginpixel": false,
    "parent": "flxNickName",
    "pf": "frmJOMOPayAddBiller",
    "securetextentry": false,
    "textinputmode": "A",
    "viewtype": "default",
    "wType": "TextField",
    "zindex": 1
}