{
    "DNDConfig": null,
    "_height_": {
        "type": "ref",
        "value": "preferred"
    },
    "_margin_": [
        0,
        0,
        0,
        0
    ],
    "_orientation_": 6,
    "_padding_": [
        0,
        0,
        0,
        0
    ],
    "_percent_": true,
    "_skin_": "s388f0c575ef4d08ac3a5ed0a4b90085",
    "allboxes": [],
    "autogrowmode": 1,
    "canUpdateUI": true,
    "children": [
        "lblJoMoPay",
        "lblStatus",
        "lblStatusDesc",
        "lblRequestDate",
        "lblRequestDateVale",
        "lblDelDate",
        "lblDelDateValue",
        "flxLine"
    ],
    "clipbounds": true,
    "containerId": true,
    "containerweight": 100,
    "enablescrolling": true,
    "id": "flxtmpSegRequestStatus",
    "info": null,
    "isTemplate": true,
    "isvisible": true,
    "kuid": "cae04f2755ce4db98b735759c4b439d0",
    "layouttype": 4,
    "name": "kony.ui.FlexContainer",
    "parent": "tmpSegRequestStatus",
    "pf": "tmpSegRequestStatus",
    "snapgridsize": 10,
    "snaptogrid": true,
    "wType": "FlexContainer",
    "widgetalignment": 1
}