{
    "@class": "com.kony.gen.viz.model.component.KVizLabel",
    "DNDConfig": null,
    "__parentReadjusting__": false,
    "_height_": {
        "type": "ref",
        "value": "preferred"
    },
    "_margin_": [
        1,
        1,
        1,
        1
    ],
    "_padding_": [
        0,
        0,
        0,
        0
    ],
    "_skin_": "s0c12ef4ffa141c1a912cb17530b6d0f",
    "_text_": "Transfers",
    "_top_": {
        "type": "string",
        "value": "55%"
    },
    "_width_": {
        "type": "ref",
        "value": "preferred"
    },
    "_wrapping_": 2,
    "android": {
        "textStyle": {
            "letterSpacing": 0,
            "strikeThrough": false
        }
    },
    "canUpdateUI": true,
    "centerx": {
        "type": "string",
        "value": "50%"
    },
    "containerweight": 100,
    "contentalignment": 5,
    "id": "CopyLabel0i584dcaf2e8546",
    "info": null,
    "ipad": {
        "psp": {
            "wrapping": 2
        }
    },
    "iphone": {
        "psp": {
            "wrapping": 2
        }
    },
    "isvisible": true,
    "kuid": "h558a0c876644668bf8131be96df8535",
    "name": "kony.ui.Label",
    "parent": "FlxBot",
    "pf": "frmManageCardsKA",
    "texti18n": "i18n.alert.transfers",
    "tooltip": "",
    "wType": "Label",
    "zindex": 1
}