{
    "AS_Form_1d29f1e4dbc64a88b0fed287c5500857": {
        "id": "AS_Form_1d29f1e4dbc64a88b0fed287c5500857",
        "type": "ACTION_SEQUENCE",
        "language": "js",
        "actions": [{
            "id": "ADD_SNIPPET__50de012693624a11a124f3fab2ae1b0a",
            "type": "ADD_SNIPPET",
            "codeSnippet": "setDataTransferPay();",
            "parentId": null,
            "callbackType": null
        }]
    }
}