{
    "DNDConfig": null,
    "_height_": {
        "type": "string",
        "value": "10%"
    },
    "_margin_": [
        0,
        0,
        0,
        0
    ],
    "_orientation_": 6,
    "_padding_": [
        0,
        0,
        0,
        0
    ],
    "_percent_": true,
    "_skin_": "s388f0c575ef4d08ac3a5ed0a4b90085",
    "allboxes": [],
    "autogrowmode": 0,
    "canUpdateUI": true,
    "children": [
        "flxCountryIcon",
        "lblMobileCountry",
        "flxCurrencydetails",
        "imgTickIcon"
    ],
    "clipbounds": true,
    "containerId": true,
    "containerweight": 100,
    "enablescrolling": true,
    "id": "tmpFlxCurrency",
    "info": null,
    "isTemplate": true,
    "isvisible": true,
    "kuid": "bf03093f4a774d16a6652abbdca6d0d2",
    "layouttype": 2,
    "name": "kony.ui.FlexContainer",
    "parent": "tmpCurrency",
    "pf": "tmpCurrency",
    "snapgridsize": 10,
    "snaptogrid": true,
    "wType": "FlexContainer",
    "widgetalignment": 5
}