{
    "DNDConfig": null,
    "__parentReadjusting__": false,
    "_height_": {
        "type": "string",
        "value": "80%"
    },
    "_left_": {
        "type": "string",
        "value": "0%"
    },
    "_margin_": [
        0,
        0,
        0,
        0
    ],
    "_orientation_": 6,
    "_padding_": [
        0,
        0,
        0,
        0
    ],
    "_percent_": true,
    "_skin_": "s3f548bda3524e0388552e16122dc6fa",
    "_top_": {
        "type": "string",
        "value": "20%"
    },
    "_width_": {
        "type": "string",
        "value": "100%"
    },
    "allboxes": [],
    "allowhorizontalbounce": false,
    "allowverticalbounce": false,
    "bounces": false,
    "canUpdateUI": true,
    "children": [
        "Label0f1634615bdd144",
        "CopyLabel0f1d2d508761f4c",
        "flxAmount",
        "CopyLabel0if18b04692db45",
        "CopyLabel0j60c845661e946",
        "CopyLabel0f5624eecf1a24a",
        "CopyLabel0e3f3848b97c04c",
        "CopyflxAmount0ia2541c374fc46",
        "CopyflxAmount0d73d550f2aef46",
        "CopyLabel0a139f112f21640",
        "CopyLabel0e5bc9f40211145",
        "CopyLabel0g36a9fb192a742",
        "CopyLabel0fee3fd571e4848",
        "CopyLabel0a8521288980a42",
        "CopyLabel0c1ba526abe7747",
        "Button0dedb1d35bd4c4b",
        "lblEmptySpace"
    ],
    "clipbounds": true,
    "containerweight": 100,
    "decelerat": false,
    "dragg": false,
    "enablescrolling": true,
    "horizontalscrollindicator": true,
    "id": "flxTransactionDetailsContent",
    "info": null,
    "isvisible": true,
    "kuid": "c0a2d83ffac74ea2ba9ae2e3f6cd405e",
    "layouttype": 4,
    "name": "kony.ui.FlexScrollContainer",
    "pagingenabled": false,
    "parent": "flxTransactionDetailsBody",
    "pf": "frmTransactionDetails",
    "scrolldirection": 2,
    "snapgridsize": 10,
    "snaptogrid": true,
    "track": false,
    "verticalscrollindicator": false,
    "vizProps": {},
    "wType": "FlexScrollContainer",
    "widgetalignment": 1,
    "zindex": 1
}