{
    "@class": "com.kony.gen.viz.model.component.KVizLabel",
    "DNDConfig": null,
    "__parentReadjusting__": false,
    "_height_": {
        "type": "ref",
        "value": "preferred"
    },
    "_margin_": [
        1,
        1,
        1,
        1
    ],
    "_padding_": [
        0,
        0,
        0,
        0
    ],
    "_skin_": "sf09b9c50f8749179912d3b3838bf477",
    "_text_": "DE36147942711520577565",
    "_width_": {
        "type": "ref",
        "value": "preferred"
    },
    "_wrapping_": 2,
    "android": {
        "textStyle": {
            "letterSpacing": 0,
            "strikeThrough": false
        }
    },
    "canUpdateUI": true,
    "centerx": {
        "type": "string",
        "value": "50%"
    },
    "centery": {
        "type": "string",
        "value": "18%"
    },
    "containerweight": 100,
    "contentalignment": 4,
    "id": "lblreferenceNo",
    "info": null,
    "ipad": {
        "psp": {
            "wrapping": 2
        }
    },
    "iphone": {
        "psp": {
            "wrapping": 2
        }
    },
    "isvisible": true,
    "kuid": "e6cb077fcfd242e79705dcce334a9761",
    "name": "kony.ui.Label",
    "parent": "flxTransactionDetailsBody",
    "pf": "frmTransactionDetails",
    "tooltip": "",
    "wType": "Label",
    "zindex": 1
}