{
    "@class": "com.kony.gen.viz.model.component.KVizButton",
    "DNDConfig": null,
    "__parentReadjusting__": false,
    "_height_": {
        "type": "string",
        "value": "42dp"
    },
    "_margin_": [
        6,
        6,
        6,
        6
    ],
    "_padding_": [
        0,
        0,
        0,
        0
    ],
    "_skin_": "s51d68053cae4eba826625de179be4ae",
    "_text_": "Get Directions",
    "_top_": {
        "type": "string",
        "value": "10dp"
    },
    "_width_": {
        "type": "string",
        "value": "80%"
    },
    "canUpdateUI": true,
    "centerx": {
        "type": "string",
        "value": "50.00%"
    },
    "containerweight": 100,
    "contentalignment": 5,
    "disabledSkins": {},
    "displaytext": true,
    "focusskin": "sbe13586f59d4a768bfe23c1b619f8c6",
    "id": "getDirectionsButton",
    "info": null,
    "iphone": {
        "psp": {
            "showProgressIndicator": false
        }
    },
    "isvisible": true,
    "kuid": "1ba0c5a73d2f412c9ab8b857b91b8c60",
    "name": "kony.ui.Button",
    "onclick": "AS_Button_d5612ae0ecc447159a04227c2c72be7c",
    "parent": "getDirectionsContainer",
    "pf": "frmLocatorBranchDetailsKA",
    "showprogressindicator": false,
    "texti18n": "i18n.locateus.getDirections",
    "wType": "Button",
    "zindex": 1
}