{
    "@class": "com.kony.gen.viz.model.component.KVizButton",
    "DNDConfig": null,
    "__parentReadjusting__": false,
    "_height_": {
        "type": "string",
        "value": "30dp"
    },
    "_margin_": [
        6,
        6,
        6,
        6
    ],
    "_padding_": [
        0,
        0,
        0,
        0
    ],
    "_right_": {
        "type": "string",
        "value": "10dp"
    },
    "_skin_": "sfbb9eb449e94e6185e91a654ff522fc",
    "_text_": "",
    "_width_": {
        "type": "string",
        "value": "30dp"
    },
    "canUpdateUI": true,
    "centery": {
        "type": "string",
        "value": "50%"
    },
    "containerweight": 100,
    "contentalignment": 5,
    "displaytext": true,
    "focusskin": "sfbb9eb449e94e6185e91a654ff522fc",
    "id": "btnCustomerCareCallKA",
    "ide_onClick": "AS_Button_15645b56d83d45808665b2ccc152d871",
    "info": null,
    "isvisible": true,
    "kuid": "304aa80497a141f59d50cf8f1ef71979",
    "name": "kony.ui.Button",
    "parent": "flxCustomerCareCallKA",
    "pf": "frmCardOperationsKA",
    "wType": "Button",
    "zindex": 1
}