{
    "@class": "com.kony.gen.viz.model.container.KVizScrollFlexForm",
    "DNDConfig": null,
    "_footers_": [],
    "_margin_": [
        0,
        0,
        0,
        0
    ],
    "_padding_": [
        0,
        0,
        0,
        0
    ],
    "_skin_": "saccb95b58984589af381140b9870839",
    "_title_": "",
    "addWidgetsdone": false,
    "allboxes": [],
    "android": {
        "ide_onDeviceBack": "AS_Form_2814761571104ec7b9db67d2aa174c36",
        "inTransitionConfig": {
            "formAnimation": 0
        },
        "needAppMenu": false,
        "onDeviceBack": "AS_Form_fb98c55e1cfb4013b6ba7458a11db3ff",
        "outTransitionConfig": {
            "formAnimation": 0
        },
        "psp": {
            "onDeviceMenu": "AS_Form_de46d0ad57954f4b9913fab3b19a0145"
        }
    },
    "bounces": true,
    "canUpdateUI": true,
    "children": [
        "overview"
    ],
    "configurestatusbarstyle": true,
    "containerweight": 100,
    "currentLocale": "es_ES",
    "desktopweb": {
        "needAppMenu": false
    },
    "device": "GalaxyS4",
    "displayorientation": 1,
    "enabled": false,
    "enabledforidletimeout": true,
    "enablescrolling": true,
    "footer": "frmEnterLocationKA_footer",
    "id": "frmEnterLocationKA",
    "ide_preShow": "AS_Form_28e06581c3f14a90921e2454a2613f21",
    "info": null,
    "initdone": false,
    "inputaccessoryviewtype": 4,
    "intransitionconfig": {
        "transitionDirection": "none",
        "transitionEffect": "transitionReveal"
    },
    "invokedProperty": "footers",
    "ipad": {
        "psp": {
            "inputAccessoryViewType": 4
        }
    },
    "iphone": {
        "inTransitionConfig": {
            "transitionDirection": "none",
            "transitionEffect": "transitionFade"
        },
        "needAppMenu": false,
        "outTransitionConfig": {
            "transitionDirection": "none",
            "transitionEffect": "transitionFade"
        },
        "psp": {
            "configureStatusBarStyle": true,
            "inputAccessoryViewType": 1,
            "statusBarHidden": false,
            "statusBarStyle": "STATUS_BAR_STYLE_LIGHT_CONTENT",
            "titleBarConfig": {
                "buttonClosureLeftSideView": "",
                "buttonClosureRightSideView": "",
                "buttonText": "Edit",
                "leftButtonText": "Back",
                "leftTitle": "Back",
                "prevFormTitle": false,
                "renderTitleText": true,
                "rightTitle": "Edit",
                "titleBarLeftSideView": "none",
                "titleBarRightSideView": "none",
                "titleClosureLeftSideView": "",
                "titleClosureRightSideView": "",
                "visible": false
            }
        },
        "titleBar": false
    },
    "isvisible": true,
    "kuid": "861873c077284bceac2ded89085a841b",
    "layouttype": 2,
    "name": "kony.ui.Form2",
    "needappmenu": true,
    "orientation": 1,
    "outtransitionconfig": {
        "transitionDirection": "none",
        "transitionEffect": "transitionReveal"
    },
    "paddinginpixel": false,
    "percent": true,
    "platform": "android",
    "preshow": "AS_Form_01e563f105d24128a6d880f4ff7ffe3b",
    "prevDevice": "iPhone6",
    "prevPlatform": "iphone",
    "retainscrollposition": false,
    "shellCSS": "and_GalaxyS4",
    "snapgridsize": 10,
    "snaptogrid": true,
    "spa": {
        "inTransitionConfig": {
            "formTransition": "none"
        },
        "outTransitionConfig": {
            "formTransition": "none"
        }
    },
    "spaan": {
        "needAppMenu": false
    },
    "spabb": {
        "needAppMenu": false
    },
    "spaip": {
        "needAppMenu": false
    },
    "spawinphone8": {
        "needAppMenu": false
    },
    "statusbarstyle": "STATUS_BAR_STYLE_LIGHT_CONTENT",
    "titleBarSkin": "sf9d12b1e1d546169560d8b1b80caf35",
    "titlebar": true,
    "type": 3,
    "wType": "Form",
    "winphone8": {
        "inTransitionConfig": {
            "inTransition": "none",
            "transitionMode": "none",
            "transitionSpeed": 0
        },
        "needAppMenu": false,
        "outTransitionConfig": {
            "outTransition": "none",
            "transitionMode": "none",
            "transitionSpeed": 0
        }
    }
}