{
    "@class": "com.kony.gen.viz.model.component.KVizButton",
    "DNDConfig": null,
    "__parentReadjusting__": false,
    "_height_": {
        "type": "string",
        "value": "42dp"
    },
    "_left_": {
        "type": "string",
        "value": "10%"
    },
    "_margin_": [
        6,
        6,
        6,
        6
    ],
    "_padding_": [
        0,
        0,
        0,
        0
    ],
    "_skin_": "s51d68053cae4eba826625de179be4ae",
    "_text_": "PAY BILL",
    "_top_": {
        "type": "string",
        "value": "20dp"
    },
    "_width_": {
        "type": "string",
        "value": "80%"
    },
    "canUpdateUI": true,
    "containerweight": 100,
    "contentalignment": 5,
    "displaytext": true,
    "focusskin": "sbe13586f59d4a768bfe23c1b619f8c6",
    "id": "confirmTransaction",
    "ide_onClick": "AS_Button_f83095484c92406cb4610c411a11f290",
    "info": null,
    "iphone": {
        "psp": {
            "showProgressIndicator": false
        }
    },
    "isvisible": true,
    "kuid": "c028fdb72d854990a49d3a8cf490115b",
    "name": "kony.ui.Button",
    "onclick": "AS_Button_b650f5e4fa9442e5a4830f7ef471a8ac",
    "parent": "confirmContainer",
    "pf": "frmNewBillDetails",
    "showprogressindicator": false,
    "texti18n": "i18n.manage_payee.btnPayBill",
    "wType": "Button"
}