{
    "DNDConfig": null,
    "__parentReadjusting__": false,
    "_height_": {
        "type": "string",
        "value": "25dp"
    },
    "_margin_": [
        0,
        0,
        0,
        0
    ],
    "_orientation_": 6,
    "_padding_": [
        0,
        0,
        0,
        0
    ],
    "_percent_": true,
    "_right_": {
        "type": "string",
        "value": "0%"
    },
    "_skin_": "s5384c55ad894841ae78a8cff35309bf",
    "_top_": {
        "type": "string",
        "value": "0dp"
    },
    "_width_": {
        "type": "string",
        "value": "44dp"
    },
    "allboxes": [],
    "autogrowmode": 0,
    "canUpdateUI": true,
    "centery": {
        "type": "string",
        "value": "50%"
    },
    "children": [
        "CopyflxRoundDBlueOff0d9d0728ca7cb4c",
        "CopyflxNaveenbhaiKiLakeer0g351129d34dd4b"
    ],
    "clipbounds": true,
    "containerweight": 100,
    "enablescrolling": true,
    "id": "flxAccountTransferSwitchOff",
    "ide_onClick": "AS_FlexContainer_j59f4053cd4b49008c1a3fd6e4b0889a",
    "info": null,
    "isvisible": true,
    "kuid": "ha0c7f14f4b84554a7f6a9211e544345",
    "layouttype": 2,
    "name": "kony.ui.FlexContainer",
    "parent": "CopyflxAcc0i857e2a87d0a46",
    "pf": "frmEditAccountSettings",
    "snapgridsize": 10,
    "snaptogrid": true,
    "wType": "FlexContainer",
    "widgetalignment": 1,
    "zindex": 1
}